\relax 
\providecommand\hyper@newdestlabel[2]{}
\providecommand\HyperFirstAtBeginDocument{\AtBeginDocument}
\HyperFirstAtBeginDocument{\ifx\hyper@anchor\@undefined
\global\let\oldcontentsline\contentsline
\gdef\contentsline#1#2#3#4{\oldcontentsline{#1}{#2}{#3}}
\global\let\oldnewlabel\newlabel
\gdef\newlabel#1#2{\newlabelxx{#1}#2}
\gdef\newlabelxx#1#2#3#4#5#6{\oldnewlabel{#1}{{#2}{#3}}}
\AtEndDocument{\ifx\hyper@anchor\@undefined
\let\contentsline\oldcontentsline
\let\newlabel\oldnewlabel
\fi}
\fi}
\global\let\hyper@last\relax 
\gdef\HyperFirstAtBeginDocument#1{#1}
\providecommand\HyField@AuxAddToFields[1]{}
\providecommand\HyField@AuxAddToCoFields[2]{}
\select@language{english}
\@writefile{toc}{\select@language{english}}
\@writefile{lof}{\select@language{english}}
\@writefile{lot}{\select@language{english}}
\@writefile{toc}{\contentsline {section}{\numberline {1}Continuous Bag of Words Model}{1}{section.1}}
\@writefile{toc}{\contentsline {subsection}{\numberline {1.1}One word context}{1}{subsection.1.1}}
\@writefile{toc}{\contentsline {section}{\numberline {2}Skip Gram Model}{1}{section.2}}
\@writefile{toc}{\contentsline {section}{\numberline {3}Results}{1}{section.3}}
\@writefile{toc}{\contentsline {subsection}{\numberline {3.1}Clustering of the items with skip gram}{1}{subsection.3.1}}
\@writefile{lof}{\contentsline {figure}{\numberline {1}{\ignorespaces Results with rankings of size 10, $w$=1 and $s$=2.\relax }}{2}{figure.caption.1}}
\providecommand*\caption@xref[2]{\@setref\relax\@undefined{#1}}
\newlabel{fig:sushi10_size2}{{1}{2}{Results with rankings of size 10, $w$=1 and $s$=2.\relax }{figure.caption.1}{}}
\@writefile{lof}{\contentsline {figure}{\numberline {2}{\ignorespaces Results with rankings of size 5, $w$=1 and $s$=2.\relax }}{2}{figure.caption.1}}
\newlabel{fig:sushi5_size2}{{2}{2}{Results with rankings of size 5, $w$=1 and $s$=2.\relax }{figure.caption.1}{}}
\@writefile{lof}{\contentsline {figure}{\numberline {3}{\ignorespaces Results with rankings of size 5, $w$=1 and $s$=5 (with PCA).\relax }}{2}{figure.caption.2}}
\newlabel{fig:sushi5_size5}{{3}{2}{Results with rankings of size 5, $w$=1 and $s$=5 (with PCA).\relax }{figure.caption.2}{}}
\@writefile{lof}{\contentsline {figure}{\numberline {4}{\ignorespaces Results with rankings of size 5, $w$=1 and $s$=10 (with PCA).\relax }}{2}{figure.caption.2}}
\newlabel{fig:sushi5_size10}{{4}{2}{Results with rankings of size 5, $w$=1 and $s$=10 (with PCA).\relax }{figure.caption.2}{}}
\@writefile{toc}{\contentsline {subsection}{\numberline {3.2}Predicting rankings}{2}{subsection.3.2}}
