\relax 
\@writefile{toc}{\contentsline {section}{\numberline {A}Optimality}{1}}
\@writefile{toc}{\contentsline {subsubsection}{\numberline {A.0.1}Proof of Remark 6\hbox {}}{1}}
\newlabel{eq:pairwise_sigma}{{1}{1}}
\@writefile{toc}{\contentsline {section}{\numberline {B}Empirical consensus}{2}}
\@writefile{toc}{\contentsline {subsection}{\numberline {B.1}Universal rates}{2}}
\@writefile{toc}{\contentsline {subsubsection}{\numberline {B.1.1}Proof of Proposition 9\hbox {}}{2}}
\citation{tsybakov2009introduction}
\citation{BFHS14}
\newlabel{eq:risk1}{{2}{3}}
\newlabel{eq:risk2}{{3}{3}}
\newlabel{eq:Hoeffding-pairwise}{{4}{3}}
\newlabel{eq:Hoeffding-bound}{{B.1.1}{3}}
\@writefile{toc}{\contentsline {subsubsection}{\numberline {B.1.2}Proof of Proposition 11\hbox {}}{3}}
\newlabel{eq:distance_difference}{{5}{4}}
\citation{BFHS14}
\newlabel{eq:Kullback_mallows}{{6}{5}}
\@writefile{toc}{\contentsline {subsection}{\numberline {B.2}Fast Rates}{5}}
\@writefile{toc}{\contentsline {subsubsection}{\numberline {B.2.1}Proof of Proposition 14\hbox {}}{5}}
\newlabel{eq:binomial_proba}{{7}{5}}
\newlabel{eq:binom_increasing1}{{8}{5}}
\newlabel{eq:binom_increasing2}{{9}{6}}
\newlabel{eq:binomial_bound}{{10}{6}}
\newlabel{eq:an_c}{{11}{6}}
\newlabel{eq:an_c_bound}{{12}{6}}
\@writefile{toc}{\contentsline {subsubsection}{\numberline {B.2.2}Remark 12}{6}}
\newlabel{eq:bias_variance}{{13}{6}}
\bibstyle{apalike}
\bibdata{biblio-thesis}
\bibcite{BFHS14}{{1}{2014}{{Busa-Fekete et~al.}}{{}}}
\bibcite{tsybakov2009introduction}{{2}{2009}{{Tsybakov}}{{}}}
\newlabel{eq:bias}{{14}{7}}
\newlabel{eq:variance_upper_bound1}{{15}{7}}
\newlabel{eq:variance_product}{{17}{7}}
\newlabel{eq:variance_upper_bound2}{{18}{7}}
\@writefile{toc}{\contentsline {subsubsection}{\numberline {B.2.3}Proof of Proposition 15\hbox {}}{7}}
