\relax 
\citation{Borda,Condorcet}
\citation{DKNS01,RS03,DSM16}
\citation{DL05,DHLL14}
\citation{KLAV12,Patel2013}
\citation{Condorcet}
\citation{CS05,Truchon08,CRX09}
\citation{Young88}
\citation{YL78}
\citation{BTT89}
\citation{DKNS01}
\citation{diaconis1977spearman}
\citation{CFR06}
\citation{sibony2014borda}
\citation{conitzer2006improved}
\citation{davenport2004computational}
\citation{ailon2008aggregating}
\citation{van2007deterministic}
\citation{betzler2008fixed}
\citation{saari2000geometric}
\citation{procaccia2012maximum}
\citation{soufiani2014statistical}
\citation{DGL96}
\citation{KB05}
\citation{Kemeny59}
\citation{AM12}
\citation{Mallows57}
\citation{Vapnik}
\newlabel{sec:background}{{2}{2}}
\newlabel{eq:ranking_aggregation}{{1}{2}}
\newlabel{eq:median_pb}{{2}{2}}
\citation{Lahiri93}
\citation{LB14a}
\citation{RA14}
\citation{PPR15}
\citation{Copeland51}
\citation{Borda}
\newlabel{eq:emp_risk}{{3}{3}}
\newlabel{eq:ERM1}{{4}{3}}
\newlabel{eq:disp_meas2}{{5}{3}}
\newlabel{eq:emp_disp_meas2}{{6}{3}}
\newlabel{rk:alt_setup}{{2}{3}}
\newlabel{subsec:voting-rules}{{2.3}{3}}
\newlabel{sec:optimality}{{3}{4}}
\newlabel{eq:loss-1}{{7}{4}}
\newlabel{remark:connection_binary}{{3}{4}}
\newlabel{eq:cond_opt}{{9}{4}}
\newlabel{eq:Kendall_med}{{10}{4}}
\newlabel{eq:cond_opt2}{{11}{4}}
\newlabel{thm:optimal}{{5}{4}}
\newlabel{eq:Kendall_risk_min}{{12}{4}}
\newlabel{remark:borda}{{6}{4}}
\citation{Mallows57}
\citation{BFHS14}
\citation{BT52,Luce59,Plackett75}
\citation{KB05}
\citation{JKS16}
\citation{BB08nips}
\newlabel{Rk:Mallows}{{7}{5}}
\newlabel{eq:Mallows}{{14}{5}}
\newlabel{eq:Mallows_disp}{{15}{5}}
\newlabel{Rk:BTL model}{{8}{5}}
\newlabel{sec:rates}{{4}{5}}
\newlabel{eq:classic}{{16}{5}}
\newlabel{eq:classic2}{{17}{5}}
\newlabel{eq:classic2}{{18}{5}}
\newlabel{prop:ERM}{{9}{5}}
\citation{MasNed06}
\citation{Tsy04}
\citation{Audibert1}
\citation{CS15}
\citation{KB05}
\citation{shah2015stochastically}
\newlabel{eq:minimax}{{19}{6}}
\newlabel{prop:minimax_bound}{{11}{6}}
\newlabel{eq:Kendall_risk_min_empirical}{{20}{6}}
\newlabel{prop:low_noise}{{14}{6}}
\newlabel{prop:lower_bound_low_noise}{{15}{7}}
\newlabel{eq:minimax_lownoise}{{21}{7}}
\newlabel{sec:conclusion}{{5}{7}}
\citation{tsybakov2009introduction}
\newlabel{eq:binomial_probability_appendix}{{22}{8}}
\bibstyle{apalike}
\bibdata{biblio-thesis}
\bibcite{ailon2008aggregating}{{1}{2008}{{Ailon et~al.}}{{}}}
\bibcite{AM12}{{2}{2012}{{Ali and Meila}}{{}}}
\bibcite{Audibert1}{{3}{2007}{{Audibert and Tsybakov}}{{}}}
\bibcite{BTT89}{{4}{1989}{{Bartholdi et~al.}}{{}}}
\bibcite{betzler2008fixed}{{5}{2008}{{Betzler et~al.}}{{}}}
\bibcite{Borda}{{6}{1781}{{Borda}}{{}}}
\bibcite{BB08nips}{{7}{2008}{{Bottou and Bousquet}}{{}}}
\bibcite{BT52}{{8}{1952}{{Bradley and Terry}}{{}}}
\bibcite{BFHS14}{{9}{2014}{{Busa-Fekete et~al.}}{{}}}
\bibcite{CS15}{{10}{2015}{{Chen and Suh}}{{}}}
\bibcite{Condorcet}{{11}{1785}{{Condorcet}}{{}}}
\bibcite{conitzer2006improved}{{12}{2006}{{Conitzer et~al.}}{{}}}
\bibcite{CRX09}{{13}{2009}{{Conitzer et~al.}}{{}}}
\bibcite{CS05}{{14}{2005}{{Conitzer and Sandholm}}{{}}}
\bibcite{Copeland51}{{15}{1951}{{Copeland}}{{}}}
\bibcite{CFR06}{{16}{2006}{{Coppersmith et~al.}}{{}}}
\bibcite{davenport2004computational}{{17}{2004}{{Davenport and Kalagnanam}}{{}}}
\bibcite{DL05}{{18}{2005}{{Davenport and Lovell}}{{}}}
\bibcite{DHLL14}{{19}{2014}{{Deng et~al.}}{{}}}
\bibcite{DSM16}{{20}{2016}{{Desarkar et~al.}}{{}}}
\bibcite{DGL96}{{21}{1996}{{Devroye et~al.}}{{}}}
\bibcite{diaconis1977spearman}{{22}{1977}{{Diaconis and Graham}}{{}}}
\bibcite{DKNS01}{{23}{2001}{{Dwork et~al.}}{{}}}
\bibcite{JKS16}{{24}{2016}{{Jiao et~al.}}{{}}}
\bibcite{Kemeny59}{{25}{1959}{{Kemeny}}{{}}}
\bibcite{KLAV12}{{26}{2012}{{Kolde et~al.}}{{}}}
\bibcite{KB05}{{27}{2005}{{Koltchinskii and Beznosova}}{{}}}
\bibcite{Lahiri93}{{28}{1993}{{Lahiri}}{{}}}
\bibcite{LB14a}{{29}{2014}{{Lu and Boutilier}}{{}}}
\bibcite{Luce59}{{30}{1959}{{Luce}}{{}}}
\bibcite{Mallows57}{{31}{1957}{{Mallows}}{{}}}
\bibcite{MasNed06}{{32}{2006}{{Massart and N\'ed\'elec}}{{}}}
\bibcite{Patel2013}{{33}{2013}{{Patel et~al.}}{{}}}
\bibcite{Plackett75}{{34}{1975}{{Plackett}}{{}}}
\bibcite{PPR15}{{35}{2015}{{Prasad et~al.}}{{}}}
\bibcite{procaccia2012maximum}{{36}{2012}{{Procaccia et~al.}}{{}}}
\bibcite{RA14}{{37}{2014}{{Rajkumar and Agarwal}}{{}}}
\bibcite{RS03}{{38}{2003}{{Renda and Straccia}}{{}}}
\bibcite{saari2000geometric}{{39}{2000}{{Saari and Merlin}}{{}}}
\bibcite{shah2015stochastically}{{40}{2015}{{Shah et~al.}}{{}}}
\bibcite{sibony2014borda}{{41}{2014}{{Sibony}}{{}}}
\bibcite{soufiani2014statistical}{{42}{2014}{{Soufiani et~al.}}{{}}}
\bibcite{Truchon08}{{43}{2008}{{Truchon}}{{}}}
\bibcite{Tsy04}{{44}{2004}{{Tsybakov}}{{}}}
\bibcite{tsybakov2009introduction}{{45}{2009}{{Tsybakov}}{{}}}
\bibcite{van2007deterministic}{{46}{2007}{{Van~Zuylen and Williamson}}{{}}}
\bibcite{Vapnik}{{47}{2000}{{Vapnik}}{{}}}
\bibcite{Young88}{{48}{1988}{{Young}}{{}}}
\bibcite{YL78}{{49}{1978}{{Young and Levenglick}}{{}}}
