\headcommand {\slideentry {0}{0}{1}{1/1}{}{0}}
\headcommand {\beamer@framepages {1}{1}}
\headcommand {\slideentry {0}{0}{2}{2/2}{}{0}}
\headcommand {\beamer@framepages {2}{2}}
\headcommand {\beamer@sectionpages {1}{2}}
\headcommand {\beamer@subsectionpages {1}{2}}
\headcommand {\sectionentry {1}{Introduction}{3}{Introduction}{0}}
\headcommand {\slideentry {1}{0}{1}{3/3}{}{0}}
\headcommand {\beamer@framepages {3}{3}}
\headcommand {\slideentry {1}{0}{2}{4/4}{}{0}}
\headcommand {\beamer@framepages {4}{4}}
\headcommand {\slideentry {1}{0}{3}{5/5}{}{0}}
\headcommand {\beamer@framepages {5}{5}}
\headcommand {\slideentry {1}{0}{4}{6/6}{}{0}}
\headcommand {\beamer@framepages {6}{6}}
\headcommand {\slideentry {1}{0}{5}{7/7}{}{0}}
\headcommand {\beamer@framepages {7}{7}}
\headcommand {\beamer@sectionpages {3}{7}}
\headcommand {\beamer@subsectionpages {3}{7}}
\headcommand {\sectionentry {2}{Background on gradient flows}{8}{Background on gradient flows}{0}}
\headcommand {\slideentry {2}{0}{1}{8/8}{}{0}}
\headcommand {\beamer@framepages {8}{8}}
\headcommand {\slideentry {2}{0}{2}{9/9}{}{0}}
\headcommand {\beamer@framepages {9}{9}}
\headcommand {\slideentry {2}{0}{3}{10/11}{}{0}}
\headcommand {\beamer@framepages {10}{11}}
\headcommand {\slideentry {2}{0}{4}{12/13}{}{0}}
\headcommand {\beamer@framepages {12}{13}}
\headcommand {\beamer@sectionpages {8}{13}}
\headcommand {\beamer@subsectionpages {8}{13}}
\headcommand {\sectionentry {3}{Maximum Mean Discrepancy Gradient Flow}{14}{Maximum Mean Discrepancy Gradient Flow}{0}}
\headcommand {\slideentry {3}{0}{1}{14/14}{}{0}}
\headcommand {\beamer@framepages {14}{14}}
\headcommand {\slideentry {3}{0}{2}{15/15}{}{0}}
\headcommand {\beamer@framepages {15}{15}}
\headcommand {\beamer@sectionpages {14}{15}}
\headcommand {\beamer@subsectionpages {14}{15}}
\headcommand {\sectionentry {4}{Convergence properties}{16}{Convergence properties}{0}}
\headcommand {\slideentry {4}{0}{1}{16/16}{}{0}}
\headcommand {\beamer@framepages {16}{16}}
\headcommand {\slideentry {4}{0}{2}{17/17}{}{0}}
\headcommand {\beamer@framepages {17}{17}}
\headcommand {\slideentry {4}{0}{3}{18/18}{}{0}}
\headcommand {\beamer@framepages {18}{18}}
\headcommand {\beamer@sectionpages {16}{18}}
\headcommand {\beamer@subsectionpages {16}{18}}
\headcommand {\sectionentry {5}{A practical algorithm to descend the MMD flow}{19}{A practical algorithm to descend the MMD flow}{0}}
\headcommand {\slideentry {5}{0}{1}{19/19}{}{0}}
\headcommand {\beamer@framepages {19}{19}}
\headcommand {\slideentry {5}{0}{2}{20/20}{}{0}}
\headcommand {\beamer@framepages {20}{20}}
\headcommand {\slideentry {5}{0}{3}{21/21}{}{0}}
\headcommand {\beamer@framepages {21}{21}}
\headcommand {\slideentry {5}{0}{4}{22/23}{}{0}}
\headcommand {\beamer@framepages {22}{23}}
\headcommand {\slideentry {5}{0}{5}{24/24}{}{0}}
\headcommand {\beamer@framepages {24}{24}}
\headcommand {\beamer@sectionpages {19}{24}}
\headcommand {\beamer@subsectionpages {19}{24}}
\headcommand {\sectionentry {6}{Conclusion}{25}{Conclusion}{0}}
\headcommand {\slideentry {6}{0}{1}{25/25}{}{0}}
\headcommand {\beamer@framepages {25}{25}}
\headcommand {\slideentry {6}{0}{2}{26/27}{}{0}}
\headcommand {\beamer@framepages {26}{27}}
\headcommand {\beamer@partpages {1}{29}}
\headcommand {\beamer@subsectionpages {25}{29}}
\headcommand {\beamer@sectionpages {25}{29}}
\headcommand {\beamer@documentpages {29}}
\headcommand {\gdef \inserttotalframenumber {23}}
