\relax 
\providecommand\hyper@newdestlabel[2]{}
\providecommand\HyperFirstAtBeginDocument{\AtBeginDocument}
\HyperFirstAtBeginDocument{\ifx\hyper@anchor\@undefined
\global\let\oldcontentsline\contentsline
\gdef\contentsline#1#2#3#4{\oldcontentsline{#1}{#2}{#3}}
\global\let\oldnewlabel\newlabel
\gdef\newlabel#1#2{\newlabelxx{#1}#2}
\gdef\newlabelxx#1#2#3#4#5#6{\oldnewlabel{#1}{{#2}{#3}}}
\AtEndDocument{\ifx\hyper@anchor\@undefined
\let\contentsline\oldcontentsline
\let\newlabel\oldnewlabel
\fi}
\fi}
\global\let\hyper@last\relax 
\gdef\HyperFirstAtBeginDocument#1{#1}
\providecommand*\HyPL@Entry[1]{}
\HyPL@Entry{0<</P(1)>>}
\providecommand\tcolorbox@label[2]{}
\@writefile{nav}{\headcommand {\slideentry {0}{0}{1}{1/1}{}{0}}}
\@writefile{nav}{\headcommand {\beamer@framepages {1}{1}}}
\HyPL@Entry{1<</P(2)>>}
\@writefile{nav}{\headcommand {\slideentry {0}{0}{2}{2/2}{}{0}}}
\@writefile{nav}{\headcommand {\beamer@framepages {2}{2}}}
\HyPL@Entry{2<</P(3)>>}
\@writefile{toc}{\beamer@sectionintoc {1}{Introduction}{3}{0}{1}}
\@writefile{nav}{\headcommand {\beamer@sectionpages {1}{2}}}
\@writefile{nav}{\headcommand {\beamer@subsectionpages {1}{2}}}
\@writefile{nav}{\headcommand {\sectionentry {1}{Introduction}{3}{Introduction}{0}}}
\@writefile{nav}{\headcommand {\slideentry {1}{0}{1}{3/3}{}{0}}}
\@writefile{nav}{\headcommand {\beamer@framepages {3}{3}}}
\citation{jordan1998variational}
\HyPL@Entry{3<</P(4)>>}
\@writefile{nav}{\headcommand {\slideentry {1}{0}{2}{4/4}{}{0}}}
\@writefile{nav}{\headcommand {\beamer@framepages {4}{4}}}
\HyPL@Entry{4<</P(5)>>}
\@writefile{nav}{\headcommand {\slideentry {1}{0}{3}{5/5}{}{0}}}
\@writefile{nav}{\headcommand {\beamer@framepages {5}{5}}}
\citation{Mroueh:2019}
\citation{chizat2018global}
\citation{rotskoff2019global}
\HyPL@Entry{5<</P(6)>>}
\@writefile{nav}{\headcommand {\slideentry {1}{0}{4}{6/6}{}{0}}}
\@writefile{nav}{\headcommand {\beamer@framepages {6}{6}}}
\HyPL@Entry{6<</P(7)>>}
\@writefile{nav}{\headcommand {\slideentry {1}{0}{5}{7/7}{}{0}}}
\@writefile{nav}{\headcommand {\beamer@framepages {7}{7}}}
\HyPL@Entry{7<</P(8)>>}
\@writefile{toc}{\beamer@sectionintoc {2}{Background on gradient flows}{8}{0}{2}}
\@writefile{nav}{\headcommand {\beamer@sectionpages {3}{7}}}
\@writefile{nav}{\headcommand {\beamer@subsectionpages {3}{7}}}
\@writefile{nav}{\headcommand {\sectionentry {2}{Background on gradient flows}{8}{Background on gradient flows}{0}}}
\@writefile{nav}{\headcommand {\slideentry {2}{0}{1}{8/8}{}{0}}}
\@writefile{nav}{\headcommand {\beamer@framepages {8}{8}}}
\HyPL@Entry{8<</P(9)>>}
\@writefile{nav}{\headcommand {\slideentry {2}{0}{2}{9/9}{}{0}}}
\@writefile{nav}{\headcommand {\beamer@framepages {9}{9}}}
\HyPL@Entry{9<</P(10)>>}
\@writefile{nav}{\headcommand {\slideentry {2}{0}{3}{10/11}{}{0}}}
\@writefile{nav}{\headcommand {\beamer@framepages {10}{11}}}
\HyPL@Entry{11<</P(11)>>}
\@writefile{nav}{\headcommand {\slideentry {2}{0}{4}{12/13}{}{0}}}
\@writefile{nav}{\headcommand {\beamer@framepages {12}{13}}}
\HyPL@Entry{13<</P(12)>>}
\@writefile{toc}{\beamer@sectionintoc {3}{Maximum Mean Discrepancy Gradient Flow}{14}{0}{3}}
\@writefile{nav}{\headcommand {\beamer@sectionpages {8}{13}}}
\@writefile{nav}{\headcommand {\beamer@subsectionpages {8}{13}}}
\@writefile{nav}{\headcommand {\sectionentry {3}{Maximum Mean Discrepancy Gradient Flow}{14}{Maximum Mean Discrepancy Gradient Flow}{0}}}
\@writefile{nav}{\headcommand {\slideentry {3}{0}{1}{14/14}{}{0}}}
\@writefile{nav}{\headcommand {\beamer@framepages {14}{14}}}
\citation{kac1956foundations}
\HyPL@Entry{14<</P(13)>>}
\@writefile{snm}{\beamer@slide {eq:mmd_flow}{15}}
\newlabel{eq:mmd_flow}{{1}{15}{Maximum Mean Discrepancy Gradient Flow}{Doc-Start}{}}
\@writefile{nav}{\headcommand {\slideentry {3}{0}{2}{15/15}{}{0}}}
\@writefile{nav}{\headcommand {\beamer@framepages {15}{15}}}
\HyPL@Entry{15<</P(14)>>}
\@writefile{toc}{\beamer@sectionintoc {4}{Convergence properties}{16}{0}{4}}
\@writefile{nav}{\headcommand {\beamer@sectionpages {14}{15}}}
\@writefile{nav}{\headcommand {\beamer@subsectionpages {14}{15}}}
\@writefile{nav}{\headcommand {\sectionentry {4}{Convergence properties}{16}{Convergence properties}{0}}}
\@writefile{nav}{\headcommand {\slideentry {4}{0}{1}{16/16}{}{0}}}
\@writefile{nav}{\headcommand {\beamer@framepages {16}{16}}}
\HyPL@Entry{16<</P(15)>>}
\@writefile{nav}{\headcommand {\slideentry {4}{0}{2}{17/17}{}{0}}}
\@writefile{nav}{\headcommand {\beamer@framepages {17}{17}}}
\HyPL@Entry{17<</P(16)>>}
\@writefile{snm}{\beamer@slide {eq:gronwall}{18}}
\newlabel{eq:gronwall}{{2}{18}{Convergence properties}{Doc-Start}{}}
\@writefile{nav}{\headcommand {\slideentry {4}{0}{3}{18/18}{}{0}}}
\@writefile{nav}{\headcommand {\beamer@framepages {18}{18}}}
\HyPL@Entry{18<</P(17)>>}
\@writefile{toc}{\beamer@sectionintoc {5}{A practical algorithm to descend the MMD flow}{19}{0}{5}}
\@writefile{nav}{\headcommand {\beamer@sectionpages {16}{18}}}
\@writefile{nav}{\headcommand {\beamer@subsectionpages {16}{18}}}
\@writefile{nav}{\headcommand {\sectionentry {5}{A practical algorithm to descend the MMD flow}{19}{A practical algorithm to descend the MMD flow}{0}}}
\@writefile{nav}{\headcommand {\slideentry {5}{0}{1}{19/19}{}{0}}}
\@writefile{nav}{\headcommand {\beamer@framepages {19}{19}}}
\HyPL@Entry{19<</P(18)>>}
\@writefile{snm}{\beamer@slide {eq:euler_scheme}{20}}
\newlabel{eq:euler_scheme}{{3}{20}{A practical algorithm to descend the MMD flow}{Doc-Start}{}}
\@writefile{nav}{\headcommand {\slideentry {5}{0}{2}{20/20}{}{0}}}
\@writefile{nav}{\headcommand {\beamer@framepages {20}{20}}}
\HyPL@Entry{20<</P(19)>>}
\@writefile{nav}{\headcommand {\slideentry {5}{0}{3}{21/21}{}{0}}}
\@writefile{nav}{\headcommand {\beamer@framepages {21}{21}}}
\HyPL@Entry{21<</P(20)>>}
\@writefile{nav}{\headcommand {\slideentry {5}{0}{4}{22/23}{}{0}}}
\@writefile{nav}{\headcommand {\beamer@framepages {22}{23}}}
\HyPL@Entry{23<</P(21)>>}
\@writefile{nav}{\headcommand {\slideentry {5}{0}{5}{24/24}{}{0}}}
\@writefile{nav}{\headcommand {\beamer@framepages {24}{24}}}
\HyPL@Entry{24<</P(22)>>}
\@writefile{toc}{\beamer@sectionintoc {6}{Conclusion}{25}{0}{6}}
\@writefile{nav}{\headcommand {\beamer@sectionpages {19}{24}}}
\@writefile{nav}{\headcommand {\beamer@subsectionpages {19}{24}}}
\@writefile{nav}{\headcommand {\sectionentry {6}{Conclusion}{25}{Conclusion}{0}}}
\@writefile{nav}{\headcommand {\slideentry {6}{0}{1}{25/25}{}{0}}}
\@writefile{nav}{\headcommand {\beamer@framepages {25}{25}}}
\HyPL@Entry{25<</P(23)>>}
\@writefile{nav}{\headcommand {\slideentry {6}{0}{2}{26/27}{}{0}}}
\@writefile{nav}{\headcommand {\beamer@framepages {26}{27}}}
\bibstyle{apalike}
\bibdata{biblio}
\bibcite{chizat2018global}{\hyperlink {beamerbibchizat2018global}{Chizat and Bach, 2018}}
\bibcite{jordan1998variational}{\hyperlink {beamerbibjordan1998variational}{Jordan et\nobreakspace  {}al., 1998}}
\bibcite{kac1956foundations}{\hyperlink {beamerbibkac1956foundations}{Kac, 1956}}
\bibcite{Mroueh:2019}{\hyperlink {beamerbibMroueh:2019}{Mroueh et\nobreakspace  {}al., 2019}}
\bibcite{rotskoff2019global}{\hyperlink {beamerbibrotskoff2019global}{Rotskoff et\nobreakspace  {}al., 2019}}
\HyPL@Entry{27<</S/D /St 28>>}
\@writefile{nav}{\headcommand {\beamer@partpages {1}{29}}}
\@writefile{nav}{\headcommand {\beamer@subsectionpages {25}{29}}}
\@writefile{nav}{\headcommand {\beamer@sectionpages {25}{29}}}
\@writefile{nav}{\headcommand {\beamer@documentpages {29}}}
\@writefile{nav}{\headcommand {\gdef \inserttotalframenumber {23}}}
