\relax 
\providecommand\hyper@newdestlabel[2]{}
\providecommand\HyperFirstAtBeginDocument{\AtBeginDocument}
\HyperFirstAtBeginDocument{\ifx\hyper@anchor\@undefined
\global\let\oldcontentsline\contentsline
\gdef\contentsline#1#2#3#4{\oldcontentsline{#1}{#2}{#3}}
\global\let\oldnewlabel\newlabel
\gdef\newlabel#1#2{\newlabelxx{#1}#2}
\gdef\newlabelxx#1#2#3#4#5#6{\oldnewlabel{#1}{{#2}{#3}}}
\AtEndDocument{\ifx\hyper@anchor\@undefined
\let\contentsline\oldcontentsline
\let\newlabel\oldnewlabel
\fi}
\fi}
\global\let\hyper@last\relax 
\gdef\HyperFirstAtBeginDocument#1{#1}
\providecommand\HyField@AuxAddToFields[1]{}
\providecommand\HyField@AuxAddToCoFields[2]{}
\bibstyle{plainnat}
\citation{CKS17}
\citation{cart84}
\citation{CKS17}
\citation{YWL10}
\@writefile{toc}{\contentsline {section}{\numberline {1}Introduction}{1}{section.1}}
\newlabel{sec:intro}{{1}{1}{}{section.1}{}}
\citation{CKS17}
\citation{Kemeny59}
\@writefile{toc}{\contentsline {section}{\numberline {2}Preliminaries}{3}{section.2}}
\newlabel{sec:background}{{2}{3}{}{section.2}{}}
\@writefile{toc}{\contentsline {subsection}{\numberline {2.1}Consensus Ranking: Probabilistic Framework and Statistical Setup}{3}{subsection.2.1}}
\newlabel{subsec:consensus}{{2.1}{3}{Consensus Ranking: Probabilistic Framework and Statistical Setup}{subsection.2.1}{}}
\newlabel{eq:ranking_aggregation}{{1}{3}{Consensus Ranking: Probabilistic Framework and Statistical Setup}{equation.2.1}{}}
\newlabel{eq:Kendall_tau}{{2}{3}{Consensus Ranking: Probabilistic Framework and Statistical Setup}{equation.2.2}{}}
\citation{Mallows57}
\citation{Vapnik}
\citation{CKS17}
\citation{Hudry08}
\citation{CKS17}
\citation{Mallows57}
\citation{Plackett75}
\newlabel{eq:median_pb}{{3}{4}{Consensus Ranking: Probabilistic Framework and Statistical Setup}{equation.2.3}{}}
\newlabel{eq:emp_risk}{{4}{4}{Consensus Ranking: Probabilistic Framework and Statistical Setup}{equation.2.4}{}}
\newlabel{def:stoch_trans}{{1}{4}{Consensus Ranking: Probabilistic Framework and Statistical Setup}{theorem.1}{}}
\newlabel{eq:opt_sol}{{5}{4}{Consensus Ranking: Probabilistic Framework and Statistical Setup}{equation.2.5}{}}
\newlabel{eq:inf}{{6}{4}{Consensus Ranking: Probabilistic Framework and Statistical Setup}{equation.2.6}{}}
\newlabel{eq:sol_SST}{{7}{4}{Consensus Ranking: Probabilistic Framework and Statistical Setup}{equation.2.7}{}}
\citation{CKS17}
\citation{CKS17}
\citation{KB05}
\citation{SBGW15}
\citation{CKS17}
\citation{CKS17}
\citation{CKS17}
\citation{CKS17}
\newlabel{rk:dispersion}{{2}{5}{Consensus Ranking: Probabilistic Framework and Statistical Setup}{theorem.2}{}}
\newlabel{eq:hyp_margin0}{{8}{5}{Consensus Ranking: Probabilistic Framework and Statistical Setup}{equation.2.8}{}}
\newlabel{thm:approx_med}{{3}{5}{Consensus Ranking: Probabilistic Framework and Statistical Setup}{theorem.3}{}}
\citation{CJ10}
\@writefile{toc}{\contentsline {subsection}{\numberline {2.2}Best strictly stochastically transitive approximation}{6}{subsection.2.2}}
\newlabel{subsec:best}{{2.2}{6}{Best strictly stochastically transitive approximation}{subsection.2.2}{}}
\newlabel{lem:bounds}{{4}{6}{Best strictly stochastically transitive approximation}{theorem.4}{}}
\newlabel{rk:wassertein}{{5}{6}{Best strictly stochastically transitive approximation}{theorem.5}{}}
\newlabel{eq:metric}{{11}{6}{Best strictly stochastically transitive approximation}{equation.2.11}{}}
\citation{JLYY10}
\citation{tsoumakas2009mining}
\citation{vembu2010label}
\citation{gurrieri2012label}
\citation{YWL10}
\citation{cheng2009new}
\citation{CHH09}
\citation{CDH10}
\citation{rendle2009bpr}
\citation{lu2015individualized}
\newlabel{eq:min_ls}{{12}{7}{Best strictly stochastically transitive approximation}{equation.2.12}{}}
\@writefile{toc}{\contentsline {subsection}{\numberline {2.3}Predictive Ranking and Statistical Conditional Models}{7}{subsection.2.3}}
\newlabel{subsec:cdt_models}{{2.3}{7}{Predictive Ranking and Statistical Conditional Models}{subsection.2.3}{}}
\@writefile{toc}{\contentsline {section}{\numberline {3}Ranking Median Regression}{8}{section.3}}
\newlabel{sec:rmr}{{3}{8}{Predictive Ranking and Statistical Conditional Models}{section.3}{}}
\newlabel{eq:reg_risk}{{13}{8}{Predictive Ranking and Statistical Conditional Models}{equation.3.13}{}}
\newlabel{eq:excess_risk}{{14}{8}{Predictive Ranking and Statistical Conditional Models}{equation.3.14}{}}
\newlabel{eq:ERM}{{15}{8}{Predictive Ranking and Statistical Conditional Models}{equation.3.15}{}}
\citation{CKS17}
\citation{CJ10}
\citation{FJBA13}
\citation{YWL10}
\citation{AY14}
\newlabel{eq:emp_reg_risk}{{16}{9}{Predictive Ranking and Statistical Conditional Models}{equation.3.16}{}}
\newlabel{hyp:complex}{{1}{9}{Predictive Ranking and Statistical Conditional Models}{assumption.1}{}}
\newlabel{prop:upper_bound}{{7}{9}{Predictive Ranking and Statistical Conditional Models}{theorem.7}{}}
\newlabel{eq:ERM_bound_gen}{{17}{9}{Predictive Ranking and Statistical Conditional Models}{equation.3.17}{}}
\newlabel{hyp:margin}{{2}{9}{Predictive Ranking and Statistical Conditional Models}{assumption.2}{}}
\newlabel{prop:fast}{{8}{9}{Predictive Ranking and Statistical Conditional Models}{theorem.8}{}}
\@writefile{toc}{\contentsline {section}{\numberline {4}Local Consensus Methods for Ranking Median Regression}{10}{section.4}}
\newlabel{sec:main}{{4}{10}{Predictive Ranking and Statistical Conditional Models}{section.4}{}}
\@writefile{toc}{\contentsline {subsection}{\numberline {4.1}Piecewise Constant Predictive Ranking Rules and Local Consensus}{10}{subsection.4.1}}
\newlabel{subsec:piece}{{4.1}{10}{Piecewise Constant Predictive Ranking Rules and Local Consensus}{subsection.4.1}{}}
\newlabel{eq:piecewise_cst}{{19}{10}{Piecewise Constant Predictive Ranking Rules and Local Consensus}{equation.4.19}{}}
\newlabel{prop:opt_subclass}{{9}{11}{Piecewise Constant Predictive Ranking Rules and Local Consensus}{theorem.9}{}}
\newlabel{eq:piecewise_cst_opt}{{20}{11}{Piecewise Constant Predictive Ranking Rules and Local Consensus}{equation.4.20}{}}
\newlabel{eq:bias1}{{21}{11}{Piecewise Constant Predictive Ranking Rules and Local Consensus}{equation.4.21}{}}
\newlabel{hyp:smooth}{{3}{11}{Piecewise Constant Predictive Ranking Rules and Local Consensus}{assumption.3}{}}
\newlabel{thm:approx}{{10}{11}{Piecewise Constant Predictive Ranking Rules and Local Consensus}{theorem.10}{}}
\newlabel{eq:RMR_bound}{{23}{11}{Piecewise Constant Predictive Ranking Rules and Local Consensus}{equation.4.23}{}}
\citation{Binev}
\citation{LN96}
\citation{LN96}
\citation{DGL96}
\newlabel{eq:RMR_bound2}{{24}{12}{Piecewise Constant Predictive Ranking Rules and Local Consensus}{equation.4.24}{}}
\newlabel{eq:rule_theor}{{25}{12}{Piecewise Constant Predictive Ranking Rules and Local Consensus}{equation.4.25}{}}
\newlabel{eq:rule_pract}{{26}{13}{Piecewise Constant Predictive Ranking Rules and Local Consensus}{equation.4.26}{}}
\newlabel{th:partition_consist}{{13}{13}{Piecewise Constant Predictive Ranking Rules and Local Consensus}{theorem.13}{}}
\@writefile{toc}{\contentsline {subsection}{\numberline {4.2}Nearest-Neighbor Rules for Ranking Median Regression}{13}{subsection.4.2}}
\newlabel{subsec:algoNN}{{4.2}{13}{Nearest-Neighbor Rules for Ranking Median Regression}{subsection.4.2}{}}
\newlabel{eq:local_distr}{{27}{13}{Nearest-Neighbor Rules for Ranking Median Regression}{equation.4.27}{}}
\citation{BHS14}
\citation{FHTbook}
\citation{DGL96}
\citation{friedman}
\citation{YWL10}
\newlabel{eq:k_NNtheo}{{28}{14}{Nearest-Neighbor Rules for Ranking Median Regression}{equation.4.28}{}}
\newlabel{eq:k_NNpract}{{29}{14}{Nearest-Neighbor Rules for Ranking Median Regression}{equation.4.29}{}}
\newlabel{thm:NN_consist}{{14}{14}{Nearest-Neighbor Rules for Ranking Median Regression}{theorem.14}{}}
\@writefile{toc}{\contentsline {subsection}{\numberline {4.3}Recursive Partitioning - The {\sc  CRIT} algorithm}{15}{subsection.4.3}}
\newlabel{subsec:algo}{{4.3}{15}{Recursive Partitioning - The {\sc CRIT} algorithm}{subsection.4.3}{}}
\newlabel{eq:train1}{{32}{15}{Recursive Partitioning - The {\sc CRIT} algorithm}{equation.4.32}{}}
\newlabel{eq:crit_exp1}{{33}{15}{Recursive Partitioning - The {\sc CRIT} algorithm}{equation.4.33}{}}
\newlabel{eq:crit_exp2}{{34}{15}{Recursive Partitioning - The {\sc CRIT} algorithm}{equation.4.34}{}}
\newlabel{eq:double}{{35}{15}{Recursive Partitioning - The {\sc CRIT} algorithm}{equation.4.35}{}}
\newlabel{eq:crit_exp3}{{36}{15}{Recursive Partitioning - The {\sc CRIT} algorithm}{equation.4.36}{}}
\citation{YWL10}
\newlabel{eq:min_pb}{{38}{16}{Recursive Partitioning - The {\sc CRIT} algorithm}{equation.4.38}{}}
\newlabel{rk:related}{{15}{16}{Recursive Partitioning - The {\sc CRIT} algorithm}{theorem.15}{}}
\citation{Mallows57}
\citation{AY14}
\citation{AY14}
\citation{AY14}
\@writefile{toc}{\contentsline {section}{\numberline {5}Numerical Experiments}{17}{section.5}}
\newlabel{sec:num}{{5}{17}{Recursive Partitioning - The {\sc CRIT} algorithm}{section.5}{}}
\@writefile{toc}{\contentsline {subsection}{\numberline {5.1}Results on simulated data}{17}{subsection.5.1}}
\@writefile{toc}{\contentsline {subsection}{\numberline {5.2}Analysis of GSS data on job value preferences}{17}{subsection.5.2}}
\citation{CKS17}
\citation{SCK15}
\bibstyle{apa}
\bibdata{biblio-thesis}
\bibcite{AY14}{{1}{2014}{{Alvo and Yu}}{{}}}
\bibcite{BHS14}{{2}{2013}{{{Bellet} et~al.}}{{{Bellet}, {Habrard}, and {Sebban}}}}
\bibcite{BDL08}{{3}{2008}{{Biau et~al.}}{{Biau, Devroye, and Lugosi}}}
\bibcite{Binev}{{4}{2005}{{Binev et~al.}}{{Binev, Cohen, Dahmen, DeVore, and Temlyakov}}}
\bibcite{Br96}{{5}{1996}{{Breiman}}{{}}}
\bibcite{Br01}{{6}{2001}{{Breiman}}{{}}}
\@writefile{toc}{\contentsline {section}{\numberline {6}Conclusion and Perspectives}{18}{section.6}}
\newlabel{sec:conclusion}{{6}{18}{Analysis of GSS data on job value preferences}{section.6}{}}
\bibcite{cart84}{{7}{1984}{{Breiman et~al.}}{{Breiman, Friedman, Olshen, and Stone}}}
\bibcite{cheng2009new}{{8}{2009}{{Cheng and H{\"u}llermeier}}{{}}}
\bibcite{CHH09}{{9}{2009}{{Cheng et~al.}}{{Cheng, H\"uhn, and H\"ullermeier}}}
\bibcite{CDH10}{{10}{2010}{{Cheng et~al.}}{{Cheng, Dembczy{\'n}ski, and H\"ullermeier}}}
\bibcite{CJ10}{{11}{2010}{{Cl{\'e}men{\c {c}}on and Jakubowicz}}{{}}}
\bibcite{DGL96}{{12}{1996}{{Devroye et~al.}}{{Devroye, Gy\"orfi, and Lugosi}}}
\bibcite{FJBA13}{{13}{2013}{{Fogel et~al.}}{{Fogel, Jenatton, Bach, and d'Aspremont}}}
\bibcite{friedman}{{14}{1997}{{Friedman}}{{}}}
\bibcite{FHTbook}{{15}{2002}{{Friedman et~al.}}{{Friedman, Hastie, and Tibshirani}}}
\bibcite{gurrieri2012label}{{16}{2012}{{Gurrieri et~al.}}{{Gurrieri, Siebert, Fortemps, Greco, and S{\l }owi{\'n}ski}}}
\bibcite{gyorfi2006distribution}{{17}{2006}{{Gy{\"o}rfi et~al.}}{{Gy{\"o}rfi, Kohler, Krzyzak, and Walk}}}
\bibcite{Hudry08}{{18}{2008}{{Hudry}}{{}}}
\bibcite{JLYY10}{{19}{2010}{{Jiang et~al.}}{{Jiang, Lim, Yao, and Ye}}}
\bibcite{Kemeny59}{{20}{1959}{{Kemeny}}{{}}}
\bibcite{KB05}{{21}{2005}{{Koltchinskii and Beznosova}}{{}}}
\bibcite{CKS17}{{22}{2017}{{Korba et~al.}}{{Korba, Cl\'emen\c {c}on, and Sibony}}}
\bibcite{lu2015individualized}{{23}{2015}{{Lu and Negahban}}{{}}}
\bibcite{LN96}{{24}{1996}{{Lugosi and Nobel}}{{}}}
\bibcite{Mallows57}{{25}{1957}{{Mallows}}{{}}}
\bibcite{Plackett75}{{26}{1975}{{Plackett}}{{}}}
\bibcite{rendle2009bpr}{{27}{2009}{{Rendle et~al.}}{{Rendle, Freudenthaler, Gantner, and Schmidt-Thieme}}}
\bibcite{SBGW15}{{28}{2015}{{Shah et~al.}}{{Shah, Balakrishnan, Guntuboyina, and Wainright}}}
\bibcite{SCK15}{{29}{2015}{{Sibony et~al.}}{{Sibony, Cl\'emen\c {c}on, and Jakubowicz}}}
\bibcite{tsoumakas2009mining}{{30}{2009}{{Tsoumakas et~al.}}{{Tsoumakas, Katakis, and Vlahavas}}}
\bibcite{Vapnik}{{31}{2000}{{Vapnik}}{{}}}
\bibcite{vembu2010label}{{32}{2010}{{Vembu and G{\"a}rtner}}{{}}}
\bibcite{YWL10}{{33}{2010}{{Yu et~al.}}{{Yu, Wan, and Lee}}}
\newlabel{eq:margin}{{44}{21}{Proof of Lemma \ref {lem:bounds}}{equation.6.44}{}}
\citation{DGL96}
\citation{CKS17}
\newlabel{rk:minimaxity}{{16}{22}{Proof of Proposition \ref {prop:upper_bound}}{theorem.16}{}}
\newlabel{lem:var_control}{{17}{22}{Proof of Proposition \ref {prop:fast}}{theorem.17}{}}
\@writefile{lof}{\contentsline {figure}{\numberline {1}{\ignorespaces Example of a distribution satisfying Assumptions \ref  {hyp:margin}-\ref  {hyp:smooth} in $\mathbb  {R}^2$ .}}{24}{figure.1}}
\newlabel{fig:example_partition}{{1}{24}{Example of a distribution satisfying Assumptions \ref {hyp:margin}-\ref {hyp:smooth} in $\mathbb {R}^2$ }{figure.1}{}}
\citation{DGL96}
\newlabel{eq:decompos}{{47}{25}{Proof of Theorem \ref {th:partition_consist}}{equation.6.47}{}}
\newlabel{eq:bound_diam}{{48}{25}{Proof of Theorem \ref {th:partition_consist}}{equation.6.48}{}}
\newlabel{eq:bound_term1}{{50}{25}{Proof of Theorem \ref {th:partition_consist}}{equation.6.50}{}}
\newlabel{lem:VCbounds}{{18}{26}{Proof of Theorem \ref {th:partition_consist}}{theorem.18}{}}
\newlabel{eq:indicator}{{51}{26}{Proof of Theorem \ref {th:partition_consist}}{equation.6.51}{}}
\citation{gyorfi2006distribution}
\newlabel{fig:trpseudoknn}{{6}{27}{The $k$-NN algorithm for Ranking Median Regression}{Item.2}{}}
\@writefile{lof}{\contentsline {figure}{\numberline {2}{\ignorespaces Pseudo-code for the $k$-NN algorithm.}}{27}{figure.2}}
\citation{gyorfi2006distribution}
\citation{gyorfi2006distribution}
\newlabel{lem:x_bounded}{{19}{28}{Proof of Theorem \ref {thm:NN_consist}}{theorem.19}{}}
\citation{gyorfi2006distribution}
\newlabel{fig:trpseudocrit}{{6}{29}{The {\sc CRIT} algorithm}{Item.5}{}}
\@writefile{lof}{\contentsline {figure}{\numberline {3}{\ignorespaces Pseudo-code for the {\sc  CRIT} algorithm.}}{29}{figure.3}}
\citation{cart84}
\citation{cart84}
\citation{Br96}
\citation{Br01}
\newlabel{rk:perp_split}{{21}{30}{The {\sc CRIT} algorithm}{theorem.21}{}}
\citation{BDL08}
\newlabel{eq:sum_scoring}{{55}{32}{Consistency preservation and aggregation}{equation.6.55}{}}
\newlabel{thm:consist}{{22}{32}{Consistency preservation and aggregation}{theorem.22}{}}
\newlabel{RF1}{34}
\@writefile{lot}{\contentsline {table}{\numberline {1}{\ignorespaces Empirical risk averaged on 50 trials on simulated data.}}{34}{table.1}}
\newlabel{table:simulated_data}{{1}{34}{Empirical risk averaged on 50 trials on simulated data}{table.1}{}}
