\relax 
\providecommand\hyper@newdestlabel[2]{}
\providecommand\HyperFirstAtBeginDocument{\AtBeginDocument}
\HyperFirstAtBeginDocument{\ifx\hyper@anchor\@undefined
\global\let\oldcontentsline\contentsline
\gdef\contentsline#1#2#3#4{\oldcontentsline{#1}{#2}{#3}}
\global\let\oldnewlabel\newlabel
\gdef\newlabel#1#2{\newlabelxx{#1}#2}
\gdef\newlabelxx#1#2#3#4#5#6{\oldnewlabel{#1}{{#2}{#3}}}
\AtEndDocument{\ifx\hyper@anchor\@undefined
\let\contentsline\oldcontentsline
\let\newlabel\oldnewlabel
\fi}
\fi}
\global\let\hyper@last\relax 
\gdef\HyperFirstAtBeginDocument#1{#1}
\providecommand\HyField@AuxAddToFields[1]{}
\providecommand\HyField@AuxAddToCoFields[2]{}
\select@language{english}
\@writefile{toc}{\select@language{english}}
\@writefile{lof}{\select@language{english}}
\@writefile{lot}{\select@language{english}}
\citation{sibony2014multiresolution}
\citation{sibony2015mra}
\citation{diaconis1988group}
\citation{diaconis1989}
\@writefile{toc}{\contentsline {section}{\numberline {1}Introduction}{7}{section.1}}
\citation{kondor2010ranking}
\citation{lebanon2007non}
\@writefile{toc}{\contentsline {section}{\numberline {2}Preliminary background on rankings}{8}{section.2}}
\@writefile{toc}{\contentsline {subsection}{\numberline {2.1}Rankings - Definition}{8}{subsection.2.1}}
\newlabel{definition}{{2.1}{8}{Rankings - Definition}{subsection.2.1}{}}
\@writefile{toc}{\contentsline {subsection}{\numberline {2.2}Distances on rankings}{8}{subsection.2.2}}
\newlabel{distances}{{2.2}{8}{Distances on rankings}{subsection.2.2}{}}
\citation{deza2009encyclopedia}
\@writefile{toc}{\contentsline {subsection}{\numberline {2.3}Probabilistic modeling on rankings}{9}{subsection.2.3}}
\@writefile{toc}{\contentsline {subsubsection}{\numberline {2.3.1}Mallows model}{10}{subsubsection.2.3.1}}
\newlabel{sec:mallows}{{2.3.1}{10}{Mallows model}{subsubsection.2.3.1}{}}
\@writefile{toc}{\contentsline {subsubsection}{\numberline {2.3.2}Thurstone model}{10}{subsubsection.2.3.2}}
\@writefile{toc}{\contentsline {subsubsection}{\numberline {2.3.3}Plackett-Luce model}{10}{subsubsection.2.3.3}}
\citation{huang2009fourier}
\citation{lebanon2007non}
\citation{sun2012estimating}
\citation{kondor2010ranking}
\citation{diaconis1988group}
\citation{kondor2010ranking}
\citation{huang2009fourier}
\newlabel{eq:eq_plackett}{{2.3.3}{11}{Plackett-Luce model}{subsubsection.2.3.3}{}}
\@writefile{toc}{\contentsline {subsubsection}{\numberline {2.3.4}Non-parametric models}{11}{subsubsection.2.3.4}}
\newlabel{sec:other_models}{{2.3.4}{11}{Non-parametric models}{subsubsection.2.3.4}{}}
\@writefile{toc}{\contentsline {subsection}{\numberline {2.4}Harmonic analysis on $L(\mathfrak  {S}_n)$}{11}{subsection.2.4}}
\newlabel{sec:harmonic_analysis}{{2.4}{11}{Harmonic analysis on $L(\mathfrak {S}_n)$}{subsection.2.4}{}}
\@writefile{toc}{\contentsline {subsubsection}{\numberline {2.4.1}Partitions of $n$, Young and Specht modules}{11}{subsubsection.2.4.1}}
\citation{huang2009fourier}
\@writefile{toc}{\contentsline {subsubsection}{\numberline {2.4.2}Young's rule}{12}{subsubsection.2.4.2}}
\@writefile{toc}{\contentsline {section}{\numberline {3}MRA Framework}{13}{section.3}}
\newlabel{sec:mra_framework}{{3}{13}{MRA Framework}{section.3}{}}
\@writefile{toc}{\contentsline {subsection}{\numberline {3.1}Notations}{13}{subsection.3.1}}
\@writefile{toc}{\contentsline {subsection}{\numberline {3.2}The ranking assumption}{14}{subsection.3.2}}
\newlabel{ranking_assumption}{{1}{14}{The ranking assumption}{equation.3.1}{}}
\citation{clemenccon2014multiresolution}
\@writefile{toc}{\contentsline {subsection}{\numberline {3.3}Statistical setting for the observation of incomplete rankings}{15}{subsection.3.3}}
\newlabel{sec:statistical setting}{{3.3}{15}{Statistical setting for the observation of incomplete rankings}{subsection.3.3}{}}
\@writefile{toc}{\contentsline {subsection}{\numberline {3.4}General MRA-based approach}{15}{subsection.3.4}}
\@writefile{toc}{\contentsline {subsubsection}{\numberline {3.4.1}Background on multiresolution analysis of incomplete rankings}{15}{subsubsection.3.4.1}}
\newlabel{MRA_decomposition}{{3.4.1}{15}{Background on multiresolution analysis of incomplete rankings}{subsubsection.3.4.1}{}}
\@writefile{toc}{\contentsline {subsubsection}{\numberline {3.4.2}Construction of the MRA representation}{16}{subsubsection.3.4.2}}
\newlabel{MRA_representation}{{3.4.2}{16}{Construction of the MRA representation}{subsubsection.3.4.2}{}}
\citation{sibony2015mra}
\@writefile{toc}{\contentsline {subsubsection}{\numberline {3.4.3}Numerical illustrations}{18}{subsubsection.3.4.3}}
\@writefile{lof}{\contentsline {figure}{\numberline {1}{\ignorespaces Mallows distribution with $\sigma ^{*}=(3, 2, 1, 4)$ and $s=0.5$\relax }}{18}{figure.caption.3}}
\providecommand*\caption@xref[2]{\@setref\relax\@undefined{#1}}
\newlabel{fig:mallows_distribution}{{1}{18}{Mallows distribution with $\sigma ^{*}=(3, 2, 1, 4)$ and $s=0.5$\relax }{figure.caption.3}{}}
\@writefile{lof}{\contentsline {figure}{\numberline {2}{\ignorespaces Mixture of two mallows distribution with $\sigma _{1}^{*}=(3, 2, 1, 4)$, $\sigma _{2}^{*}=(1, 4, 2, 3)$and $s=0.5$\relax }}{20}{figure.caption.5}}
\newlabel{fig:2mallows_distribution}{{2}{20}{Mixture of two mallows distribution with $\sigma _{1}^{*}=(3, 2, 1, 4)$, $\sigma _{2}^{*}=(1, 4, 2, 3)$and $s=0.5$\relax }{figure.caption.5}{}}
\@writefile{lof}{\contentsline {figure}{\numberline {3}{\ignorespaces Buckets distribution: $p=\mathds  {1}_{\left \{1,2 \prec 3,4\right \}}$\relax }}{22}{figure.caption.7}}
\newlabel{fig:buckets_distribution}{{3}{22}{Buckets distribution: $p=\mathds {1}_{\left \{1,2 \prec 3,4\right \}}$\relax }{figure.caption.7}{}}
\@writefile{toc}{\contentsline {section}{\numberline {4}Ranking aggregation}{24}{section.4}}
\@writefile{toc}{\contentsline {subsection}{\numberline {4.1}Ranking aggregation Methods}{24}{subsection.4.1}}
\@writefile{toc}{\contentsline {subsubsection}{\numberline {4.1.1}Kemeny's rule}{24}{subsubsection.4.1.1}}
\citation{coppersmith2006ordering}
\@writefile{toc}{\contentsline {subsubsection}{\numberline {4.1.2}Spearman footrule aggregation}{25}{subsubsection.4.1.2}}
\@writefile{toc}{\contentsline {subsubsection}{\numberline {4.1.3}Borda count}{25}{subsubsection.4.1.3}}
\@writefile{toc}{\contentsline {subsubsection}{\numberline {4.1.4}Comments}{25}{subsubsection.4.1.4}}
\citation{jiang2011statistical}
\citation{rajkumar2014statistical}
\citation{shah2015estimation}
\citation{gormley2008mixture}
\@writefile{toc}{\contentsline {subsection}{\numberline {4.2}Consensus reformulation}{26}{subsection.4.2}}
\newlabel{consensus_cost}{{2}{26}{Consensus reformulation}{equation.4.2}{}}
\@writefile{toc}{\contentsline {subsection}{\numberline {4.3}A tentative of algorithm}{27}{subsection.4.3}}
\@writefile{toc}{\contentsline {subsubsection}{\numberline {4.3.1}A hierarchical classification method}{27}{subsubsection.4.3.1}}
\newlabel{consensus_cost_on_A}{{3}{27}{A hierarchical classification method}{equation.4.3}{}}
\@writefile{loa}{\contentsline {algorithm}{\numberline {1}{\ignorespaces Consensus\relax }}{27}{algorithm.1}}
\newlabel{Consensus}{{1}{27}{Consensus\relax }{algorithm.1}{}}
\@writefile{toc}{\contentsline {subsubsection}{\numberline {4.3.2}Results}{28}{subsubsection.4.3.2}}
\@writefile{lot}{\contentsline {table}{\numberline {1}{\ignorespaces Global cost for Mallows ranking models with different spreads.\relax }}{28}{table.1}}
\newlabel{table:donnees_simulees_p_mallows}{{1}{28}{Global cost for Mallows ranking models with different spreads.\relax }{table.1}{}}
\@writefile{lot}{\contentsline {table}{\numberline {2}{\ignorespaces MovieLens\relax }}{29}{table.2}}
\newlabel{table:movielens_data}{{2}{29}{MovieLens\relax }{table.2}{}}
\@writefile{lof}{\contentsline {figure}{\numberline {4}{\ignorespaces $\setbox \z@ \hbox {\frozen@everymath \@emptytoks \mathsurround \z@ $\textstyle P$}\mathaccent "0362{P}_{\delimiter "474A771 4 \delimiter "574B779 }$ : complete rankings distribution in the MovieLens dataset\relax }}{29}{figure.caption.9}}
\newlabel{fig:movielens_distribution}{{4}{29}{$\widehat {P}_{\llbracket 4 \rrbracket }$ : complete rankings distribution in the MovieLens dataset\relax }{figure.caption.9}{}}
\@writefile{lot}{\contentsline {table}{\numberline {3}{\ignorespaces MovieLens\relax }}{29}{table.3}}
\newlabel{table:movielens_data}{{3}{29}{MovieLens\relax }{table.3}{}}
\@writefile{toc}{\contentsline {subsubsection}{\numberline {4.3.3}Noise influence}{30}{subsubsection.4.3.3}}
\@writefile{lof}{\contentsline {figure}{\numberline {5}{\ignorespaces Right: Success rate ($\setbox \z@ \hbox {\frozen@everymath \@emptytoks \mathsurround \z@ $\textstyle \sigma $}\mathaccent "0362{\sigma }=\sigma ^{*}$). Left: Average Kendall distance between $\setbox \z@ \hbox {\frozen@everymath \@emptytoks \mathsurround \z@ $\textstyle \sigma $}\mathaccent "0362{\sigma }$ and $\sigma ^{*}$.\relax }}{31}{figure.5}}
\newlabel{fig:Noise_exp}{{5}{31}{Right: Success rate ($\widehat {\sigma }=\sigma ^{*}$). Left: Average Kendall distance between $\widehat {\sigma }$ and $\sigma ^{*}$.\relax }{figure.5}{}}
\@writefile{toc}{\contentsline {subsubsection}{\numberline {4.3.4}Current limitations}{31}{subsubsection.4.3.4}}
\@writefile{toc}{\contentsline {section}{\numberline {5}More reflexions on consensus}{31}{section.5}}
\@writefile{toc}{\contentsline {subsection}{\numberline {5.1}Decomposition of $L(\mathfrak  {S}_n)$ and information levels}{31}{subsection.5.1}}
\@writefile{toc}{\contentsline {subsection}{\numberline {5.2}Borda count}{32}{subsection.5.2}}
\@writefile{toc}{\contentsline {section}{\numberline {6}Conclusion}{33}{section.6}}
\citation{*}
\bibstyle{unsrt}
\bibdata{ref}
\bibcite{sibony2014multiresolution}{{1}{}{{}}{{}}}
\bibcite{sibony2015mra}{{2}{}{{}}{{}}}
\bibcite{diaconis1988group}{{3}{}{{}}{{}}}
\bibcite{diaconis1989}{{4}{}{{}}{{}}}
\bibcite{kondor2010ranking}{{5}{}{{}}{{}}}
\bibcite{lebanon2007non}{{6}{}{{}}{{}}}
\bibcite{deza2009encyclopedia}{{7}{}{{}}{{}}}
\bibcite{huang2009fourier}{{8}{}{{}}{{}}}
\bibcite{sun2012estimating}{{9}{}{{}}{{}}}
\bibcite{clemenccon2014multiresolution}{{10}{}{{}}{{}}}
\bibcite{coppersmith2006ordering}{{11}{}{{}}{{}}}
\bibcite{jiang2011statistical}{{12}{}{{}}{{}}}
\bibcite{rajkumar2014statistical}{{13}{}{{}}{{}}}
\bibcite{shah2015estimation}{{14}{}{{}}{{}}}
\bibcite{gormley2008mixture}{{15}{}{{}}{{}}}
\bibcite{DBLP:conf/pkdd/ClemenconJ10}{{16}{}{{}}{{}}}
\bibcite{clemenccon2011clustering}{{17}{}{{}}{{}}}
\bibcite{sibonyborda}{{18}{}{{}}{{}}}
\bibcite{DBLP:conf/icml/JiaoV15}{{19}{}{{}}{{}}}
\providecommand\NAT@force@numbers{}\NAT@force@numbers
\@writefile{toc}{\contentsline {section}{\numberline {7}Appendix}{36}{section.7}}
\@writefile{lof}{\contentsline {figure}{\numberline {6}{\ignorespaces Right: $\mathaccentV {tilde}07E{R}_{d,p}$ for $p$ random distribution. Left: $\mathaccentV {tilde}07E{R}_{d,p}$ for $p$ Mallows with high spread ($s$=1)\relax }}{36}{figure.6}}
\newlabel{fig:nu_fixed}{{6}{36}{Right: $\tilde {R}_{d,p}$ for $p$ random distribution. Left: $\tilde {R}_{d,p}$ for $p$ Mallows with high spread ($s$=1)\relax }{figure.6}{}}
\@writefile{lof}{\contentsline {figure}{\numberline {7}{\ignorespaces Right: $\mathaccentV {tilde}07E{R}_{d,p}$ for $\nu $ such that $supp(\nu )=\left \{A, |A|\le 2 \right \}$ . Middle: $\mathaccentV {tilde}07E{R}_{d,p}$ for $\nu $ such that $supp(\nu )=\left \{A, |A|\le 3 \right \}$ Left: $\mathaccentV {tilde}07E{R}_{d,p}$ for $\nu $ such that $supp(\nu )=\left \{A, |A|\le 4 \right \}$\relax }}{36}{figure.7}}
\newlabel{fig:p_fixed}{{7}{36}{Right: $\tilde {R}_{d,p}$ for $\nu $ such that $supp(\nu )=\left \{A, |A|\le 2 \right \}$ . Middle: $\tilde {R}_{d,p}$ for $\nu $ such that $supp(\nu )=\left \{A, |A|\le 3 \right \}$ Left: $\tilde {R}_{d,p}$ for $\nu $ such that $supp(\nu )=\left \{A, |A|\le 4 \right \}$\relax }{figure.7}{}}
