\relax 
\providecommand\hyper@newdestlabel[2]{}
\providecommand\HyperFirstAtBeginDocument{\AtBeginDocument}
\HyperFirstAtBeginDocument{\ifx\hyper@anchor\@undefined
\global\let\oldcontentsline\contentsline
\gdef\contentsline#1#2#3#4{\oldcontentsline{#1}{#2}{#3}}
\global\let\oldnewlabel\newlabel
\gdef\newlabel#1#2{\newlabelxx{#1}#2}
\gdef\newlabelxx#1#2#3#4#5#6{\oldnewlabel{#1}{{#2}{#3}}}
\AtEndDocument{\ifx\hyper@anchor\@undefined
\let\contentsline\oldcontentsline
\let\newlabel\oldnewlabel
\fi}
\fi}
\global\let\hyper@last\relax 
\gdef\HyperFirstAtBeginDocument#1{#1}
\providecommand*\HyPL@Entry[1]{}
\HyPL@Entry{0<</P(1)>>}
\providecommand\tcolorbox@label[2]{}
\@writefile{nav}{\headcommand {\slideentry {0}{0}{1}{1/1}{}{0}}}
\@writefile{nav}{\headcommand {\beamer@framepages {1}{1}}}
\HyPL@Entry{1<</P(2)>>}
\@writefile{nav}{\headcommand {\slideentry {0}{0}{2}{2/2}{}{0}}}
\@writefile{nav}{\headcommand {\beamer@framepages {2}{2}}}
\HyPL@Entry{2<</P(3)>>}
\@writefile{toc}{\beamer@sectionintoc {1}{Introduction and tools}{3}{0}{1}}
\@writefile{nav}{\headcommand {\beamer@sectionpages {1}{2}}}
\@writefile{nav}{\headcommand {\beamer@subsectionpages {1}{2}}}
\@writefile{nav}{\headcommand {\sectionentry {1}{Introduction and tools}{3}{Introduction and tools}{0}}}
\@writefile{nav}{\headcommand {\slideentry {1}{0}{1}{3/3}{}{0}}}
\@writefile{nav}{\headcommand {\beamer@framepages {3}{3}}}
\HyPL@Entry{3<</P(4)>>}
\@writefile{nav}{\headcommand {\slideentry {1}{0}{2}{4/4}{}{0}}}
\@writefile{nav}{\headcommand {\beamer@framepages {4}{4}}}
\HyPL@Entry{4<</P(5)>>}
\@writefile{nav}{\headcommand {\slideentry {1}{0}{3}{5/5}{}{0}}}
\@writefile{nav}{\headcommand {\beamer@framepages {5}{5}}}
\citation{gretton2012kernel}
\HyPL@Entry{5<</P(6)>>}
\@writefile{nav}{\headcommand {\slideentry {1}{0}{4}{6/6}{}{0}}}
\@writefile{nav}{\headcommand {\beamer@framepages {6}{6}}}
\HyPL@Entry{6<</P(7)>>}
\@writefile{toc}{\beamer@sectionintoc {2}{MMD Gradient flow}{7}{0}{2}}
\@writefile{nav}{\headcommand {\beamer@sectionpages {3}{6}}}
\@writefile{nav}{\headcommand {\beamer@subsectionpages {3}{6}}}
\@writefile{nav}{\headcommand {\sectionentry {2}{MMD Gradient flow}{7}{MMD Gradient flow}{0}}}
\@writefile{nav}{\headcommand {\slideentry {2}{0}{1}{7/7}{}{0}}}
\@writefile{nav}{\headcommand {\beamer@framepages {7}{7}}}
\HyPL@Entry{7<</P(8)>>}
\@writefile{nav}{\headcommand {\slideentry {2}{0}{2}{8/8}{}{0}}}
\@writefile{nav}{\headcommand {\beamer@framepages {8}{8}}}
\HyPL@Entry{8<</P(9)>>}
\@writefile{toc}{\beamer@sectionintoc {3}{Background on gradient flows}{9}{0}{3}}
\@writefile{nav}{\headcommand {\beamer@sectionpages {7}{8}}}
\@writefile{nav}{\headcommand {\beamer@subsectionpages {7}{8}}}
\@writefile{nav}{\headcommand {\sectionentry {3}{Background on gradient flows}{9}{Background on gradient flows}{0}}}
\@writefile{nav}{\headcommand {\slideentry {3}{0}{1}{9/9}{}{0}}}
\@writefile{nav}{\headcommand {\beamer@framepages {9}{9}}}
\HyPL@Entry{9<</P(10)>>}
\@writefile{nav}{\headcommand {\slideentry {3}{0}{2}{10/10}{}{0}}}
\@writefile{nav}{\headcommand {\beamer@framepages {10}{10}}}
\citation{ambrosio2008gradient}
\HyPL@Entry{10<</P(11)>>}
\@writefile{nav}{\headcommand {\slideentry {3}{0}{3}{11/11}{}{0}}}
\@writefile{nav}{\headcommand {\beamer@framepages {11}{11}}}
\HyPL@Entry{11<</P(12)>>}
\@writefile{nav}{\headcommand {\slideentry {3}{0}{4}{12/13}{}{0}}}
\@writefile{nav}{\headcommand {\beamer@framepages {12}{13}}}
\HyPL@Entry{13<</P(13)>>}
\@writefile{toc}{\beamer@sectionintoc {4}{Maximum Mean Discrepancy Gradient Flow}{14}{0}{4}}
\@writefile{nav}{\headcommand {\beamer@sectionpages {9}{13}}}
\@writefile{nav}{\headcommand {\beamer@subsectionpages {9}{13}}}
\@writefile{nav}{\headcommand {\sectionentry {4}{Maximum Mean Discrepancy Gradient Flow}{14}{Maximum Mean Discrepancy Gradient Flow}{0}}}
\@writefile{nav}{\headcommand {\slideentry {4}{0}{1}{14/14}{}{0}}}
\@writefile{nav}{\headcommand {\beamer@framepages {14}{14}}}
\HyPL@Entry{14<</P(14)>>}
\@writefile{nav}{\headcommand {\slideentry {4}{0}{2}{15/15}{}{0}}}
\@writefile{nav}{\headcommand {\beamer@framepages {15}{15}}}
\citation{kac1956foundations}
\HyPL@Entry{15<</P(15)>>}
\@writefile{snm}{\beamer@slide {eq:mmd_flow}{16}}
\newlabel{eq:mmd_flow}{{1}{16}{Maximum Mean Discrepancy Gradient Flow}{Doc-Start}{}}
\@writefile{nav}{\headcommand {\slideentry {4}{0}{3}{16/16}{}{0}}}
\@writefile{nav}{\headcommand {\beamer@framepages {16}{16}}}
\HyPL@Entry{16<</P(16)>>}
\@writefile{toc}{\beamer@sectionintoc {5}{Investigating MMD gradient flow convergence}{17}{0}{5}}
\@writefile{nav}{\headcommand {\beamer@sectionpages {14}{16}}}
\@writefile{nav}{\headcommand {\beamer@subsectionpages {14}{16}}}
\@writefile{nav}{\headcommand {\sectionentry {5}{Investigating MMD gradient flow convergence}{17}{Investigating MMD gradient flow convergence}{0}}}
\@writefile{nav}{\headcommand {\slideentry {5}{0}{1}{17/17}{}{0}}}
\@writefile{nav}{\headcommand {\beamer@framepages {17}{17}}}
\HyPL@Entry{17<</P(17)>>}
\@writefile{nav}{\headcommand {\slideentry {5}{0}{2}{18/20}{}{0}}}
\@writefile{nav}{\headcommand {\beamer@framepages {18}{20}}}
\HyPL@Entry{20<</P(18)>>}
\@writefile{snm}{\beamer@slide {eq:gronwall}{21}}
\newlabel{eq:gronwall}{{2}{21}{Investigating MMD gradient flow convergence}{Doc-Start}{}}
\@writefile{nav}{\headcommand {\slideentry {5}{0}{3}{21/23}{}{0}}}
\@writefile{nav}{\headcommand {\beamer@framepages {21}{23}}}
\HyPL@Entry{23<</P(19)>>}
\@writefile{nav}{\headcommand {\slideentry {5}{0}{4}{24/24}{}{0}}}
\@writefile{nav}{\headcommand {\beamer@framepages {24}{24}}}
\HyPL@Entry{24<</P(20)>>}
\@writefile{toc}{\beamer@sectionintoc {6}{A practical algorithm to descend the MMD flow}{25}{0}{6}}
\@writefile{nav}{\headcommand {\beamer@sectionpages {17}{24}}}
\@writefile{nav}{\headcommand {\beamer@subsectionpages {17}{24}}}
\@writefile{nav}{\headcommand {\sectionentry {6}{A practical algorithm to descend the MMD flow}{25}{A practical algorithm to descend the MMD flow}{0}}}
\@writefile{nav}{\headcommand {\slideentry {6}{0}{1}{25/25}{}{0}}}
\@writefile{nav}{\headcommand {\beamer@framepages {25}{25}}}
\HyPL@Entry{25<</P(21)>>}
\@writefile{snm}{\beamer@slide {eq:euler_scheme}{26}}
\newlabel{eq:euler_scheme}{{3}{26}{A practical algorithm to descend the MMD flow}{Doc-Start}{}}
\@writefile{nav}{\headcommand {\slideentry {6}{0}{2}{26/27}{}{0}}}
\@writefile{nav}{\headcommand {\beamer@framepages {26}{27}}}
\HyPL@Entry{27<</P(22)>>}
\@writefile{nav}{\headcommand {\slideentry {6}{0}{3}{28/28}{}{0}}}
\@writefile{nav}{\headcommand {\beamer@framepages {28}{28}}}
\HyPL@Entry{28<</P(23)>>}
\@writefile{nav}{\headcommand {\slideentry {6}{0}{4}{29/31}{}{0}}}
\@writefile{nav}{\headcommand {\beamer@framepages {29}{31}}}
\HyPL@Entry{31<</P(24)>>}
\@writefile{nav}{\headcommand {\slideentry {6}{0}{5}{32/32}{}{0}}}
\@writefile{nav}{\headcommand {\beamer@framepages {32}{32}}}
\HyPL@Entry{32<</P(25)>>}
\@writefile{toc}{\beamer@sectionintoc {7}{Applications}{33}{0}{7}}
\@writefile{nav}{\headcommand {\beamer@sectionpages {25}{32}}}
\@writefile{nav}{\headcommand {\beamer@subsectionpages {25}{32}}}
\@writefile{nav}{\headcommand {\sectionentry {7}{Applications}{33}{Applications}{0}}}
\@writefile{nav}{\headcommand {\slideentry {7}{0}{1}{33/33}{}{0}}}
\@writefile{nav}{\headcommand {\beamer@framepages {33}{33}}}
\citation{rotskoff2019global}
\citation{rotskoff2019global}
\HyPL@Entry{33<</P(26)>>}
\@writefile{nav}{\headcommand {\slideentry {7}{0}{2}{34/34}{}{0}}}
\@writefile{nav}{\headcommand {\beamer@framepages {34}{34}}}
\citation{chizat2018global}
\citation{rotskoff2019global}
\HyPL@Entry{34<</P(27)>>}
\@writefile{nav}{\headcommand {\slideentry {7}{0}{3}{35/35}{}{0}}}
\@writefile{nav}{\headcommand {\beamer@framepages {35}{35}}}
\HyPL@Entry{35<</P(28)>>}
\@writefile{toc}{\beamer@sectionintoc {8}{Conclusion}{36}{0}{8}}
\@writefile{nav}{\headcommand {\beamer@sectionpages {33}{35}}}
\@writefile{nav}{\headcommand {\beamer@subsectionpages {33}{35}}}
\@writefile{nav}{\headcommand {\sectionentry {8}{Conclusion}{36}{Conclusion}{0}}}
\@writefile{nav}{\headcommand {\slideentry {8}{0}{1}{36/36}{}{0}}}
\@writefile{nav}{\headcommand {\beamer@framepages {36}{36}}}
\citation{rotskoff2019global}
\HyPL@Entry{36<</P(29)>>}
\citation{rotskoff2019global}
\@writefile{nav}{\headcommand {\slideentry {8}{0}{2}{37/38}{}{0}}}
\@writefile{nav}{\headcommand {\beamer@framepages {37}{38}}}
\bibstyle{apalike}
\bibdata{biblio}
\bibcite{ambrosio2008gradient}{\hyperlink {beamerbibambrosio2008gradient}{Ambrosio et\nobreakspace  {}al., 2008}}
\bibcite{chizat2018global}{\hyperlink {beamerbibchizat2018global}{Chizat and Bach, 2018}}
\bibcite{gretton2012kernel}{\hyperlink {beamerbibgretton2012kernel}{Gretton et\nobreakspace  {}al., 2012}}
\bibcite{jordan1998variational}{\hyperlink {beamerbibjordan1998variational}{Jordan et\nobreakspace  {}al., 1998}}
\bibcite{kac1956foundations}{\hyperlink {beamerbibkac1956foundations}{Kac, 1956}}
\HyPL@Entry{38<</S/D /St 39>>}
\bibcite{Mroueh:2019}{\hyperlink {beamerbibMroueh:2019}{Mroueh et\nobreakspace  {}al., 2019}}
\bibcite{rotskoff2019global}{\hyperlink {beamerbibrotskoff2019global}{Rotskoff et\nobreakspace  {}al., 2019}}
\HyPL@Entry{39<</P(30)>>}
\HyPL@Entry{40<</S/D /St 41>>}
\@writefile{nav}{\headcommand {\slideentry {8}{0}{3}{40/40}{}{0}}}
\@writefile{nav}{\headcommand {\beamer@framepages {40}{40}}}
\HyPL@Entry{41<</P(31)>>}
\@writefile{nav}{\headcommand {\slideentry {8}{0}{4}{42/42}{}{0}}}
\@writefile{nav}{\headcommand {\beamer@framepages {42}{42}}}
\HyPL@Entry{42<</P(32)>>}
\@writefile{nav}{\headcommand {\slideentry {8}{0}{5}{43/43}{}{0}}}
\@writefile{nav}{\headcommand {\beamer@framepages {43}{43}}}
\citation{jordan1998variational}
\HyPL@Entry{43<</P(33)>>}
\citation{jordan1998variational}
\@writefile{nav}{\headcommand {\slideentry {8}{0}{6}{44/45}{}{0}}}
\@writefile{nav}{\headcommand {\beamer@framepages {44}{45}}}
\citation{Mroueh:2019}
\citation{chizat2018global}
\citation{rotskoff2019global}
\HyPL@Entry{45<</P(34)>>}
\@writefile{nav}{\headcommand {\slideentry {8}{0}{7}{46/46}{}{0}}}
\@writefile{nav}{\headcommand {\beamer@framepages {46}{46}}}
\HyPL@Entry{46<</P(35)>>}
\@writefile{nav}{\headcommand {\slideentry {8}{0}{8}{47/47}{}{0}}}
\@writefile{nav}{\headcommand {\beamer@framepages {47}{47}}}
\HyPL@Entry{47<</P(36)>>}
\@writefile{nav}{\headcommand {\slideentry {8}{0}{9}{48/48}{}{0}}}
\@writefile{nav}{\headcommand {\beamer@framepages {48}{48}}}
\@writefile{nav}{\headcommand {\beamer@partpages {1}{48}}}
\@writefile{nav}{\headcommand {\beamer@subsectionpages {36}{48}}}
\@writefile{nav}{\headcommand {\beamer@sectionpages {36}{48}}}
\@writefile{nav}{\headcommand {\beamer@documentpages {48}}}
\@writefile{nav}{\headcommand {\gdef \inserttotalframenumber {36}}}
