<?xml version="1.0" encoding="UTF-8" standalone="no"?>
<!-- Created with Inkscape (http://www.inkscape.org/) -->

<svg
   xmlns:osb="http://www.openswatchbook.org/uri/2009/osb"
   xmlns:dc="http://purl.org/dc/elements/1.1/"
   xmlns:cc="http://creativecommons.org/ns#"
   xmlns:rdf="http://www.w3.org/1999/02/22-rdf-syntax-ns#"
   xmlns:svg="http://www.w3.org/2000/svg"
   xmlns="http://www.w3.org/2000/svg"
   xmlns:sodipodi="http://sodipodi.sourceforge.net/DTD/sodipodi-0.dtd"
   xmlns:inkscape="http://www.inkscape.org/namespaces/inkscape"
   width="210mm"
   height="297mm"
   viewBox="0 0 744.09448819 1052.3622047"
   id="svg4159"
   version="1.1"
   inkscape:version="0.91 r13725"
   sodipodi:docname="decision_tree.svg">
  <defs
     id="defs4161">
    <linearGradient
       id="linearGradient4709"
       osb:paint="solid">
      <stop
         style="stop-color:#000006;stop-opacity:1;"
         offset="0"
         id="stop4711" />
    </linearGradient>
  </defs>
  <sodipodi:namedview
     id="base"
     pagecolor="#ffffff"
     bordercolor="#666666"
     borderopacity="1.0"
     inkscape:pageopacity="0.0"
     inkscape:pageshadow="2"
     inkscape:zoom="0.35"
     inkscape:cx="-2625.5991"
     inkscape:cy="383.50973"
     inkscape:document-units="px"
     inkscape:current-layer="layer1"
     showgrid="false"
     inkscape:window-width="1440"
     inkscape:window-height="811"
     inkscape:window-x="198"
     inkscape:window-y="43"
     inkscape:window-maximized="0" />
  <metadata
     id="metadata4164">
    <rdf:RDF>
      <cc:Work
         rdf:about="">
        <dc:format>image/svg+xml</dc:format>
        <dc:type
           rdf:resource="http://purl.org/dc/dcmitype/StillImage" />
        <dc:title></dc:title>
      </cc:Work>
    </rdf:RDF>
  </metadata>
  <g
     inkscape:label="Calque 1"
     inkscape:groupmode="layer"
     id="layer1">
    <rect
       style="fill:#fcfdfd;fill-opacity:1;stroke:#020017;stroke-width:3.70000005;stroke-miterlimit:4;stroke-dasharray:none;stroke-opacity:1"
       id="rect4167"
       width="1677.1438"
       height="1597.1428"
       x="-3722.8572"
       y="-96.209229" />
    <rect
       style="fill:#d1831b;fill-opacity:1;stroke:#020017;stroke-width:3.7;stroke-miterlimit:4;stroke-dasharray:none;stroke-opacity:1"
       id="rect6172"
       width="557.14288"
       height="1060"
       x="-3722.8572"
       y="-96.209221" />
    <rect
       style="fill:#9b9bff;fill-opacity:1;stroke:#020017;stroke-width:3.70000005;stroke-miterlimit:4;stroke-dasharray:none;stroke-opacity:1"
       id="rect6218"
       width="555.58392"
       height="537.40118"
       x="-3721.4019"
       y="963.46881" />
    <rect
       style="fill:#5fb70a;fill-opacity:1;stroke:#020017;stroke-width:3.70000005;stroke-miterlimit:4;stroke-dasharray:none;stroke-opacity:1"
       id="rect6231"
       width="738.10425"
       height="727.77551"
       x="-3165.8181"
       y="-95.171089" />
    <rect
       style="fill:#66f972;fill-opacity:1;stroke:#020017;stroke-width:3.70000005;stroke-miterlimit:4;stroke-dasharray:none;stroke-opacity:1"
       id="rect6255"
       width="737.14276"
       height="868.57135"
       x="-3165.7144"
       y="632.36218" />
    <rect
       style="fill-opacity:0.76884425;stroke:#020017;stroke-width:3.70000005;stroke-miterlimit:4;stroke-dasharray:none;stroke-opacity:1;fill:#2b0482"
       id="rect6257"
       width="382.85742"
       height="377.14282"
       x="-2428.5715"
       y="-96.209221" />
    <rect
       style="fill:#20a2e8;fill-opacity:1;stroke:#020017;stroke-width:3.70000005;stroke-miterlimit:4;stroke-dasharray:none;stroke-opacity:1"
       id="rect6295"
       width="382.85538"
       height="1220"
       x="-2428.5713"
       y="280.93365"
       ry="0" />
    <flowRoot
       xml:space="preserve"
       id="flowRoot8369"
       style="fill:black;stroke:none;stroke-opacity:1;stroke-width:1px;stroke-linejoin:miter;stroke-linecap:butt;fill-opacity:1;font-family:sans-serif;font-style:normal;font-weight:normal;font-size:40px;line-height:125%;letter-spacing:0px;word-spacing:0px"><flowRegion
         id="flowRegion8371"><rect
           id="rect8373"
           width="197.14285"
           height="200"
           x="-3522.8572"
           y="326.64792" /></flowRegion><flowPara
         id="flowPara8375" /></flowRoot>  </g>
</svg>
