\relax 
\citation{Borda,Condorcet,Arrow,Xia2015Generalized}
\citation{DKNS01,RS03,Desarkar2016}
\citation{DL05,DHLL14}
\citation{KLAV12,Patel2013}
\citation{Li2014,ZSM14}
\citation{Borda,Condorcet,Arrow}
\citation{Kemeny59}
\citation{Borda}
\citation{Condorcet}
\citation{Arrow}
\citation{Kemeny59}
\citation{YL78}
\citation{BTT89,DKNS01}
\citation{VZW09}
\citation{AM12}
\newlabel{sec:background}{{2}{2}}
\newlabel{subsec:existing-formulations}{{2.1}{2}}
\newlabel{eq:ranking_aggregation}{{1}{2}}
\citation{Mallows57}
\citation{Condorcet}
\citation{Young88}
\citation{BT52,Luce59,Plackett75}
\newlabel{eq:Mallows-definition}{{2}{3}}
\newlabel{eq:PL-definition}{{3}{3}}
\newlabel{eq:theoretical-consensus}{{4}{3}}
\citation{JKS16}
\citation{Vapnik}
\newlabel{eq:median_pb}{{6}{4}}
\newlabel{eq:emp_risk}{{7}{4}}
\newlabel{eq:ERM1}{{8}{4}}
\citation{JKS16}
\citation{BB08nips}
\newlabel{prop:generalization-Mallows-PL}{{2}{5}}
\newlabel{sec:universal-rates}{{3}{5}}
\newlabel{eq:classic}{{9}{5}}
\newlabel{prop:ERM}{{7}{5}}
\newlabel{eq:ERM_bound_gen}{{10}{5}}
\citation{Lahiri93}
\newlabel{eq:minimax}{{11}{6}}
\newlabel{prop:minimax_bound}{{9}{6}}
\newlabel{eq:disp_meas2}{{12}{6}}
\newlabel{eq:emp_disp_meas2}{{13}{6}}
\newlabel{sec:stochastic-transitivity}{{4}{7}}
\newlabel{eq:loss-1}{{17}{7}}
\newlabel{eq:cond_opt}{{19}{7}}
\newlabel{eq:Kendall_med}{{20}{7}}
\newlabel{eq:cond_opt2}{{21}{7}}
\newlabel{thm:optimal}{{14}{7}}
\newlabel{eq:Kendall_risk_min}{{22}{7}}
\citation{de1781memoire}
\citation{Mallows57}
\citation{BT52}
\citation{MasNed06}
\citation{Tsy04}
\citation{Audibert1}
\newlabel{eq:Kendall_med}{{25}{8}}
\newlabel{Rk:Mallows}{{16}{8}}
\newlabel{eq:Mallows}{{26}{8}}
\newlabel{eq:Mallows_pair}{{27}{8}}
\newlabel{eq:Mallows_disp}{{28}{8}}
\newlabel{Rk:BTL model}{{17}{8}}
\newlabel{eq:Mallows_disp}{{29}{8}}
\citation{KB05}
\citation{shah2015stochastically}
\citation{suh2015spectral}
\citation{KMS07}
\newlabel{prop:low_noise}{{19}{9}}
\newlabel{eq:low_noise_bound}{{30}{9}}
\newlabel{prop:lower_bound_low_noise}{{20}{9}}
\newlabel{rk:alt_setup}{{21}{9}}
\citation{BKHF10}
\citation{LB14a}
\newlabel{sec:conclusion}{{6}{10}}
\bibstyle{apalike}
\bibdata{biblio-thesis}
\bibcite{AM12}{{1}{2012}{{Ali and Meila}}{{}}}
\bibcite{Audibert1}{{2}{2007}{{Audibert and Tsybakov}}{{}}}
\bibcite{BTT89}{{3}{1989}{{Bartholdi et~al.}}{{}}}
\bibcite{BKHF10}{{4}{2010}{{Belohlavek et~al.}}{{}}}
\bibcite{Borda}{{5}{1781}{{Borda}}{{}}}
\bibcite{BB08nips}{{6}{2008}{{Bottou and Bousquet}}{{}}}
\bibcite{BT52}{{7}{1952}{{Bradley and Terry}}{{}}}
\bibcite{Condorcet}{{8}{1785}{{Condorcet}}{{}}}
\bibcite{de1781memoire}{{9}{1781}{{de~Borda}}{{}}}
\bibcite{DHLL14}{{10}{2014}{{Deng et~al.}}{{}}}
\bibcite{DKNS01}{{11}{2001}{{Dwork et~al.}}{{}}}
\bibcite{JKS16}{{12}{2016}{{Jiao et~al.}}{{}}}
\bibcite{Kemeny59}{{13}{1959}{{Kemeny}}{{}}}
\bibcite{KMS07}{{14}{2007}{{Kenyon-Mathieu and Schudy}}{{}}}
\bibcite{KB05}{{15}{2005}{{Koltchinskii and Beznosova}}{{}}}
\bibcite{Lahiri93}{{16}{1993}{{Lahiri}}{{}}}
\bibcite{LB14a}{{17}{2014}{{Lu and Boutilier}}{{}}}
\bibcite{Luce59}{{18}{1959}{{Luce}}{{}}}
\bibcite{Mallows57}{{19}{1957}{{Mallows}}{{}}}
\bibcite{MasNed06}{{20}{2006}{{Massart and N\'ed\'elec}}{{}}}
\bibcite{Plackett75}{{21}{1975}{{Plackett}}{{}}}
\bibcite{RS03}{{22}{2003}{{Renda and Straccia}}{{}}}
\bibcite{shah2015stochastically}{{23}{2015}{{Shah et~al.}}{{}}}
\bibcite{suh2015spectral}{{24}{2015}{{Suh and KR}}{{}}}
\bibcite{Tsy04}{{25}{2004}{{Tsybakov}}{{}}}
\bibcite{VZW09}{{26}{2009}{{Van~Zuylen and Williamson}}{{}}}
\bibcite{Vapnik}{{27}{2000}{{Vapnik}}{{}}}
\bibcite{Young88}{{28}{1988}{{Young}}{{}}}
\bibcite{YL78}{{29}{1978}{{Young and Levenglick}}{{}}}
