\relax 
\@writefile{toc}{\contentsline {section}{\numberline {1}Empirical consensus}{1}}
\newlabel{eq:Hoeffding-pairwise}{{1}{1}}
\newlabel{eq:Hoeffding-bound}{{1}{2}}
\@writefile{toc}{\contentsline {section}{\numberline {2}Stochastic transitivity}{5}}
\@writefile{toc}{\contentsline {section}{\numberline {3}Fast Rates}{6}}
