\relax 
\providecommand\hyper@newdestlabel[2]{}
\providecommand\HyperFirstAtBeginDocument{\AtBeginDocument}
\HyperFirstAtBeginDocument{\ifx\hyper@anchor\@undefined
\global\let\oldcontentsline\contentsline
\gdef\contentsline#1#2#3#4{\oldcontentsline{#1}{#2}{#3}}
\global\let\oldnewlabel\newlabel
\gdef\newlabel#1#2{\newlabelxx{#1}#2}
\gdef\newlabelxx#1#2#3#4#5#6{\oldnewlabel{#1}{{#2}{#3}}}
\AtEndDocument{\ifx\hyper@anchor\@undefined
\let\contentsline\oldcontentsline
\let\newlabel\oldnewlabel
\fi}
\fi}
\global\let\hyper@last\relax 
\gdef\HyperFirstAtBeginDocument#1{#1}
\providecommand\HyField@AuxAddToFields[1]{}
\providecommand\HyField@AuxAddToCoFields[2]{}
\@writefile{toc}{\beamer@endinputifotherversion {3.36pt}}
\@writefile{nav}{\beamer@endinputifotherversion {3.36pt}}
\@writefile{nav}{\headcommand {\slideentry {0}{0}{1}{1/1}{}{0}}}
\@writefile{nav}{\headcommand {\beamer@framepages {1}{1}}}
\@writefile{toc}{\beamer@sectionintoc {1}{Why ranking data?}{2}{0}{1}}
\@writefile{nav}{\headcommand {\sectionentry {1}{Why ranking data?}{2}{Why ranking data?}{0}}}
\@writefile{nav}{\headcommand {\beamer@sectionpages {1}{1}}}
\@writefile{nav}{\headcommand {\beamer@subsectionpages {1}{1}}}
\@writefile{nav}{\headcommand {\slideentry {1}{0}{1}{2/2}{}{0}}}
\@writefile{nav}{\headcommand {\beamer@framepages {2}{2}}}
\@writefile{nav}{\headcommand {\slideentry {1}{0}{2}{3/3}{}{0}}}
\@writefile{nav}{\headcommand {\beamer@framepages {3}{3}}}
\@writefile{nav}{\headcommand {\slideentry {1}{0}{3}{4/4}{}{0}}}
\@writefile{nav}{\headcommand {\beamer@framepages {4}{4}}}
\@writefile{nav}{\headcommand {\slideentry {1}{0}{4}{5/5}{}{0}}}
\@writefile{nav}{\headcommand {\beamer@framepages {5}{5}}}
\@writefile{nav}{\headcommand {\slideentry {1}{0}{5}{6/6}{}{0}}}
\@writefile{nav}{\headcommand {\beamer@framepages {6}{6}}}
\@writefile{nav}{\headcommand {\slideentry {1}{0}{6}{7/7}{}{0}}}
\@writefile{nav}{\headcommand {\beamer@framepages {7}{7}}}
\@writefile{nav}{\headcommand {\slideentry {1}{0}{7}{8/8}{}{0}}}
\@writefile{nav}{\headcommand {\beamer@framepages {8}{8}}}
\@writefile{nav}{\headcommand {\slideentry {1}{0}{8}{9/9}{}{0}}}
\@writefile{nav}{\headcommand {\beamer@framepages {9}{9}}}
\@writefile{nav}{\headcommand {\slideentry {1}{0}{9}{10/10}{}{0}}}
\@writefile{nav}{\headcommand {\beamer@framepages {10}{10}}}
\@writefile{nav}{\headcommand {\slideentry {1}{0}{10}{11/11}{}{0}}}
\@writefile{nav}{\headcommand {\beamer@framepages {11}{11}}}
\@writefile{toc}{\beamer@sectionintoc {2}{The analysis of ranking data}{12}{0}{2}}
\@writefile{nav}{\headcommand {\sectionentry {2}{The analysis of ranking data}{12}{The analysis of ranking data}{0}}}
\@writefile{nav}{\headcommand {\beamer@sectionpages {2}{11}}}
\@writefile{nav}{\headcommand {\beamer@subsectionpages {2}{11}}}
\@writefile{nav}{\headcommand {\slideentry {2}{0}{1}{12/12}{}{0}}}
\@writefile{nav}{\headcommand {\beamer@framepages {12}{12}}}
\@writefile{nav}{\headcommand {\slideentry {2}{0}{2}{13/13}{}{0}}}
\@writefile{nav}{\headcommand {\beamer@framepages {13}{13}}}
\@writefile{nav}{\headcommand {\slideentry {2}{0}{3}{14/14}{}{0}}}
\@writefile{nav}{\headcommand {\beamer@framepages {14}{14}}}
\@writefile{nav}{\headcommand {\slideentry {2}{0}{4}{15/15}{}{0}}}
\@writefile{nav}{\headcommand {\beamer@framepages {15}{15}}}
\@writefile{nav}{\headcommand {\slideentry {2}{0}{5}{16/16}{}{0}}}
\@writefile{nav}{\headcommand {\beamer@framepages {16}{16}}}
\citation{Croon1989}
\@writefile{nav}{\headcommand {\slideentry {2}{0}{6}{17/17}{}{0}}}
\@writefile{nav}{\headcommand {\beamer@framepages {17}{17}}}
\citation{Croon1989}
\@writefile{nav}{\headcommand {\slideentry {2}{0}{7}{18/18}{}{0}}}
\@writefile{nav}{\headcommand {\beamer@framepages {18}{18}}}
\@writefile{nav}{\headcommand {\slideentry {2}{0}{8}{19/19}{}{0}}}
\@writefile{nav}{\headcommand {\beamer@framepages {19}{19}}}
\@writefile{nav}{\headcommand {\slideentry {2}{0}{9}{20/20}{}{0}}}
\@writefile{nav}{\headcommand {\beamer@framepages {20}{20}}}
\@writefile{nav}{\headcommand {\slideentry {2}{0}{10}{21/21}{}{0}}}
\@writefile{nav}{\headcommand {\beamer@framepages {21}{21}}}
\@writefile{nav}{\headcommand {\slideentry {2}{0}{11}{22/22}{}{0}}}
\@writefile{nav}{\headcommand {\beamer@framepages {22}{22}}}
\@writefile{nav}{\headcommand {\slideentry {2}{0}{12}{23/23}{}{0}}}
\@writefile{nav}{\headcommand {\beamer@framepages {23}{23}}}
\@writefile{nav}{\headcommand {\slideentry {2}{0}{13}{24/24}{}{0}}}
\@writefile{nav}{\headcommand {\beamer@framepages {24}{24}}}
\@writefile{nav}{\headcommand {\slideentry {2}{0}{14}{25/25}{}{0}}}
\@writefile{nav}{\headcommand {\beamer@framepages {25}{25}}}
\@writefile{nav}{\headcommand {\slideentry {2}{0}{15}{26/26}{}{0}}}
\@writefile{nav}{\headcommand {\beamer@framepages {26}{26}}}
\@writefile{nav}{\headcommand {\slideentry {2}{0}{16}{27/27}{}{0}}}
\@writefile{nav}{\headcommand {\beamer@framepages {27}{27}}}
\@writefile{nav}{\headcommand {\slideentry {2}{0}{17}{28/28}{}{0}}}
\@writefile{nav}{\headcommand {\beamer@framepages {28}{28}}}
\citation{Mallows57}
\citation{Luce59}
\citation{Plackett75}
\citation{Thurstone27}
\@writefile{nav}{\headcommand {\slideentry {2}{0}{18}{29/29}{}{0}}}
\@writefile{nav}{\headcommand {\beamer@framepages {29}{29}}}
\@writefile{nav}{\headcommand {\slideentry {2}{0}{19}{30/30}{}{0}}}
\@writefile{nav}{\headcommand {\beamer@framepages {30}{30}}}
\@writefile{toc}{\beamer@sectionintoc {3}{Harmonic analysis on $\mathfrak  {S}_{n}$}{31}{0}{3}}
\@writefile{nav}{\headcommand {\sectionentry {3}{Harmonic analysis on $\mathfrak  {S}_{n}$}{31}{Harmonic analysis on $\mathfrak  {S}_{n}$}{0}}}
\@writefile{nav}{\headcommand {\beamer@sectionpages {12}{30}}}
\@writefile{nav}{\headcommand {\beamer@subsectionpages {12}{30}}}
\@writefile{nav}{\headcommand {\slideentry {3}{0}{1}{31/31}{}{0}}}
\@writefile{nav}{\headcommand {\beamer@framepages {31}{31}}}
\@writefile{nav}{\headcommand {\slideentry {3}{0}{2}{32/32}{}{0}}}
\@writefile{nav}{\headcommand {\beamer@framepages {32}{32}}}
\@writefile{nav}{\headcommand {\slideentry {3}{0}{3}{33/34}{}{0}}}
\@writefile{nav}{\headcommand {\beamer@framepages {33}{34}}}
\@writefile{nav}{\headcommand {\slideentry {3}{0}{4}{35/35}{}{0}}}
\@writefile{nav}{\headcommand {\beamer@framepages {35}{35}}}
\@writefile{nav}{\headcommand {\slideentry {3}{0}{5}{36/38}{}{0}}}
\@writefile{nav}{\headcommand {\beamer@framepages {36}{38}}}
\@writefile{nav}{\headcommand {\slideentry {3}{0}{6}{39/39}{}{0}}}
\@writefile{nav}{\headcommand {\beamer@framepages {39}{39}}}
\@writefile{nav}{\headcommand {\slideentry {3}{0}{7}{40/40}{}{0}}}
\@writefile{nav}{\headcommand {\beamer@framepages {40}{40}}}
\@writefile{nav}{\headcommand {\slideentry {3}{0}{8}{41/41}{}{0}}}
\@writefile{nav}{\headcommand {\beamer@framepages {41}{41}}}
\@writefile{nav}{\headcommand {\slideentry {3}{0}{9}{42/42}{}{0}}}
\@writefile{nav}{\headcommand {\beamer@framepages {42}{42}}}
\@writefile{nav}{\headcommand {\slideentry {3}{0}{10}{43/43}{}{0}}}
\@writefile{nav}{\headcommand {\beamer@framepages {43}{43}}}
\citation{Diaconis1988}
\citation{HGG09}
\citation{Kondor2010}
\citation{Kakarala2011}
\@writefile{nav}{\headcommand {\slideentry {3}{0}{11}{44/44}{}{0}}}
\@writefile{nav}{\headcommand {\beamer@framepages {44}{44}}}
\@writefile{nav}{\headcommand {\slideentry {3}{0}{12}{45/45}{}{0}}}
\@writefile{nav}{\headcommand {\beamer@framepages {45}{45}}}
\@writefile{nav}{\headcommand {\slideentry {3}{0}{13}{46/46}{}{0}}}
\@writefile{nav}{\headcommand {\beamer@framepages {46}{46}}}
\@writefile{nav}{\headcommand {\slideentry {3}{0}{14}{47/47}{}{0}}}
\@writefile{nav}{\headcommand {\beamer@framepages {47}{47}}}
\@writefile{nav}{\headcommand {\slideentry {3}{0}{15}{48/48}{}{0}}}
\@writefile{nav}{\headcommand {\beamer@framepages {48}{48}}}
\citation{Croon1989}
\@writefile{nav}{\headcommand {\slideentry {3}{0}{16}{49/49}{}{0}}}
\@writefile{nav}{\headcommand {\beamer@framepages {49}{49}}}
\@writefile{toc}{\beamer@sectionintoc {4}{The need for a new representation}{50}{0}{4}}
\@writefile{nav}{\headcommand {\sectionentry {4}{The need for a new representation}{50}{The need for a new representation}{0}}}
\@writefile{nav}{\headcommand {\beamer@sectionpages {31}{49}}}
\@writefile{nav}{\headcommand {\beamer@subsectionpages {31}{49}}}
\@writefile{nav}{\headcommand {\slideentry {4}{0}{1}{50/50}{}{0}}}
\@writefile{nav}{\headcommand {\beamer@framepages {50}{50}}}
\@writefile{nav}{\headcommand {\slideentry {4}{0}{2}{51/51}{}{0}}}
\@writefile{nav}{\headcommand {\beamer@framepages {51}{51}}}
\@writefile{nav}{\headcommand {\slideentry {4}{0}{3}{52/52}{}{0}}}
\@writefile{nav}{\headcommand {\beamer@framepages {52}{52}}}
\@writefile{nav}{\headcommand {\slideentry {4}{0}{4}{53/53}{}{0}}}
\@writefile{nav}{\headcommand {\beamer@framepages {53}{53}}}
\@writefile{nav}{\headcommand {\slideentry {4}{0}{5}{54/54}{}{0}}}
\@writefile{nav}{\headcommand {\beamer@framepages {54}{54}}}
\@writefile{nav}{\headcommand {\slideentry {4}{0}{6}{55/55}{}{0}}}
\@writefile{nav}{\headcommand {\beamer@framepages {55}{55}}}
\@writefile{nav}{\headcommand {\slideentry {4}{0}{7}{56/56}{}{0}}}
\@writefile{nav}{\headcommand {\beamer@framepages {56}{56}}}
\@writefile{nav}{\headcommand {\slideentry {4}{0}{8}{57/57}{}{0}}}
\@writefile{nav}{\headcommand {\beamer@framepages {57}{57}}}
\@writefile{nav}{\headcommand {\slideentry {4}{0}{9}{58/58}{}{0}}}
\@writefile{nav}{\headcommand {\beamer@framepages {58}{58}}}
\@writefile{nav}{\headcommand {\slideentry {4}{0}{10}{59/59}{}{0}}}
\@writefile{nav}{\headcommand {\beamer@framepages {59}{59}}}
\@writefile{nav}{\headcommand {\slideentry {4}{0}{11}{60/60}{}{0}}}
\@writefile{nav}{\headcommand {\beamer@framepages {60}{60}}}
\@writefile{nav}{\headcommand {\slideentry {4}{0}{12}{61/61}{}{0}}}
\@writefile{nav}{\headcommand {\beamer@framepages {61}{61}}}
\@writefile{toc}{\beamer@sectionintoc {5}{The MRA representation}{62}{0}{5}}
\@writefile{nav}{\headcommand {\sectionentry {5}{The MRA representation}{62}{The MRA representation}{0}}}
\@writefile{nav}{\headcommand {\beamer@sectionpages {50}{61}}}
\@writefile{nav}{\headcommand {\beamer@subsectionpages {50}{61}}}
\@writefile{nav}{\headcommand {\slideentry {5}{0}{1}{62/62}{}{0}}}
\@writefile{nav}{\headcommand {\beamer@framepages {62}{62}}}
\citation{CJS2014}
\@writefile{nav}{\headcommand {\slideentry {5}{0}{2}{63/63}{}{0}}}
\@writefile{nav}{\headcommand {\beamer@framepages {63}{63}}}
\@writefile{nav}{\headcommand {\slideentry {5}{0}{3}{64/64}{}{0}}}
\@writefile{nav}{\headcommand {\beamer@framepages {64}{64}}}
\@writefile{nav}{\headcommand {\slideentry {5}{0}{4}{65/65}{}{0}}}
\@writefile{nav}{\headcommand {\beamer@framepages {65}{65}}}
\@writefile{nav}{\headcommand {\slideentry {5}{0}{5}{66/66}{}{0}}}
\@writefile{nav}{\headcommand {\beamer@framepages {66}{66}}}
\citation{Reiner13}
\@writefile{nav}{\headcommand {\slideentry {5}{0}{6}{67/67}{}{0}}}
\@writefile{nav}{\headcommand {\beamer@framepages {67}{67}}}
\@writefile{nav}{\headcommand {\slideentry {5}{0}{7}{68/68}{}{0}}}
\@writefile{nav}{\headcommand {\beamer@framepages {68}{68}}}
\@writefile{nav}{\headcommand {\slideentry {5}{0}{8}{69/69}{}{0}}}
\@writefile{nav}{\headcommand {\beamer@framepages {69}{69}}}
\@writefile{nav}{\headcommand {\slideentry {5}{0}{9}{70/70}{}{0}}}
\@writefile{nav}{\headcommand {\beamer@framepages {70}{70}}}
\@writefile{nav}{\headcommand {\slideentry {5}{0}{10}{71/71}{}{0}}}
\@writefile{nav}{\headcommand {\beamer@framepages {71}{71}}}
\citation{Croon1989}
\@writefile{nav}{\headcommand {\slideentry {5}{0}{11}{72/72}{}{0}}}
\@writefile{nav}{\headcommand {\beamer@framepages {72}{72}}}
\citation{Croon1989}
\@writefile{nav}{\headcommand {\slideentry {5}{0}{12}{73/73}{}{0}}}
\@writefile{nav}{\headcommand {\beamer@framepages {73}{73}}}
\citation{Croon1989}
\@writefile{nav}{\headcommand {\slideentry {5}{0}{13}{74/74}{}{0}}}
\@writefile{nav}{\headcommand {\beamer@framepages {74}{74}}}
\@writefile{nav}{\headcommand {\slideentry {5}{0}{14}{75/75}{}{0}}}
\@writefile{nav}{\headcommand {\beamer@framepages {75}{75}}}
\@writefile{nav}{\headcommand {\slideentry {5}{0}{15}{76/76}{}{0}}}
\@writefile{nav}{\headcommand {\beamer@framepages {76}{76}}}
\@writefile{toc}{\beamer@sectionintoc {6}{Conclusion}{77}{0}{6}}
\@writefile{nav}{\headcommand {\sectionentry {6}{Conclusion}{77}{Conclusion}{0}}}
\@writefile{nav}{\headcommand {\beamer@sectionpages {62}{76}}}
\@writefile{nav}{\headcommand {\beamer@subsectionpages {62}{76}}}
\@writefile{nav}{\headcommand {\slideentry {6}{0}{1}{77/77}{}{0}}}
\@writefile{nav}{\headcommand {\beamer@framepages {77}{77}}}
\@writefile{nav}{\headcommand {\slideentry {6}{0}{2}{78/79}{}{0}}}
\@writefile{nav}{\headcommand {\beamer@framepages {78}{79}}}
\@writefile{nav}{\headcommand {\slideentry {6}{0}{3}{80/80}{}{0}}}
\@writefile{nav}{\headcommand {\beamer@framepages {80}{80}}}
\@writefile{nav}{\headcommand {\slideentry {6}{0}{4}{81/81}{}{0}}}
\@writefile{nav}{\headcommand {\beamer@framepages {81}{81}}}
\bibstyle{apalike}
\bibdata{biblio}
\bibcite{Clausen1993}{\hyperlink {beamerbibClausen1993}{Clausen and Baum, 1993}}
\bibcite{CJS2014}{\hyperlink {beamerbibCJS2014}{Cl\'emen\c {c}on et\nobreakspace  {}al., 2014}}
\bibcite{Croon1989}{\hyperlink {beamerbibCroon1989}{Croon, 1989}}
\bibcite{Diaconis1988}{\hyperlink {beamerbibDiaconis1988}{Diaconis, 1988}}
\bibcite{Diaconis89}{\hyperlink {beamerbibDiaconis89}{Diaconis, 1989}}
\bibcite{HGG09}{\hyperlink {beamerbibHGG09}{Huang et\nobreakspace  {}al., 2009}}
\bibcite{Irurozki2011}{\hyperlink {beamerbibIrurozki2011}{Irurozki et\nobreakspace  {}al., 2011}}
\bibcite{Kakarala2011}{\hyperlink {beamerbibKakarala2011}{Kakarala, 2011}}
\bibcite{Kondor2010}{\hyperlink {beamerbibKondor2010}{Kondor and Barbosa, 2010}}
\bibcite{Kondor2012}{\hyperlink {beamerbibKondor2012}{Kondor and Dempsey, 2012}}
\bibcite{Luce59}{\hyperlink {beamerbibLuce59}{Luce, 1959}}
\bibcite{Mallows57}{\hyperlink {beamerbibMallows57}{Mallows, 1957}}
\bibcite{Plackett75}{\hyperlink {beamerbibPlackett75}{Plackett, 1975}}
\bibcite{Reiner13}{\hyperlink {beamerbibReiner13}{Reiner et\nobreakspace  {}al., 2013}}
\bibcite{Rockmore2002}{\hyperlink {beamerbibRockmore2002}{Rockmore et\nobreakspace  {}al., 2002}}
\bibcite{SCJ2015}{\hyperlink {beamerbibSCJ2015}{Sibony et\nobreakspace  {}al., 2015}}
\bibcite{Thurstone27}{\hyperlink {beamerbibThurstone27}{Thurstone, 1927}}
\@writefile{nav}{\headcommand {\beamer@partpages {1}{85}}}
\@writefile{nav}{\headcommand {\beamer@subsectionpages {77}{85}}}
\@writefile{nav}{\headcommand {\beamer@sectionpages {77}{85}}}
\@writefile{nav}{\headcommand {\beamer@documentpages {85}}}
\@writefile{nav}{\headcommand {\def \inserttotalframenumber {77}}}
