\relax 
\citation{CKS17bis}
\citation{CKS17bis}
\citation{CKS17}
\citation{CKS17}
\citation{CKS17bis}
\citation{CKS18}
\bibstyle{ieee}
\bibcite{CKS17}{1}
\bibcite{CKS17bis}{2}
\bibcite{CKS18}{3}
\providecommand \oddpage@label [2]{}
\pgfsyspdfmark {pgfid1}{1780200}{797160}
\newlabel{eq:Kemeny_median}{{1}{2}}
\newlabel{eq:risk_theo}{{2}{2}}
