\relax 
\providecommand\hyper@newdestlabel[2]{}
\providecommand\HyperFirstAtBeginDocument{\AtBeginDocument}
\HyperFirstAtBeginDocument{\ifx\hyper@anchor\@undefined
\global\let\oldcontentsline\contentsline
\gdef\contentsline#1#2#3#4{\oldcontentsline{#1}{#2}{#3}}
\global\let\oldnewlabel\newlabel
\gdef\newlabel#1#2{\newlabelxx{#1}#2}
\gdef\newlabelxx#1#2#3#4#5#6{\oldnewlabel{#1}{{#2}{#3}}}
\AtEndDocument{\ifx\hyper@anchor\@undefined
\let\contentsline\oldcontentsline
\let\newlabel\oldnewlabel
\fi}
\fi}
\global\let\hyper@last\relax 
\gdef\HyperFirstAtBeginDocument#1{#1}
\providecommand*\HyPL@Entry[1]{}
\HyPL@Entry{0<</P(1)>>}
\@writefile{nav}{\headcommand {\slideentry {0}{0}{1}{1/1}{}{0}}}
\@writefile{nav}{\headcommand {\beamer@framepages {1}{1}}}
\HyPL@Entry{1<</P(2)>>}
\@writefile{nav}{\headcommand {\slideentry {0}{0}{2}{2/2}{}{0}}}
\@writefile{nav}{\headcommand {\beamer@framepages {2}{2}}}
\HyPL@Entry{2<</P(3)>>}
\@writefile{toc}{\beamer@sectionintoc {1}{Introduction to Ranking Data\\ \vspace  *{0.2cm} \relax \fontsize  {8}{9.5}\selectfont  \let \\\@centercr \rightskip \@flushglue \leftskip \@flushglue \parindent \z@ \parfillskip \z@skip \leavevmode {\color {black} $\hskip 1em\relax a_{1}\succ \dots  \succ a_{n} \hskip 1em\relax \Leftrightarrow \hskip 1em\relax \text  {\leavevmode {\color {myred}$\sigma \in \mathfrak  {S}_{n}$ }} \text  { such that } \text  {\leavevmode {\color {myred}$\sigma $}}(a_{i}) = i$} }{3}{0}{1}}
\@writefile{nav}{\headcommand {\beamer@sectionpages {1}{2}}}
\@writefile{nav}{\headcommand {\beamer@subsectionpages {1}{2}}}
\@writefile{nav}{\headcommand {\sectionentry {1}{Introduction to Ranking Data\\ \vspace  *{0.2cm} \relax \fontsize  {8}{9.5}\selectfont  \let \\\@centercr \rightskip \@flushglue \leftskip \@flushglue \parindent \z@ \parfillskip \z@skip \leavevmode {\color {black} $\hskip 1em\relax a_{1}\succ \dots  \succ a_{n} \hskip 1em\relax \Leftrightarrow \hskip 1em\relax \text  {\leavevmode {\color {myred}$\sigma \in \mathfrak  {S}_{n}$ }} \text  { such that } \text  {\leavevmode {\color {myred}$\sigma $}}(a_{i}) = i$} }{3}{Introduction to Ranking Data\\ \vspace  *{0.2cm} \relax \fontsize  {8}{9.5}\selectfont  \let \\\@centercr \rightskip \@flushglue \leftskip \@flushglue \parindent \z@ \parfillskip \z@skip \leavevmode {\color {black} $\hskip 1em\relax a_{1}\succ \dots  \succ a_{n} \hskip 1em\relax \Leftrightarrow \hskip 1em\relax \text  {\leavevmode {\color {myred}$\sigma \in \mathfrak  {S}_{n}$ }} \text  { such that } \text  {\leavevmode {\color {myred}$\sigma $}}(a_{i}) = i$} }{0}}}
\@writefile{nav}{\headcommand {\slideentry {1}{0}{1}{3/3}{}{0}}}
\@writefile{nav}{\headcommand {\beamer@framepages {3}{3}}}
\HyPL@Entry{3<</P(4)>>}
\@writefile{nav}{\headcommand {\slideentry {1}{0}{2}{4/5}{}{0}}}
\@writefile{nav}{\headcommand {\beamer@framepages {4}{5}}}
\HyPL@Entry{5<</P(5)>>}
\@writefile{nav}{\headcommand {\slideentry {1}{0}{3}{6/6}{}{0}}}
\@writefile{nav}{\headcommand {\beamer@framepages {6}{6}}}
\HyPL@Entry{6<</P(6)>>}
\@writefile{nav}{\headcommand {\slideentry {1}{0}{4}{7/9}{}{0}}}
\@writefile{nav}{\headcommand {\beamer@framepages {7}{9}}}
\HyPL@Entry{9<</P(7)>>}
\@writefile{nav}{\headcommand {\slideentry {1}{0}{5}{10/11}{}{0}}}
\@writefile{nav}{\headcommand {\beamer@framepages {10}{11}}}
\HyPL@Entry{11<</P(8)>>}
\@writefile{nav}{\headcommand {\slideentry {1}{0}{6}{12/18}{}{0}}}
\@writefile{nav}{\headcommand {\beamer@framepages {12}{18}}}
\citation{LB14a}
\citation{zhao2016learning}
\citation{szorenyi2015online}
\citation{Mallows57}
\citation{Luce59}
\citation{davidson1959experimental}
\citation{Tversky72}
\HyPL@Entry{18<</P(9)>>}
\citation{LB14a}
\citation{zhao2016learning}
\citation{szorenyi2015online}
\citation{Mallows57}
\citation{Luce59}
\citation{davidson1959experimental}
\citation{Tversky72}
\citation{LB14a}
\citation{zhao2016learning}
\citation{szorenyi2015online}
\citation{Mallows57}
\citation{Luce59}
\citation{davidson1959experimental}
\citation{Tversky72}
\@writefile{nav}{\headcommand {\slideentry {1}{0}{7}{19/21}{}{0}}}
\@writefile{nav}{\headcommand {\beamer@framepages {19}{21}}}
\citation{kondor2010ranking}
\citation{clemenccon2011clustering}
\citation{sibony2015mra}
\citation{sun2012estimating}
\citation{JLYY11}
\citation{rajkumar2014statistical}
\citation{shah2015simple}
\citation{jiao2015kendall}
\HyPL@Entry{21<</P(10)>>}
\@writefile{nav}{\headcommand {\slideentry {1}{0}{8}{22/22}{}{0}}}
\@writefile{nav}{\headcommand {\beamer@framepages {22}{22}}}
\HyPL@Entry{22<</P(11)>>}
\@writefile{nav}{\headcommand {\slideentry {1}{0}{9}{23/23}{}{0}}}
\@writefile{nav}{\headcommand {\beamer@framepages {23}{23}}}
\HyPL@Entry{23<</P(12)>>}
\@writefile{toc}{\beamer@sectionintoc {2}{Ranking Aggregation - A Statistical Framework\\ \vspace  *{0.2cm} \relax \fontsize  {8}{9.5}\selectfont  \let \\\@centercr \rightskip \@flushglue \leftskip \@flushglue \parindent \z@ \parfillskip \z@skip \leavevmode {\color {black} $\hskip 1em\relax \text  {min}_{\text  {\leavevmode {\color {myred}$ \sigma \in \mathfrak  {S}_n$ }}} L(\text  {\leavevmode {\color {myred}$\sigma $}}), \tmspace  +\thickmuskip {.2777em} \text  { with } \tmspace  +\thickmuskip {.2777em} L(\text  {\leavevmode {\color {myred}$\sigma $}})=\mathbb  {E}\left [d_{\tau }\left (\text  {\leavevmode {\color {myred}$\sigma $}},\Sigma \right ) \right ] $}}{24}{0}{2}}
\@writefile{nav}{\headcommand {\beamer@sectionpages {3}{23}}}
\@writefile{nav}{\headcommand {\beamer@subsectionpages {3}{23}}}
\@writefile{nav}{\headcommand {\sectionentry {2}{Ranking Aggregation - A Statistical Framework\\ \vspace  *{0.2cm} \relax \fontsize  {8}{9.5}\selectfont  \let \\\@centercr \rightskip \@flushglue \leftskip \@flushglue \parindent \z@ \parfillskip \z@skip \leavevmode {\color {black} $\hskip 1em\relax \text  {min}_{\text  {\leavevmode {\color {myred}$ \sigma \in \mathfrak  {S}_n$ }}} L(\text  {\leavevmode {\color {myred}$\sigma $}}), \tmspace  +\thickmuskip {.2777em} \text  { with } \tmspace  +\thickmuskip {.2777em} L(\text  {\leavevmode {\color {myred}$\sigma $}})=\mathbb  {E}\left [d_{\tau }\left (\text  {\leavevmode {\color {myred}$\sigma $}},\Sigma \right ) \right ] $}}{24}{Ranking Aggregation - A Statistical Framework\\ \vspace  *{0.2cm} \relax \fontsize  {8}{9.5}\selectfont  \let \\\@centercr \rightskip \@flushglue \leftskip \@flushglue \parindent \z@ \parfillskip \z@skip \leavevmode {\color {black} $\hskip 1em\relax \text  {min}_{\text  {\leavevmode {\color {myred}$ \sigma \in \mathfrak  {S}_n$ }}} L(\text  {\leavevmode {\color {myred}$\sigma $}}), \tmspace  +\thickmuskip {.2777em} \text  { with } \tmspace  +\thickmuskip {.2777em} L(\text  {\leavevmode {\color {myred}$\sigma $}})=\mathbb  {E}\left [d_{\tau }\left (\text  {\leavevmode {\color {myred}$\sigma $}},\Sigma \right ) \right ] $}}{0}}}
\@writefile{nav}{\headcommand {\slideentry {2}{0}{1}{24/24}{}{0}}}
\@writefile{nav}{\headcommand {\beamer@framepages {24}{24}}}
\HyPL@Entry{24<</P(13)>>}
\@writefile{nav}{\headcommand {\slideentry {2}{0}{2}{25/26}{}{0}}}
\@writefile{nav}{\headcommand {\beamer@framepages {25}{26}}}
\citation{Borda}
\citation{Copeland51}
\HyPL@Entry{26<</P(14)>>}
\citation{Borda}
\citation{Copeland51}
\citation{Borda}
\citation{Copeland51}
\citation{Borda}
\citation{Copeland51}
\@writefile{nav}{\headcommand {\slideentry {2}{0}{3}{27/30}{}{0}}}
\@writefile{nav}{\headcommand {\beamer@framepages {27}{30}}}
\HyPL@Entry{30<</P(15)>>}
\@writefile{nav}{\headcommand {\slideentry {2}{0}{4}{31/32}{}{0}}}
\@writefile{nav}{\headcommand {\beamer@framepages {31}{32}}}
\citation{Kemeny59}
\HyPL@Entry{32<</P(16)>>}
\citation{Kemeny59}
\citation{Kemeny59}
\@writefile{nav}{\headcommand {\slideentry {2}{0}{5}{33/35}{}{0}}}
\@writefile{nav}{\headcommand {\beamer@framepages {33}{35}}}
\citation{dwork2001rank}
\HyPL@Entry{35<</P(17)>>}
\@writefile{nav}{\headcommand {\slideentry {2}{0}{6}{36/36}{}{0}}}
\@writefile{nav}{\headcommand {\beamer@framepages {36}{36}}}
\citation{CKS17}
\HyPL@Entry{36<</P(18)>>}
\@writefile{snm}{\beamer@slide {eq:Kemeny_median}{37}}
\newlabel{eq:Kemeny_median}{{1}{37}{Ranking Aggregation - A Statistical Framework\\ \vspace *{0.2cm} \scriptsize \centering \textcolor {black}{ $\quad \text {min}_{\text {\textcolor {myred}{$ \sigma \in \mathfrak {S}_n$ }}} L(\text {\textcolor {myred}{$\sigma $}}), \; \text { with } \; L(\text {\textcolor {myred}{$\sigma $}})=\mathbb {E}\left [d_{\tau }\left (\text {\textcolor {myred}{$\sigma $}},\Sigma \right ) \right ] $}}{Doc-Start}{}}
\citation{CKS17}
\citation{CKS17}
\@writefile{nav}{\headcommand {\slideentry {2}{0}{7}{37/39}{}{0}}}
\@writefile{nav}{\headcommand {\beamer@framepages {37}{39}}}
\citation{audibert2007fast}
\HyPL@Entry{39<</P(19)>>}
\citation{audibert2007fast}
\citation{audibert2007fast}
\@writefile{nav}{\headcommand {\slideentry {2}{0}{8}{40/42}{}{0}}}
\@writefile{nav}{\headcommand {\beamer@framepages {40}{42}}}
\citation{CKS17}
\HyPL@Entry{42<</P(20)>>}
\citation{CKS17}
\citation{CKS17}
\citation{CKS17}
\@writefile{nav}{\headcommand {\slideentry {2}{0}{9}{43/46}{}{0}}}
\@writefile{nav}{\headcommand {\beamer@framepages {43}{46}}}
\citation{JLYY11}
\HyPL@Entry{46<</P(21)>>}
\citation{JLYY11}
\@writefile{nav}{\headcommand {\slideentry {2}{0}{10}{47/48}{}{0}}}
\@writefile{nav}{\headcommand {\beamer@framepages {47}{48}}}
\HyPL@Entry{48<</P(22)>>}
\@writefile{toc}{\beamer@sectionintoc {3}{Label Ranking - Piecewise Constant Rules\\ \vspace  *{0.2cm} \relax \fontsize  {8}{9.5}\selectfont  \let \\\@centercr \rightskip \@flushglue \leftskip \@flushglue \parindent \z@ \parfillskip \z@skip \leavevmode {\color {black} $\hskip 1em\relax \text  {min}_{\text  {\leavevmode {\color {myred}$ s : \mathcal  {X} \to \mathfrak  {S}_n$ }}} \mathcal  {R}(\text  {\leavevmode {\color {myred}s}}), \tmspace  +\thickmuskip {.2777em} \text  { with } \tmspace  +\thickmuskip {.2777em} \mathcal  {R}(\text  {\leavevmode {\color {myred}$s$}})=\mathbb  {E}\left [d_{\tau }\left (\text  {\leavevmode {\color {myred}$s(X)$}},\Sigma \right ) \right ] $}}{49}{0}{3}}
\@writefile{nav}{\headcommand {\beamer@sectionpages {24}{48}}}
\@writefile{nav}{\headcommand {\beamer@subsectionpages {24}{48}}}
\@writefile{nav}{\headcommand {\sectionentry {3}{Label Ranking - Piecewise Constant Rules\\ \vspace  *{0.2cm} \relax \fontsize  {8}{9.5}\selectfont  \let \\\@centercr \rightskip \@flushglue \leftskip \@flushglue \parindent \z@ \parfillskip \z@skip \leavevmode {\color {black} $\hskip 1em\relax \text  {min}_{\text  {\leavevmode {\color {myred}$ s : \mathcal  {X} \to \mathfrak  {S}_n$ }}} \mathcal  {R}(\text  {\leavevmode {\color {myred}s}}), \tmspace  +\thickmuskip {.2777em} \text  { with } \tmspace  +\thickmuskip {.2777em} \mathcal  {R}(\text  {\leavevmode {\color {myred}$s$}})=\mathbb  {E}\left [d_{\tau }\left (\text  {\leavevmode {\color {myred}$s(X)$}},\Sigma \right ) \right ] $}}{49}{Label Ranking - Piecewise Constant Rules\\ \vspace  *{0.2cm} \relax \fontsize  {8}{9.5}\selectfont  \let \\\@centercr \rightskip \@flushglue \leftskip \@flushglue \parindent \z@ \parfillskip \z@skip \leavevmode {\color {black} $\hskip 1em\relax \text  {min}_{\text  {\leavevmode {\color {myred}$ s : \mathcal  {X} \to \mathfrak  {S}_n$ }}} \mathcal  {R}(\text  {\leavevmode {\color {myred}s}}), \tmspace  +\thickmuskip {.2777em} \text  { with } \tmspace  +\thickmuskip {.2777em} \mathcal  {R}(\text  {\leavevmode {\color {myred}$s$}})=\mathbb  {E}\left [d_{\tau }\left (\text  {\leavevmode {\color {myred}$s(X)$}},\Sigma \right ) \right ] $}}{0}}}
\@writefile{nav}{\headcommand {\slideentry {3}{0}{1}{49/49}{}{0}}}
\@writefile{nav}{\headcommand {\beamer@framepages {49}{49}}}
\HyPL@Entry{49<</P(23)>>}
\@writefile{nav}{\headcommand {\slideentry {3}{0}{2}{50/53}{}{0}}}
\@writefile{nav}{\headcommand {\beamer@framepages {50}{53}}}
\citation{cheng2009new}
\citation{cheng2010label}
\HyPL@Entry{53<</P(24)>>}
\citation{cheng2009new}
\citation{cheng2010label}
\@writefile{nav}{\headcommand {\slideentry {3}{0}{3}{54/55}{}{0}}}
\@writefile{nav}{\headcommand {\beamer@framepages {54}{55}}}
\HyPL@Entry{55<</P(25)>>}
\@writefile{nav}{\headcommand {\slideentry {3}{0}{4}{56/57}{}{0}}}
\@writefile{nav}{\headcommand {\beamer@framepages {56}{57}}}
\HyPL@Entry{57<</P(26)>>}
\@writefile{nav}{\headcommand {\slideentry {3}{0}{5}{58/60}{}{0}}}
\@writefile{nav}{\headcommand {\beamer@framepages {58}{60}}}
\citation{CKS17bis}
\HyPL@Entry{60<</P(27)>>}
\citation{CKS17bis}
\@writefile{nav}{\headcommand {\slideentry {3}{0}{6}{61/62}{}{0}}}
\@writefile{nav}{\headcommand {\beamer@framepages {61}{62}}}
\citation{CKS17bis}
\HyPL@Entry{62<</P(28)>>}
\@writefile{nav}{\headcommand {\slideentry {3}{0}{7}{63/63}{}{0}}}
\@writefile{nav}{\headcommand {\beamer@framepages {63}{63}}}
\HyPL@Entry{63<</P(29)>>}
\@writefile{nav}{\headcommand {\slideentry {3}{0}{8}{64/65}{}{0}}}
\@writefile{nav}{\headcommand {\beamer@framepages {64}{65}}}
\HyPL@Entry{65<</P(30)>>}
\@writefile{nav}{\headcommand {\slideentry {3}{0}{9}{66/67}{}{0}}}
\@writefile{nav}{\headcommand {\beamer@framepages {66}{67}}}
\HyPL@Entry{67<</P(31)>>}
\@writefile{nav}{\headcommand {\slideentry {3}{0}{10}{68/68}{}{0}}}
\@writefile{nav}{\headcommand {\beamer@framepages {68}{68}}}
\citation{AY14}
\HyPL@Entry{68<</P(32)>>}
\citation{AY14}
\citation{AY14}
\@writefile{nav}{\headcommand {\slideentry {3}{0}{11}{69/71}{}{0}}}
\@writefile{nav}{\headcommand {\beamer@framepages {69}{71}}}
\HyPL@Entry{71<</P(33)>>}
\providecommand*\caption@xref[2]{\@setref\relax\@undefined{#1}}
\newlabel{table:simulated_data}{{1}{72}{Empirical risk averaged on 50 trials on simulated data.\relax }{Doc-Start}{}}
\@writefile{snm}{\beamer@slide {table:simulated_data}{72}}
\@writefile{nav}{\headcommand {\slideentry {3}{0}{12}{72/72}{}{0}}}
\@writefile{nav}{\headcommand {\beamer@framepages {72}{72}}}
\HyPL@Entry{72<</P(34)>>}
\@writefile{toc}{\beamer@sectionintoc {4}{Label Ranking - A Structured Prediction Approach\\ \vspace  *{0.2cm} \relax \fontsize  {8}{9.5}\selectfont  \let \\\@centercr \rightskip \@flushglue \leftskip \@flushglue \parindent \z@ \parfillskip \z@skip \leavevmode {\color {black} $\hskip 1em\relax \text  {min}_{\text  {\leavevmode {\color {myred}$ s : \mathcal  {X} \to \mathfrak  {S}_n$ }}} \mathcal  {R}(\text  {\leavevmode {\color {myred}s}}), \tmspace  +\thickmuskip {.2777em} \text  { with } \tmspace  +\thickmuskip {.2777em} \mathcal  {R}(\text  {\leavevmode {\color {myred}$s$}})=\mathbb  {E}\left [\Delta \left (\text  {\leavevmode {\color {myred}$s(X)$}},\Sigma \right ) \right ] $ }}{73}{0}{4}}
\@writefile{nav}{\headcommand {\beamer@sectionpages {49}{72}}}
\@writefile{nav}{\headcommand {\beamer@subsectionpages {49}{72}}}
\@writefile{nav}{\headcommand {\sectionentry {4}{Label Ranking - A Structured Prediction Approach\\ \vspace  *{0.2cm} \relax \fontsize  {8}{9.5}\selectfont  \let \\\@centercr \rightskip \@flushglue \leftskip \@flushglue \parindent \z@ \parfillskip \z@skip \leavevmode {\color {black} $\hskip 1em\relax \text  {min}_{\text  {\leavevmode {\color {myred}$ s : \mathcal  {X} \to \mathfrak  {S}_n$ }}} \mathcal  {R}(\text  {\leavevmode {\color {myred}s}}), \tmspace  +\thickmuskip {.2777em} \text  { with } \tmspace  +\thickmuskip {.2777em} \mathcal  {R}(\text  {\leavevmode {\color {myred}$s$}})=\mathbb  {E}\left [\Delta \left (\text  {\leavevmode {\color {myred}$s(X)$}},\Sigma \right ) \right ] $ }}{73}{Label Ranking - A Structured Prediction Approach\\ \vspace  *{0.2cm} \relax \fontsize  {8}{9.5}\selectfont  \let \\\@centercr \rightskip \@flushglue \leftskip \@flushglue \parindent \z@ \parfillskip \z@skip \leavevmode {\color {black} $\hskip 1em\relax \text  {min}_{\text  {\leavevmode {\color {myred}$ s : \mathcal  {X} \to \mathfrak  {S}_n$ }}} \mathcal  {R}(\text  {\leavevmode {\color {myred}s}}), \tmspace  +\thickmuskip {.2777em} \text  { with } \tmspace  +\thickmuskip {.2777em} \mathcal  {R}(\text  {\leavevmode {\color {myred}$s$}})=\mathbb  {E}\left [\Delta \left (\text  {\leavevmode {\color {myred}$s(X)$}},\Sigma \right ) \right ] $ }}{0}}}
\@writefile{nav}{\headcommand {\slideentry {4}{0}{1}{73/73}{}{0}}}
\@writefile{nav}{\headcommand {\beamer@framepages {73}{73}}}
\citation{korba2018structured}
\HyPL@Entry{73<</P(35)>>}
\@writefile{snm}{\beamer@slide {eq:loss_embedding}{74}}
\newlabel{eq:loss_embedding}{{2}{74}{Label Ranking - A Structured Prediction Approach\\ \vspace *{0.2cm} \scriptsize \centering \textcolor {black}{ $\quad \text {min}_{\text {\textcolor {myred}{$ s : \mathcal {X} \to \mathfrak {S}_n$ }}} \mathcal {R}(\text {\textcolor {myred}{s}}), \; \text { with } \; \mathcal {R}(\text {\textcolor {myred}{$s$}})=\mathbb {E}\left [\Delta \left (\text {\textcolor {myred}{$s(X)$}},\Sigma \right ) \right ] $ }}{Doc-Start}{}}
\citation{korba2018structured}
\@writefile{nav}{\headcommand {\slideentry {4}{0}{2}{74/75}{}{0}}}
\@writefile{nav}{\headcommand {\beamer@framepages {74}{75}}}
\HyPL@Entry{75<</P(36)>>}
\@writefile{snm}{\beamer@slide {eq:risk_theo_struc}{76}}
\newlabel{eq:risk_theo_struc}{{36}{76}{Label Ranking - A Structured Prediction Approach\\ \vspace *{0.2cm} \scriptsize \centering \textcolor {black}{ $\quad \text {min}_{\text {\textcolor {myred}{$ s : \mathcal {X} \to \mathfrak {S}_n$ }}} \mathcal {R}(\text {\textcolor {myred}{s}}), \; \text { with } \; \mathcal {R}(\text {\textcolor {myred}{$s$}})=\mathbb {E}\left [\Delta \left (\text {\textcolor {myred}{$s(X)$}},\Sigma \right ) \right ] $ }}{Doc-Start}{}}
\@writefile{snm}{\beamer@slide {eq:surrogate_pb}{76}}
\newlabel{eq:surrogate_pb}{{36}{76}{Label Ranking - A Structured Prediction Approach\\ \vspace *{0.2cm} \scriptsize \centering \textcolor {black}{ $\quad \text {min}_{\text {\textcolor {myred}{$ s : \mathcal {X} \to \mathfrak {S}_n$ }}} \mathcal {R}(\text {\textcolor {myred}{s}}), \; \text { with } \; \mathcal {R}(\text {\textcolor {myred}{$s$}})=\mathbb {E}\left [\Delta \left (\text {\textcolor {myred}{$s(X)$}},\Sigma \right ) \right ] $ }}{Doc-Start}{}}
\@writefile{nav}{\headcommand {\slideentry {4}{0}{3}{76/76}{}{0}}}
\@writefile{nav}{\headcommand {\beamer@framepages {76}{76}}}
\citation{ciliberto2016consistent}
\citation{brouard2016input}
\HyPL@Entry{76<</P(37)>>}
\citation{ciliberto2016consistent}
\citation{brouard2016input}
\@writefile{nav}{\headcommand {\slideentry {4}{0}{4}{77/78}{}{0}}}
\@writefile{nav}{\headcommand {\beamer@framepages {77}{78}}}
\citation{jiao2015kendall}
\citation{JKS16}
\HyPL@Entry{78<</P(38)>>}
\@writefile{nav}{\headcommand {\slideentry {4}{0}{5}{79/79}{}{0}}}
\@writefile{nav}{\headcommand {\beamer@framepages {79}{79}}}
\citation{plis2011directional}
\citation{li2017efficient}
\HyPL@Entry{79<</P(39)>>}
\@writefile{nav}{\headcommand {\slideentry {4}{0}{6}{80/80}{}{0}}}
\@writefile{nav}{\headcommand {\beamer@framepages {80}{80}}}
\HyPL@Entry{80<</P(40)>>}
\@writefile{nav}{\headcommand {\slideentry {4}{0}{7}{81/82}{}{0}}}
\@writefile{nav}{\headcommand {\beamer@framepages {81}{82}}}
\citation{cheng2010label}
\citation{cheng13nearest}
\citation{zhou2016random}
\HyPL@Entry{82<</P(41)>>}
\newlabel{kendalltautable}{{2}{83}{Mean Kendall's $\tau $ coefficient on benchmark datasets\relax }{Doc-Start}{}}
\@writefile{snm}{\beamer@slide {kendalltautable}{83}}
\@writefile{nav}{\headcommand {\slideentry {4}{0}{8}{83/83}{}{0}}}
\@writefile{nav}{\headcommand {\beamer@framepages {83}{83}}}
\HyPL@Entry{83<</P(42)>>}
\@writefile{toc}{\beamer@sectionintoc {5}{Conclusion}{84}{0}{5}}
\@writefile{nav}{\headcommand {\beamer@sectionpages {73}{83}}}
\@writefile{nav}{\headcommand {\beamer@subsectionpages {73}{83}}}
\@writefile{nav}{\headcommand {\sectionentry {5}{Conclusion}{84}{Conclusion}{0}}}
\@writefile{nav}{\headcommand {\slideentry {5}{0}{1}{84/84}{}{0}}}
\@writefile{nav}{\headcommand {\beamer@framepages {84}{84}}}
\citation{JKS16}
\citation{achab2018dimensionality}
\HyPL@Entry{84<</P(43)>>}
\@writefile{nav}{\headcommand {\slideentry {5}{0}{2}{85/85}{}{0}}}
\@writefile{nav}{\headcommand {\beamer@framepages {85}{85}}}
\HyPL@Entry{85<</P(44)>>}
\@writefile{nav}{\headcommand {\slideentry {5}{0}{3}{86/86}{}{0}}}
\@writefile{nav}{\headcommand {\beamer@framepages {86}{86}}}
\bibstyle{apalike}
\bibdata{biblio_thesis_anna}
\bibcite{achab2018dimensionality}{\hyperlink {beamerbibachab2018dimensionality}{Achab et\nobreakspace  {}al., 2018}}
\bibcite{AY14}{\hyperlink {beamerbibAY14}{Alvo and Yu, 2014}}
\bibcite{audibert2007fast}{\hyperlink {beamerbibaudibert2007fast}{Audibert and Tsybakov, 2007}}
\bibcite{Borda}{\hyperlink {beamerbibBorda}{Borda, 1781}}
\bibcite{brouard2016input}{\hyperlink {beamerbibbrouard2016input}{Brouard et\nobreakspace  {}al., 2016}}
\bibcite{cheng2009new}{\hyperlink {beamerbibcheng2009new}{Cheng and H{\"u}llermeier, 2009}}
\HyPL@Entry{86<</S/D /St 87>>}
\bibcite{cheng13nearest}{\hyperlink {beamerbibcheng13nearest}{Cheng and H{\"u}llermeier, 2013}}
\bibcite{cheng2010label}{\hyperlink {beamerbibcheng2010label}{Cheng et\nobreakspace  {}al., 2010}}
\bibcite{ciliberto2016consistent}{\hyperlink {beamerbibciliberto2016consistent}{Ciliberto et\nobreakspace  {}al., 2016}}
\bibcite{clemenccon2011clustering}{\hyperlink {beamerbibclemenccon2011clustering}{Cl{\'e}men{\c {c}}on et\nobreakspace  {}al., 2011}}
\bibcite{CKS17bis}{\hyperlink {beamerbibCKS17bis}{Cl{\'e}men{\c {c}}on et\nobreakspace  {}al., 2018}}
\bibcite{Copeland51}{\hyperlink {beamerbibCopeland51}{Copeland, 1951}}
\bibcite{davidson1959experimental}{\hyperlink {beamerbibdavidson1959experimental}{Davidson and Marschak, 1959}}
\bibcite{dwork2001rank}{\hyperlink {beamerbibdwork2001rank}{Dwork et\nobreakspace  {}al., 2001}}
\bibcite{JLYY11}{\hyperlink {beamerbibJLYY11}{Jiang et\nobreakspace  {}al., 2011}}
\bibcite{JKS16}{\hyperlink {beamerbibJKS16}{Jiao et\nobreakspace  {}al., 2016}}
\bibcite{jiao2015kendall}{\hyperlink {beamerbibjiao2015kendall}{Jiao and Vert, 2015}}
\bibcite{Jiao2018Weighted}{\hyperlink {beamerbibJiao2018Weighted}{Jiao and Vert, 2018}}
\bibcite{Kemeny59}{\hyperlink {beamerbibKemeny59}{Kemeny, 1959}}
\bibcite{kondor2010ranking}{\hyperlink {beamerbibkondor2010ranking}{Kondor and Barbosa, 2010}}
\bibcite{CKS17}{\hyperlink {beamerbibCKS17}{Korba et\nobreakspace  {}al., 2017}}
\bibcite{korba2018structured}{\hyperlink {beamerbibkorba2018structured}{Korba et\nobreakspace  {}al., 2018}}
\bibcite{li2017efficient}{\hyperlink {beamerbibli2017efficient}{Li et\nobreakspace  {}al., 2017}}
\bibcite{LB14a}{\hyperlink {beamerbibLB14a}{Lu and Boutilier, 2014}}
\bibcite{Luce59}{\hyperlink {beamerbibLuce59}{Luce, 1959}}
\bibcite{Mallows57}{\hyperlink {beamerbibMallows57}{Mallows, 1957}}
\bibcite{plis2011directional}{\hyperlink {beamerbibplis2011directional}{Plis et\nobreakspace  {}al., 2011}}
\bibcite{rajkumar2014statistical}{\hyperlink {beamerbibrajkumar2014statistical}{Rajkumar and Agarwal, 2014}}
\bibcite{shah2015simple}{\hyperlink {beamerbibshah2015simple}{Shah and Wainwright, 2017}}
\bibcite{sibony2015mra}{\hyperlink {beamerbibsibony2015mra}{Sibony et\nobreakspace  {}al., 2015}}
\bibcite{sun2012estimating}{\hyperlink {beamerbibsun2012estimating}{Sun et\nobreakspace  {}al., 2012}}
\bibcite{szorenyi2015online}{\hyperlink {beamerbibszorenyi2015online}{Sz{\"o}r{\'e}nyi et\nobreakspace  {}al., 2015}}
\bibcite{Tversky72}{\hyperlink {beamerbibTversky72}{Tversky, 1972}}
\bibcite{zhao2016learning}{\hyperlink {beamerbibzhao2016learning}{Zhao et\nobreakspace  {}al., 2016}}
\bibcite{zhou2016random}{\hyperlink {beamerbibzhou2016random}{Zhou and Qiu, 2016}}
\HyPL@Entry{94<</P(45)>>}
\HyPL@Entry{95<</S/D /St 96>>}
\@writefile{nav}{\headcommand {\slideentry {5}{0}{4}{95/95}{}{0}}}
\@writefile{nav}{\headcommand {\beamer@framepages {95}{95}}}
\HyPL@Entry{96<</P(46)>>}
\@writefile{nav}{\headcommand {\slideentry {5}{0}{5}{97/97}{}{0}}}
\@writefile{nav}{\headcommand {\beamer@framepages {97}{97}}}
\HyPL@Entry{97<</P(47)>>}
\@writefile{snm}{\beamer@slide {eq:best_bucket_intro}{98}}
\newlabel{eq:best_bucket_intro}{{3}{98}{Conclusion}{Doc-Start}{}}
\@writefile{nav}{\headcommand {\slideentry {5}{0}{6}{98/98}{}{0}}}
\@writefile{nav}{\headcommand {\beamer@framepages {98}{98}}}
\@writefile{nav}{\headcommand {\beamer@partpages {1}{98}}}
\@writefile{nav}{\headcommand {\beamer@subsectionpages {84}{98}}}
\@writefile{nav}{\headcommand {\beamer@sectionpages {84}{98}}}
\@writefile{nav}{\headcommand {\beamer@documentpages {98}}}
\@writefile{nav}{\headcommand {\gdef \inserttotalframenumber {47}}}
