\beamer@sectionintoc {1}{Introduction to Ranking Data\\ \vspace *{0.2cm} \relax \fontsize {8}{9.5}\selectfont \let \\\@centercr \rightskip \@flushglue \leftskip \@flushglue \parindent \z@ \parfillskip \z@skip \leavevmode {\color {black} $\hskip 1em\relax a_{1}\succ \dots \succ a_{n} \hskip 1em\relax \Leftrightarrow \hskip 1em\relax \text {\leavevmode {\color {myred}$\sigma \in \mathfrak {S}_{n}$ }} \text { such that } \text {\leavevmode {\color {myred}$\sigma $}}(a_{i}) = i$} }{3}{0}{1}
\beamer@sectionintoc {2}{Ranking Aggregation - A Statistical Framework\\ \vspace *{0.2cm} \relax \fontsize {8}{9.5}\selectfont \let \\\@centercr \rightskip \@flushglue \leftskip \@flushglue \parindent \z@ \parfillskip \z@skip \leavevmode {\color {black} $\hskip 1em\relax \text {min}_{\text {\leavevmode {\color {myred}$ \sigma \in \mathfrak {S}_n$ }}} L(\text {\leavevmode {\color {myred}$\sigma $}}), \tmspace +\thickmuskip {.2777em} \text { with } \tmspace +\thickmuskip {.2777em} L(\text {\leavevmode {\color {myred}$\sigma $}})=\mathbb {E}\left [d_{\tau }\left (\text {\leavevmode {\color {myred}$\sigma $}},\Sigma \right ) \right ] $}}{24}{0}{2}
\beamer@sectionintoc {3}{Label Ranking - Piecewise Constant Rules\\ \vspace *{0.2cm} \relax \fontsize {8}{9.5}\selectfont \let \\\@centercr \rightskip \@flushglue \leftskip \@flushglue \parindent \z@ \parfillskip \z@skip \leavevmode {\color {black} $\hskip 1em\relax \text {min}_{\text {\leavevmode {\color {myred}$ s : \mathcal {X} \to \mathfrak {S}_n$ }}} \mathcal {R}(\text {\leavevmode {\color {myred}s}}), \tmspace +\thickmuskip {.2777em} \text { with } \tmspace +\thickmuskip {.2777em} \mathcal {R}(\text {\leavevmode {\color {myred}$s$}})=\mathbb {E}\left [d_{\tau }\left (\text {\leavevmode {\color {myred}$s(X)$}},\Sigma \right ) \right ] $}}{49}{0}{3}
\beamer@sectionintoc {4}{Label Ranking - A Structured Prediction Approach\\ \vspace *{0.2cm} \relax \fontsize {8}{9.5}\selectfont \let \\\@centercr \rightskip \@flushglue \leftskip \@flushglue \parindent \z@ \parfillskip \z@skip \leavevmode {\color {black} $\hskip 1em\relax \text {min}_{\text {\leavevmode {\color {myred}$ s : \mathcal {X} \to \mathfrak {S}_n$ }}} \mathcal {R}(\text {\leavevmode {\color {myred}s}}), \tmspace +\thickmuskip {.2777em} \text { with } \tmspace +\thickmuskip {.2777em} \mathcal {R}(\text {\leavevmode {\color {myred}$s$}})=\mathbb {E}\left [\Delta \left (\text {\leavevmode {\color {myred}$s(X)$}},\Sigma \right ) \right ] $ }}{73}{0}{4}
\beamer@sectionintoc {5}{Conclusion}{84}{0}{5}
