\relax 
\citation{linden2003amazon}
\citation{zhang2013predicting}
\citation{rendle2009bpr}
\citation{salakhutdinov2007restricted}
\citation{mikolov2013efficient}
\citation{grbovic2015commerce}
\@writefile{toc}{\contentsline {section}{\numberline {1}Recommender systems}{1}}
\citation{agarwal2009regression}
\citation{rendle2011fast}
\citation{karatzoglou2010multiverse}
\citation{fang2011matrix}
\citation{li2010improving}
\citation{yang2011like}
\citation{gunawardana2009unified}
\citation{bengio2003neural}
\citation{collobert2011natural}
\citation{turian2010word}
\citation{mikolov2013distributed}
\citation{mikolov2013efficient}
\citation{grbovic2015commerce}
\@writefile{toc}{\contentsline {section}{\numberline {2}Word embeddings}{3}}
\@writefile{toc}{\contentsline {section}{\numberline {3}Product embeddings with neural language models}{3}}
\@writefile{toc}{\contentsline {subsubsection}{\numberline {3.0.1}First paper}{3}}
\newlabel{eq:predicted_conditional_probability}{{1}{4}}
\citation{vasile2016meta}
\citation{grbovic2015commerce}
\citation{pennington2014glove}
\@writefile{toc}{\contentsline {subsubsection}{\numberline {3.0.2}Second paper}{5}}
\@writefile{toc}{\contentsline {section}{\numberline {4}Product embeddings with exponential families}{7}}
\newlabel{fig:exponential_family}{{4}{8}}
\@writefile{toc}{\contentsline {section}{\numberline {5}What we propose}{8}}
\@writefile{toc}{\contentsline {subsection}{\numberline {5.1}The model}{8}}
\@writefile{loa}{\contentsline {algorithm}{\numberline {1}{\ignorespaces Optimize the model with stochastic gradient descent with learning rate $\lambda $ }}{10}}
\newlabel{alg:learning}{{1}{10}}
\@writefile{toc}{\contentsline {subsection}{\numberline {5.2}Experiments}{10}}
\newlabel{fig:likelihood}{{5.2}{11}}
\@writefile{lof}{\contentsline {figure}{\numberline {1}{\ignorespaces Convergence of the log-likelihood.}}{11}}
\newlabel{fig:acp}{{5.2}{11}}
\@writefile{lof}{\contentsline {figure}{\numberline {2}{\ignorespaces PCA of the embedding vectors after training.}}{11}}
\@writefile{lot}{\contentsline {table}{\numberline {1}{\ignorespaces Results on 20 different train/test splits of the datasets.}}{11}}
\newlabel{tab:exp1}{{1}{11}}
\bibstyle{apalike}
\bibdata{biblio}
\bibcite{agarwal2009regression}{Agarwal and Chen, 2009}
\bibcite{bengio2003neural}{Bengio et\nobreakspace  {}al., 2003}
\bibcite{collobert2011natural}{Collobert et\nobreakspace  {}al., 2011}
\bibcite{fang2011matrix}{Fang and Si, 2011}
\bibcite{grbovic2015commerce}{Grbovic et\nobreakspace  {}al., 2015}
\bibcite{gunawardana2009unified}{Gunawardana and Meek, 2009}
\newlabel{fig:score_dimension}{{5.2}{12}}
\@writefile{lof}{\contentsline {figure}{\numberline {3}{\ignorespaces Convergence of the log-likelihood.}}{12}}
\bibcite{karatzoglou2010multiverse}{Karatzoglou et\nobreakspace  {}al., 2010}
\bibcite{li2010improving}{Li et\nobreakspace  {}al., 2010}
\bibcite{linden2003amazon}{Linden et\nobreakspace  {}al., 2003}
\bibcite{mikolov2013efficient}{Mikolov et\nobreakspace  {}al., 2013a}
\bibcite{mikolov2013distributed}{Mikolov et\nobreakspace  {}al., 2013b}
\bibcite{pennington2014glove}{Pennington et\nobreakspace  {}al., 2014}
\bibcite{rendle2009bpr}{Rendle et\nobreakspace  {}al., 2009}
\bibcite{rendle2011fast}{Rendle et\nobreakspace  {}al., 2011}
\bibcite{salakhutdinov2007restricted}{Salakhutdinov et\nobreakspace  {}al., 2007}
\bibcite{turian2010word}{Turian et\nobreakspace  {}al., 2010}
\bibcite{vasile2016meta}{Vasile et\nobreakspace  {}al., 2016}
\bibcite{yang2011like}{Yang et\nobreakspace  {}al., 2011}
\bibcite{zhang2013predicting}{Zhang and Pennacchiotti, 2013}
