\relax 
\providecommand\hyper@newdestlabel[2]{}
\providecommand\HyperFirstAtBeginDocument{\AtBeginDocument}
\HyperFirstAtBeginDocument{\ifx\hyper@anchor\@undefined
\global\let\oldcontentsline\contentsline
\gdef\contentsline#1#2#3#4{\oldcontentsline{#1}{#2}{#3}}
\global\let\oldnewlabel\newlabel
\gdef\newlabel#1#2{\newlabelxx{#1}#2}
\gdef\newlabelxx#1#2#3#4#5#6{\oldnewlabel{#1}{{#2}{#3}}}
\AtEndDocument{\ifx\hyper@anchor\@undefined
\let\contentsline\oldcontentsline
\let\newlabel\oldnewlabel
\fi}
\fi}
\global\let\hyper@last\relax 
\gdef\HyperFirstAtBeginDocument#1{#1}
\providecommand*\HyPL@Entry[1]{}
\HyPL@Entry{0<</P(1)>>}
\@writefile{nav}{\headcommand {\slideentry {0}{0}{1}{1/1}{}{0}}}
\@writefile{nav}{\headcommand {\beamer@framepages {1}{1}}}
\HyPL@Entry{1<</P(2)>>}
\@writefile{nav}{\headcommand {\slideentry {0}{0}{2}{2/2}{}{0}}}
\@writefile{nav}{\headcommand {\beamer@framepages {2}{2}}}
\HyPL@Entry{2<</P(3)>>}
\@writefile{toc}{\beamer@sectionintoc {1}{Introduction to ranking data}{3}{0}{1}}
\@writefile{nav}{\headcommand {\beamer@sectionpages {1}{2}}}
\@writefile{nav}{\headcommand {\beamer@subsectionpages {1}{2}}}
\@writefile{nav}{\headcommand {\sectionentry {1}{Introduction to ranking data}{3}{Introduction to ranking data}{0}}}
\@writefile{nav}{\headcommand {\slideentry {1}{0}{1}{3/3}{}{0}}}
\@writefile{nav}{\headcommand {\beamer@framepages {3}{3}}}
\HyPL@Entry{3<</P(4)>>}
\@writefile{nav}{\headcommand {\slideentry {1}{0}{2}{4/5}{}{0}}}
\@writefile{nav}{\headcommand {\beamer@framepages {4}{5}}}
\HyPL@Entry{5<</P(5)>>}
\@writefile{nav}{\headcommand {\slideentry {1}{0}{3}{6/6}{}{0}}}
\@writefile{nav}{\headcommand {\beamer@framepages {6}{6}}}
\HyPL@Entry{6<</P(6)>>}
\@writefile{nav}{\headcommand {\slideentry {1}{0}{4}{7/9}{}{0}}}
\@writefile{nav}{\headcommand {\beamer@framepages {7}{9}}}
\HyPL@Entry{9<</P(7)>>}
\@writefile{nav}{\headcommand {\slideentry {1}{0}{5}{10/16}{}{0}}}
\@writefile{nav}{\headcommand {\beamer@framepages {10}{16}}}
\citation{LB14a}
\citation{zhao2016learning}
\citation{szorenyi2015online}
\citation{Mallows57}
\citation{Luce59}
\citation{davidson1959experimental}
\citation{Tversky72}
\HyPL@Entry{16<</P(8)>>}
\citation{LB14a}
\citation{zhao2016learning}
\citation{szorenyi2015online}
\citation{Mallows57}
\citation{Luce59}
\citation{davidson1959experimental}
\citation{Tversky72}
\citation{LB14a}
\citation{zhao2016learning}
\citation{szorenyi2015online}
\citation{Mallows57}
\citation{Luce59}
\citation{davidson1959experimental}
\citation{Tversky72}
\@writefile{nav}{\headcommand {\slideentry {1}{0}{6}{17/19}{}{0}}}
\@writefile{nav}{\headcommand {\beamer@framepages {17}{19}}}
\citation{kondor2010ranking}
\citation{clemenccon2011clustering}
\citation{sibony2015mra}
\citation{sun2012estimating}
\citation{JLYY11}
\citation{rajkumar2014statistical}
\citation{shah2015simple}
\citation{jiao2015kendall}
\HyPL@Entry{19<</P(9)>>}
\@writefile{nav}{\headcommand {\slideentry {1}{0}{7}{20/20}{}{0}}}
\@writefile{nav}{\headcommand {\beamer@framepages {20}{20}}}
\HyPL@Entry{20<</P(10)>>}
\@writefile{toc}{\beamer@sectionintoc {2}{Label ranking}{21}{0}{2}}
\@writefile{nav}{\headcommand {\beamer@sectionpages {3}{20}}}
\@writefile{nav}{\headcommand {\beamer@subsectionpages {3}{20}}}
\@writefile{nav}{\headcommand {\sectionentry {2}{Label ranking}{21}{Label ranking}{0}}}
\@writefile{nav}{\headcommand {\slideentry {2}{0}{1}{21/21}{}{0}}}
\@writefile{nav}{\headcommand {\beamer@framepages {21}{21}}}
\HyPL@Entry{21<</P(11)>>}
\@writefile{nav}{\headcommand {\slideentry {2}{0}{2}{22/24}{}{0}}}
\@writefile{nav}{\headcommand {\beamer@framepages {22}{24}}}
\HyPL@Entry{24<</P(12)>>}
\@writefile{nav}{\headcommand {\slideentry {2}{0}{3}{25/25}{}{0}}}
\@writefile{nav}{\headcommand {\beamer@framepages {25}{25}}}
\citation{cheng2009new}
\citation{cheng2010label}
\HyPL@Entry{25<</P(13)>>}
\citation{cheng2009new}
\citation{cheng2010label}
\@writefile{nav}{\headcommand {\slideentry {2}{0}{4}{26/27}{}{0}}}
\@writefile{nav}{\headcommand {\beamer@framepages {26}{27}}}
\HyPL@Entry{27<</P(14)>>}
\@writefile{toc}{\beamer@sectionintoc {3}{Structured prediction for label ranking}{28}{0}{3}}
\@writefile{nav}{\headcommand {\beamer@sectionpages {21}{27}}}
\@writefile{nav}{\headcommand {\beamer@subsectionpages {21}{27}}}
\@writefile{nav}{\headcommand {\sectionentry {3}{Structured prediction for label ranking}{28}{Structured prediction for label ranking}{0}}}
\@writefile{nav}{\headcommand {\slideentry {3}{0}{1}{28/28}{}{0}}}
\@writefile{nav}{\headcommand {\beamer@framepages {28}{28}}}
\citation{korba2018structured}
\HyPL@Entry{28<</P(15)>>}
\@writefile{nav}{\headcommand {\slideentry {3}{0}{2}{29/29}{}{0}}}
\@writefile{nav}{\headcommand {\beamer@framepages {29}{29}}}
\HyPL@Entry{29<</P(16)>>}
\@writefile{snm}{\beamer@slide {eq:risk_theo_struc}{30}}
\newlabel{eq:risk_theo_struc}{{1}{30}{Structured prediction for label ranking}{Doc-Start}{}}
\@writefile{snm}{\beamer@slide {eq:surrogate_pb}{30}}
\newlabel{eq:surrogate_pb}{{2}{30}{Structured prediction for label ranking}{Doc-Start}{}}
\@writefile{nav}{\headcommand {\slideentry {3}{0}{3}{30/30}{}{0}}}
\@writefile{nav}{\headcommand {\beamer@framepages {30}{30}}}
\citation{ciliberto2016consistent}
\citation{brouard2016input}
\HyPL@Entry{30<</P(17)>>}
\citation{ciliberto2016consistent}
\citation{brouard2016input}
\@writefile{nav}{\headcommand {\slideentry {3}{0}{4}{31/32}{}{0}}}
\@writefile{nav}{\headcommand {\beamer@framepages {31}{32}}}
\HyPL@Entry{32<</P(18)>>}
\@writefile{nav}{\headcommand {\slideentry {3}{0}{5}{33/35}{}{0}}}
\@writefile{nav}{\headcommand {\beamer@framepages {33}{35}}}
\HyPL@Entry{35<</P(19)>>}
\@writefile{toc}{\beamer@sectionintoc {4}{Ranking embeddings}{36}{0}{4}}
\@writefile{nav}{\headcommand {\beamer@sectionpages {28}{35}}}
\@writefile{nav}{\headcommand {\beamer@subsectionpages {28}{35}}}
\@writefile{nav}{\headcommand {\sectionentry {4}{Ranking embeddings}{36}{Ranking embeddings}{0}}}
\@writefile{nav}{\headcommand {\slideentry {4}{0}{1}{36/36}{}{0}}}
\@writefile{nav}{\headcommand {\beamer@framepages {36}{36}}}
\citation{jiao2015kendall}
\citation{JKS16}
\HyPL@Entry{36<</P(20)>>}
\@writefile{nav}{\headcommand {\slideentry {4}{0}{2}{37/37}{}{0}}}
\@writefile{nav}{\headcommand {\beamer@framepages {37}{37}}}
\citation{plis2011directional}
\citation{li2017efficient}
\HyPL@Entry{37<</P(21)>>}
\citation{plis2011directional}
\citation{li2017efficient}
\@writefile{nav}{\headcommand {\slideentry {4}{0}{3}{38/39}{}{0}}}
\@writefile{nav}{\headcommand {\beamer@framepages {38}{39}}}
\HyPL@Entry{39<</P(22)>>}
\@writefile{toc}{\beamer@sectionintoc {5}{Computational and theoretical analysis}{40}{0}{5}}
\@writefile{nav}{\headcommand {\beamer@sectionpages {36}{39}}}
\@writefile{nav}{\headcommand {\beamer@subsectionpages {36}{39}}}
\@writefile{nav}{\headcommand {\sectionentry {5}{Computational and theoretical analysis}{40}{Computational and theoretical analysis}{0}}}
\@writefile{nav}{\headcommand {\slideentry {5}{0}{1}{40/40}{}{0}}}
\@writefile{nav}{\headcommand {\beamer@framepages {40}{40}}}
\HyPL@Entry{40<</P(23)>>}
\@writefile{nav}{\headcommand {\slideentry {5}{0}{2}{41/41}{}{0}}}
\@writefile{nav}{\headcommand {\beamer@framepages {41}{41}}}
\HyPL@Entry{41<</P(24)>>}
\@writefile{snm}{\beamer@slide {eq:ILP_Kendall}{42}}
\@writefile{nav}{\headcommand {\slideentry {5}{0}{3}{42/43}{}{0}}}
\@writefile{nav}{\headcommand {\beamer@framepages {42}{43}}}
\HyPL@Entry{43<</P(25)>>}
\@writefile{nav}{\headcommand {\slideentry {5}{0}{4}{44/45}{}{0}}}
\@writefile{nav}{\headcommand {\beamer@framepages {44}{45}}}
\HyPL@Entry{45<</P(26)>>}
\@writefile{nav}{\headcommand {\slideentry {5}{0}{5}{46/47}{}{0}}}
\@writefile{nav}{\headcommand {\beamer@framepages {46}{47}}}
\HyPL@Entry{47<</P(27)>>}
\@writefile{nav}{\headcommand {\slideentry {5}{0}{6}{48/49}{}{0}}}
\@writefile{nav}{\headcommand {\beamer@framepages {48}{49}}}
\HyPL@Entry{49<</P(28)>>}
\providecommand*\caption@xref[2]{\@setref\relax\@undefined{#1}}
\newlabel{table:complexities}{{\caption@xref {table:complexities}{ on input line 846}}{50}{Computational and theoretical analysis}{Doc-Start}{}}
\@writefile{snm}{\beamer@slide {table:complexities}{50}}
\@writefile{nav}{\headcommand {\slideentry {5}{0}{7}{50/50}{}{0}}}
\@writefile{nav}{\headcommand {\beamer@framepages {50}{50}}}
\HyPL@Entry{50<</P(29)>>}
\newlabel{kendalltautable}{{1}{51}{Mean Kendall's $\tau $ coefficient on benchmark datasets\relax }{Doc-Start}{}}
\@writefile{snm}{\beamer@slide {kendalltautable}{51}}
\@writefile{nav}{\headcommand {\slideentry {5}{0}{8}{51/51}{}{0}}}
\@writefile{nav}{\headcommand {\beamer@framepages {51}{51}}}
\HyPL@Entry{51<</P(30)>>}
\@writefile{toc}{\beamer@sectionintoc {6}{Openings and conclusion}{52}{0}{6}}
\@writefile{nav}{\headcommand {\beamer@sectionpages {40}{51}}}
\@writefile{nav}{\headcommand {\beamer@subsectionpages {40}{51}}}
\@writefile{nav}{\headcommand {\sectionentry {6}{Openings and conclusion}{52}{Openings and conclusion}{0}}}
\@writefile{nav}{\headcommand {\slideentry {6}{0}{1}{52/52}{}{0}}}
\@writefile{nav}{\headcommand {\beamer@framepages {52}{52}}}
\HyPL@Entry{52<</P(31)>>}
\@writefile{nav}{\headcommand {\slideentry {6}{0}{2}{53/54}{}{0}}}
\@writefile{nav}{\headcommand {\beamer@framepages {53}{54}}}
\HyPL@Entry{54<</P(32)>>}
\@writefile{nav}{\headcommand {\slideentry {6}{0}{3}{55/55}{}{0}}}
\@writefile{nav}{\headcommand {\beamer@framepages {55}{55}}}
\bibstyle{apalike}
\bibdata{biblio_thesis_anna}
\bibcite{brouard2016input}{\hyperlink {beamerbibbrouard2016input}{Brouard et\nobreakspace  {}al., 2016}}
\bibcite{cheng2009new}{\hyperlink {beamerbibcheng2009new}{Cheng and H{\"u}llermeier, 2009}}
\bibcite{cheng2010label}{\hyperlink {beamerbibcheng2010label}{Cheng et\nobreakspace  {}al., 2010}}
\bibcite{ciliberto2016consistent}{\hyperlink {beamerbibciliberto2016consistent}{Ciliberto et\nobreakspace  {}al., 2016}}
\bibcite{clemenccon2011clustering}{\hyperlink {beamerbibclemenccon2011clustering}{Cl{\'e}men{\c {c}}on et\nobreakspace  {}al., 2011}}
\HyPL@Entry{55<</S/D /St 56>>}
\bibcite{davidson1959experimental}{\hyperlink {beamerbibdavidson1959experimental}{Davidson and Marschak, 1959}}
\bibcite{JLYY11}{\hyperlink {beamerbibJLYY11}{Jiang et\nobreakspace  {}al., 2011}}
\bibcite{JKS16}{\hyperlink {beamerbibJKS16}{Jiao et\nobreakspace  {}al., 2016}}
\bibcite{jiao2015kendall}{\hyperlink {beamerbibjiao2015kendall}{Jiao and Vert, 2015}}
\bibcite{kondor2010ranking}{\hyperlink {beamerbibkondor2010ranking}{Kondor and Barbosa, 2010}}
\bibcite{korba2018structured}{\hyperlink {beamerbibkorba2018structured}{Korba et\nobreakspace  {}al., 2018}}
\bibcite{li2017efficient}{\hyperlink {beamerbibli2017efficient}{Li et\nobreakspace  {}al., 2017}}
\bibcite{LB14a}{\hyperlink {beamerbibLB14a}{Lu and Boutilier, 2014}}
\bibcite{Luce59}{\hyperlink {beamerbibLuce59}{Luce, 1959}}
\bibcite{Mallows57}{\hyperlink {beamerbibMallows57}{Mallows, 1957}}
\bibcite{plis2011directional}{\hyperlink {beamerbibplis2011directional}{Plis et\nobreakspace  {}al., 2011}}
\bibcite{rajkumar2014statistical}{\hyperlink {beamerbibrajkumar2014statistical}{Rajkumar and Agarwal, 2014}}
\bibcite{shah2015simple}{\hyperlink {beamerbibshah2015simple}{Shah and Wainwright, 2017}}
\bibcite{sibony2015mra}{\hyperlink {beamerbibsibony2015mra}{Sibony et\nobreakspace  {}al., 2015}}
\bibcite{sun2012estimating}{\hyperlink {beamerbibsun2012estimating}{Sun et\nobreakspace  {}al., 2012}}
\bibcite{szorenyi2015online}{\hyperlink {beamerbibszorenyi2015online}{Sz{\"o}r{\'e}nyi et\nobreakspace  {}al., 2015}}
\bibcite{Tversky72}{\hyperlink {beamerbibTversky72}{Tversky, 1972}}
\bibcite{zhao2016learning}{\hyperlink {beamerbibzhao2016learning}{Zhao et\nobreakspace  {}al., 2016}}
\@writefile{nav}{\headcommand {\beamer@partpages {1}{61}}}
\@writefile{nav}{\headcommand {\beamer@subsectionpages {52}{61}}}
\@writefile{nav}{\headcommand {\beamer@sectionpages {52}{61}}}
\@writefile{nav}{\headcommand {\beamer@documentpages {61}}}
\@writefile{nav}{\headcommand {\gdef \inserttotalframenumber {32}}}
