\relax 
\providecommand\hyper@newdestlabel[2]{}
\providecommand\HyperFirstAtBeginDocument{\AtBeginDocument}
\HyperFirstAtBeginDocument{\ifx\hyper@anchor\@undefined
\global\let\oldcontentsline\contentsline
\gdef\contentsline#1#2#3#4{\oldcontentsline{#1}{#2}{#3}}
\global\let\oldnewlabel\newlabel
\gdef\newlabel#1#2{\newlabelxx{#1}#2}
\gdef\newlabelxx#1#2#3#4#5#6{\oldnewlabel{#1}{{#2}{#3}}}
\AtEndDocument{\ifx\hyper@anchor\@undefined
\let\contentsline\oldcontentsline
\let\newlabel\oldnewlabel
\fi}
\fi}
\global\let\hyper@last\relax 
\gdef\HyperFirstAtBeginDocument#1{#1}
\providecommand\HyField@AuxAddToFields[1]{}
\providecommand\HyField@AuxAddToCoFields[2]{}
\providecommand\@newglossary[4]{}
\@newglossary{main}{glg}{gls}{glo}
\@newglossary{symbols}{slg}{sls}{slo}
\providecommand\@glsxtr@savepreloctag[2]{}
\@writefile{toc}{\contentsline {chapter}{List of Publications}{ix}{dummy.1}}
\@writefile{toc}{\contentsline {chapter}{List of Figures}{xi}{dummy.2}}
\citation{Croon89}
\@writefile{toc}{\contentsline {chapter}{List of Tables}{xiii}{dummy.3}}
\gdef \LT@i {\LT@entry 
    {1}{42.34326pt}\LT@entry 
    {1}{262.48637pt}}
\@writefile{toc}{\contentsline {chapter}{List of Symbols}{xv}{section*.6}}
\@writefile{toc}{\contentsline {chapter}{\numberline {1}Introduction}{1}{chapter.1}}
\@writefile{lof}{\addvspace {10\p@ }}
\@writefile{lot}{\addvspace {10\p@ }}
\newlabel{chap:intro}{{1}{1}{Introduction}{chapter.1}{}}
\@writefile{toc}{\contentsline {section}{\numberline {1.1}Background on Ranking Data}{2}{section.1.1}}
\@writefile{toc}{\contentsline {section}{\numberline {1.2}Ranking Aggregation}{2}{section.1.2}}
\citation{Arrow51}
\citation{Kemeny59}
\citation{dwork2001rank}
\@writefile{toc}{\contentsline {subsection}{\numberline {1.2.1}Definition and Context}{3}{subsection.1.2.1}}
\newlabel{eq:ranking_aggregation_intro}{{1.1}{3}{Definition and Context}{equation.1.2.1}{}}
\citation{DG77,coppersmith2006ordering,VW07,ailon2008aggregating,FW15}
\citation{DK04,CDK06,Sibony2014Borda}
\citation{BFGNR08,BFGNR09,CGS13,BBHH15}
\@writefile{toc}{\contentsline {subsection}{\numberline {1.2.2}A General Method to Bound the Distance to Kemeny Consensus}{4}{subsection.1.2.2}}
\newlabel{sec:intro_bound_kemeny}{{1.2.2}{4}{A General Method to Bound the Distance to Kemeny Consensus}{subsection.1.2.2}{}}
\newlabel{eq:cosinus}{{1.4}{5}{A General Method to Bound the Distance to Kemeny Consensus}{equation.1.2.4}{}}
\newlabel{th:method}{{1.1}{5}{}{theorem.1.2.1}{}}
\newlabel{eq:k-min}{{1.5}{5}{A General Method to Bound the Distance to Kemeny Consensus}{equation.1.2.5}{}}
\citation{davidson1959experimental}
\citation{Fishburn73,davidson1959experimental}
\citation{shah2015stochastically,shah2015simple,rajkumar2014statistical}
\@writefile{toc}{\contentsline {subsection}{\numberline {1.2.3}A Statistical Framework for Ranking Aggregation}{6}{subsection.1.2.3}}
\newlabel{sec:stat_fram_intro}{{1.2.3}{6}{A Statistical Framework for Ranking Aggregation}{subsection.1.2.3}{}}
\newlabel{eq:median_pb_intro}{{1.6}{6}{A Statistical Framework for Ranking Aggregation}{equation.1.2.6}{}}
\newlabel{def:stoch_trans_intro}{{1.2}{6}{}{theorem.1.2.2}{}}
\citation{Vapnik}
\citation{KB05}
\citation{shah2015stochastically}
\newlabel{eq:copeland_intro}{{1.7}{7}{}{equation.1.2.7}{}}
\newlabel{eq:ERM1_intro}{{1.8}{7}{A Statistical Framework for Ranking Aggregation}{equation.1.2.8}{}}
\newlabel{eq:low_noise_intro}{{1.9}{7}{A Statistical Framework for Ranking Aggregation}{equation.1.2.9}{}}
\@writefile{toc}{\contentsline {section}{\numberline {1.3}Beyond Ranking Aggregation: Dimensionality Reduction and Ranking Regression}{7}{section.1.3}}
\@writefile{toc}{\contentsline {subsection}{\numberline {1.3.1}Dimensionality Reduction for Ranking Data: a Mass Transportation Approach}{8}{subsection.1.3.1}}
\newlabel{eq:metric_intro}{{1.10}{8}{}{equation.1.3.10}{}}
\newlabel{eq:min_transp_intro}{{1.11}{8}{Dimensionality Reduction for Ranking Data: a Mass Transportation Approach}{equation.1.3.11}{}}
\newlabel{eq:best_bucket_intro}{{1.12}{9}{Dimensionality Reduction for Ranking Data: a Mass Transportation Approach}{equation.1.3.12}{}}
\newlabel{eq:opt_bucket_intro}{{1.14}{9}{}{equation.1.3.14}{}}
\citation{DSM03,HFCB08,zhou2014taxonomy}
\newlabel{eq:emp_distortion_intro}{{1.15}{10}{Dimensionality Reduction for Ranking Data: a Mass Transportation Approach}{equation.1.3.15}{}}
\@writefile{toc}{\contentsline {subsection}{\numberline {1.3.2}Ranking Median Regression: Learning to Order through Local Consensus}{10}{subsection.1.3.2}}
\newlabel{eq:reg_risk_intro}{{1.16}{10}{Ranking Median Regression: Learning to Order through Local Consensus}{equation.1.3.16}{}}
\citation{DGL96}
\newlabel{eq:lipschitz_intro}{{1.17}{11}{Ranking Median Regression: Learning to Order through Local Consensus}{equation.1.3.17}{}}
\newlabel{eq:piecewise_cst}{{1.18}{11}{Ranking Median Regression: Learning to Order through Local Consensus}{equation.1.3.18}{}}
\newlabel{thm:approx}{{1.7}{11}{}{theorem.1.3.7}{}}
\newlabel{eq:RMR_bound}{{1.19}{11}{}{equation.1.3.19}{}}
\newlabel{eq:ERM}{{1.20}{11}{Ranking Median Regression: Learning to Order through Local Consensus}{equation.1.3.20}{}}
\citation{cortes2005,kadri_icml2013,brouard2016input}
\citation{ciliberto2016consistent,osokin2017}
\citation{steinwart-book}
\citation{ciliberto2016consistent}
\@writefile{toc}{\contentsline {subsection}{\numberline {1.3.3}A Structured Prediction Approach for Label Ranking}{12}{subsection.1.3.3}}
\newlabel{loss_embedding}{{1.21}{12}{A Structured Prediction Approach for Label Ranking}{equation.1.3.21}{}}
\newlabel{eq:surrogate_pb_intro}{{1.22}{12}{A Structured Prediction Approach for Label Ranking}{equation.1.3.22}{}}
\citation{ciliberto2016consistent}
\newlabel{eq:pre-image_intro}{{1.24}{13}{A Structured Prediction Approach for Label Ranking}{equation.1.3.24}{}}
\newlabel{eq:emp_surrogate_pb_intro}{{1.25}{13}{A Structured Prediction Approach for Label Ranking}{equation.1.3.25}{}}
\newlabel{eq:emp_inverse_image_intro}{{1.26}{13}{A Structured Prediction Approach for Label Ranking}{equation.1.3.26}{}}
\newlabel{eq:decoding_function_intro}{{1.27}{13}{A Structured Prediction Approach for Label Ranking}{equation.1.3.27}{}}
\@writefile{toc}{\contentsline {section}{\numberline {1.4}Conclusion}{13}{section.1.4}}
\@writefile{toc}{\contentsline {section}{\numberline {1.5}Outline of the Thesis}{14}{section.1.5}}
\@writefile{toc}{\contentsline {chapter}{\numberline {2}Background on Ranking Data}{15}{chapter.2}}
\@writefile{lof}{\addvspace {10\p@ }}
\@writefile{lot}{\addvspace {10\p@ }}
\newlabel{chap:background_ranking_data}{{2}{15}{Background on Ranking Data}{chapter.2}{}}
\@writefile{toc}{\contentsline {section}{\numberline {2.1}Introduction to Ranking Data}{15}{section.2.1}}
\@writefile{toc}{\contentsline {subsection}{\numberline {2.1.1}Definitions and Notations}{15}{subsection.2.1.1}}
\@writefile{lot}{\contentsline {table}{\numberline {2.1}{\ignorespaces Possible rankings for $n=3$.\relax }}{15}{table.caption.8}}
\providecommand*\caption@xref[2]{\@setref\relax\@undefined{#1}}
\newlabel{tab:possible_rankings}{{2.1}{15}{Possible rankings for $n=3$.\relax }{table.caption.8}{}}
\citation{MPPB07,SCPX13}
\citation{gionis2006algorithms,ailon2008aggregating,ukkonen2009randomized}
\citation{feng2008discovering,KKP11,xia2011maximum}
\citation{FKMSV04,ailon2010aggregation}
\citation{Condorcet}
\citation{lundell2007second}
\@writefile{toc}{\contentsline {subsection}{\numberline {2.1.2}Ranking Problems}{16}{subsection.2.1.2}}
\newlabel{sec:ranking_problems}{{2.1.2}{16}{Ranking Problems}{subsection.2.1.2}{}}
\citation{Croon89}
\citation{MM03,GM08,MC10,LY12}
\citation{heiser2013clustering}
\citation{clemenccon2011clustering}
\citation{su2009survey}
\citation{park2015preference,wu2017large}
\citation{vembu2010label,zhou2014taxonomy}
\citation{furnkranz2003pairwise}
\citation{zhang2007ml}
\citation{chiang2012ranking}
\citation{cheng2010label}
\citation{cheng2009decision}
\citation{aledo2017tackling}
\citation{cheng13nearest}
\citation{YWL10}
\citation{zhou2016random}
\citation{CKS17bis}
\citation{sa2017label}
\citation{gurrieri2012label,de2018preference}
\citation{korba2018structured}
\citation{Liu09}
\citation{carvalho2008meta}
\citation{Hunter04,LB11a,azari2012random,GS09}
\citation{HOX14}
\citation{shah2015estimation,shah2015stochastically}
\citation{Croon89}
\citation{Croon89}
\@writefile{lot}{\contentsline {table}{\numberline {2.2}{\ignorespaces The dataset from \cite  {Croon89} (p.111), which collected 2262 answers. After the fall of the Berlin wall a survey of German citizens was conducted where they were asked to rank four political goals: (1) maintain order, (2) give people more say in government, (3) fight rising prices, (4) protect freedom of speech.\relax }}{18}{table.caption.9}}
\newlabel{tab:croon}{{2.2}{18}{The dataset from \cite {Croon89} (p.111), which collected 2262 answers. After the fall of the Berlin wall a survey of German citizens was conducted where they were asked to rank four political goals: (1) maintain order, (2) give people more say in government, (3) fight rising prices, (4) protect freedom of speech.\relax }{table.caption.9}{}}
\@writefile{toc}{\contentsline {subsection}{\numberline {2.1.3}Applications}{18}{subsection.2.1.3}}
\newlabel{sec:applications}{{2.1.3}{18}{Applications}{subsection.2.1.3}{}}
\citation{Borda,Condorcet,Risse05}
\citation{GM08}
\citation{alwin1985measurement}
\citation{carterette2008here}
\citation{carterette2008here}
\citation{Croon89}
\citation{CFV91}
\citation{gomes2011crowdclustering,lee2011model,chen2013pairwise,YJJJ13,dong2017ranking}
\citation{shah2013case,raman2014methods}
\citation{bell2007lessons}
\citation{rendle2009bpr}
\citation{radlinski2005query,joachims2005accurately}
\citation{FH11}
\citation{Plackett75,Keener93}
\citation{Elo78,HMG06,glickman1999parameter}
\citation{CC11}
\citation{radlinski2007active,XLWZL08,wu2016listwise}
\citation{niu2012top,bashir2013document,niu2015noise}
\citation{dwork2001rank,AM01,renda2003web,lam2004rank,liu2007supervised,AKB11,Desarkar2016,bhowmik2017letor}
\citation{sese2001rank,BAAH04,Brancotte2015Rank,jiao2017kendall}
\citation{Patel13}
\citation{gunasekar2016preference}
\@writefile{toc}{\contentsline {section}{\numberline {2.2}Analysis of Full Rankings}{20}{section.2.2}}
\citation{Mallows57}
\citation{Thurstone27}
\citation{Plackett75}
\citation{bradley1952rank}
\@writefile{toc}{\contentsline {subsection}{\numberline {2.2.1}Parametric Approaches}{21}{subsection.2.2.1}}
\newlabel{sec:parametric_models}{{2.2.1}{21}{Parametric Approaches}{subsection.2.2.1}{}}
\citation{Diaconis88}
\citation{Mallows57}
\citation{Diaconis88}
\citation{FV86}
\citation{LB14a,irurozkimallows}
\citation{McFadden74,yellott1977relationship}
\citation{Hunter04}
\citation{Marden96}
\citation{yellott1977relationship}
\citation{Plackett75,fahandar2017statistical}
\citation{MG15b,szorenyi2015online,zhao2016learning}
\citation{davidson1959experimental,Tversky72}
\@writefile{toc}{\contentsline {subsection}{\numberline {2.2.2}Non-parametric Approaches}{23}{subsection.2.2.2}}
\newlabel{sec:non_parametric}{{2.2.2}{23}{Non-parametric Approaches}{subsection.2.2.2}{}}
\citation{plis2011directional}
\citation{JKS16}
\citation{li2017efficient,korba2018structured}
\citation{Jiao2015Kendall,maniao2016universality,mania2016kernel}
\citation{lomeli2018antithetic}
\citation{davidson1959experimental}
\citation{CKS17}
\citation{shah2015simple}
\citation{rajkumar2014statistical}
\citation{kurrild2001empirical}
\citation{JLYY11}
\citation{chen2016modeling}
\citation{bradley1952rank}
\citation{Fishburn73}
\citation{Fishburn73}
\citation{shah2015stochastically}
\citation{CKS17}
\citation{rajkumar2014statistical}
\citation{Diaconis88}
\citation{huang2009fourier}
\citation{kondor2010ranking}
\citation{Kakarala11}
\citation{sibony2014multiresolution}
\citation{sibony2015mra}
\citation{yasutake2011online}
\citation{ailon2014improved}
\citation{ailon2016bandit}
\citation{linderman2017reparameterizing}
\citation{CJ10}
\citation{LM08}
\citation{sun2012estimating}
\@writefile{lof}{\contentsline {figure}{\numberline {2.1}{\ignorespaces An illustration of a pairwise comparison graph for 4 items.\relax }}{25}{figure.caption.10}}
\newlabel{fig:pairwise_comparison_graph}{{2.1}{25}{An illustration of a pairwise comparison graph for 4 items.\relax }{figure.caption.10}{}}
\@writefile{lot}{\contentsline {table}{\numberline {2.3}{\ignorespaces An overview of popular assumptions on the pairwise probabilities.\relax }}{25}{table.caption.11}}
\newlabel{tab:pairwise_conditions}{{2.3}{25}{An overview of popular assumptions on the pairwise probabilities.\relax }{table.caption.11}{}}
\citation{kemeny1972mathematical}
\@writefile{toc}{\contentsline {subsection}{\numberline {2.2.3}Distances on Rankings}{26}{subsection.2.2.3}}
\newlabel{sec:distances}{{2.2.3}{26}{Distances on Rankings}{subsection.2.2.3}{}}
\citation{Diaconis88,Marden96,Deza}
\citation{DG77}
\citation{kamishima2010survey}
\citation{farnoud2012rank}
\citation{kumar2010generalized}
\citation{fagin2003comparing,FKMSV04}
\citation{ukkonen2011clustering}
\citation{Kemeny59,kemeny1972mathematical}
\citation{KLC08}
\citation{Liu09}
\citation{carterette2008evaluation}
\citation{niu2012top}
\citation{thompson1993generalized}
\citation{rajkumar2014statistical,sibony2014multiresolution}
\citation{MB10}
\citation{LM08}
\citation{YLA02,kondor2010ranking,sun2012estimating,sibony2015mra,fahandar2017statistical}
\citation{baggerly1995visual,cheng2009new}
\citation{niu2013stochastic}
\citation{sculley2007rank,farnoud2012novel}
\citation{ford1957solution,SCPX13,negahban2016rank}
\citation{SPX14b}
\citation{KO16}
\@writefile{lof}{\contentsline {figure}{\numberline {2.2}{\ignorespaces Permutahedron of order 4.\relax }}{28}{figure.caption.12}}
\newlabel{fig:permutahedron}{{2.2}{28}{Permutahedron of order 4.\relax }{figure.caption.12}{}}
\@writefile{toc}{\contentsline {section}{\numberline {2.3}Other Frameworks}{28}{section.2.3}}
\citation{jamieson2011active}
\citation{ailon2012active}
\citation{qian2015learning,falahatgar2017maxing,falahatgar2018limits}
\citation{braverman2008noisy,braverman2009sorting}
\citation{chen2015spectral,mohajer2017active}
\citation{szorenyi2015online}
\citation{maystre2015just,negahban2012iterative}
\citation{BFHS14}
\citation{WJJ13,rajkumar2016can}
\citation{agarwal2017learning}
\citation{yue2012k,sui2018advancements}
\citation{lai1985asymptotically,kuleshov2014algorithms}
\citation{rajkumar2015ranking,ramamohan2016dueling}
\citation{sui2017multi,sahabattle}
\citation{busa2018preference,agarwal2016ranking}
\citation{yasutake2011online,ailon2014improved}
\@writefile{toc}{\contentsline {part}{I\hspace  {1em}Ranking Aggregation}{31}{part.1}}
\newlabel{part:rank_agg}{{I}{33}{Other Frameworks}{part.1}{}}
\@writefile{toc}{\contentsline {chapter}{\numberline {3}The Ranking Aggregation Problem}{33}{chapter.3}}
\@writefile{lof}{\addvspace {10\p@ }}
\@writefile{lot}{\addvspace {10\p@ }}
\newlabel{chap:rank_agg}{{3}{33}{The Ranking Aggregation Problem}{chapter.3}{}}
\@writefile{toc}{\contentsline {section}{\numberline {3.1}Ranking Aggregation}{33}{section.3.1}}
\@writefile{toc}{\contentsline {subsection}{\numberline {3.1.1}Definition}{33}{subsection.3.1.1}}
\citation{Condorcet}
\citation{truchon1998extension}
\citation{Arrow51}
\@writefile{toc}{\contentsline {subsection}{\numberline {3.1.2}Voting Rules Axioms}{34}{subsection.3.1.2}}
\citation{Kemeny59}
\citation{young1978consistent}
\citation{young1988condorcet}
\citation{BTT89}
\citation{dwork2001rank}
\citation{alon2006ranking}
\citation{ailon2008aggregating}
\citation{MPPB07}
\citation{Ali2012Experiments}
\citation{coppersmith2006ordering}
\citation{kenyon2007rank}
\citation{karpinski2010faster}
\citation{dwork2001rank}
\@writefile{toc}{\contentsline {section}{\numberline {3.2}Methods}{35}{section.3.2}}
\@writefile{toc}{\contentsline {subsection}{\numberline {3.2.1}Kemeny's Consensus}{35}{subsection.3.2.1}}
\newlabel{eq:ranking_aggregation}{{3.1}{35}{Kemeny's Consensus}{equation.3.2.1}{}}
\newlabel{eq:kemenys_rule}{{3.2}{35}{Kemeny's Consensus}{equation.3.2.2}{}}
\citation{Ali2012Experiments}
\citation{dwork2001rank}
\citation{Copeland51}
\citation{Borda}
\@writefile{toc}{\contentsline {subsection}{\numberline {3.2.2}Scoring Methods}{36}{subsection.3.2.2}}
\newlabel{eq:copeland_method}{{3.3}{36}{Scoring Methods}{equation.3.2.3}{}}
\citation{katariya2018adaptive}
\citation{diss2016multi}
\citation{BTT89}
\citation{young1978consistent}
\citation{levin1995introduction}
\citation{coppersmith2006ordering}
\citation{Sibony2014Borda}
\citation{JLYY11}
\newlabel{eq:borda_count}{{3.4}{37}{Scoring Methods}{equation.3.2.4}{}}
\@writefile{lof}{\contentsline {figure}{\numberline {3.1}{\ignorespaces An election where Borda count does not elect the Condorcet winner .\relax }}{37}{figure.caption.13}}
\newlabel{fig:borda_condorcet}{{3.1}{37}{An election where Borda count does not elect the Condorcet winner .\relax }{figure.caption.13}{}}
\citation{Ali2012Experiments}
\citation{CKS17}
\citation{rajkumar2014statistical}
\@writefile{lof}{\contentsline {figure}{\numberline {3.2}{\ignorespaces Hodge/Helmotz decomposition of the space of pairwise rankings.\relax }}{38}{figure.caption.14}}
\newlabel{fig:hodge}{{3.2}{38}{Hodge/Helmotz decomposition of the space of pairwise rankings.\relax }{figure.caption.14}{}}
\newlabel{rk:regimes}{{3.2}{38}{}{theorem.3.2.2}{}}
\@writefile{toc}{\contentsline {subsection}{\numberline {3.2.3}Spectral Methods}{38}{subsection.3.2.3}}
\citation{dwork2001rank}
\citation{negahban2012iterative}
\citation{brin1998anatomy}
\citation{rajkumar2014statistical}
\citation{MG15b,agarwal2018accelerated}
\citation{Condorcet}
\citation{LB11a}
\citation{fligner1990posterior,MPPB07,braverman2008noisy}
\citation{braverman2008noisy}
\citation{rajkumar2014statistical}
\citation{qin2010new}
\citation{conitzer2012common}
\citation{glickman1995glicko,HMG06,coulom2008whole}
\@writefile{toc}{\contentsline {subsection}{\numberline {3.2.4}Other Ranking Aggregation Methods}{39}{subsection.3.2.4}}
\citation{ailon2008aggregating}
\citation{Ali2012Experiments}
\citation{Schalekamp2009Rank}
\citation{dwork2001rank}
\citation{Borda,Condorcet,Arrow,Xia2015Generalized}
\citation{dwork2001rank,renda2003web,Desarkar2016}
\citation{DL05,DHLL14}
\citation{KLAV12,Patel13}
\citation{Li2014,ZSM14}
\citation{Kemeny59}
\citation{young1988condorcet}
\citation{BTT89,CSS99,dwork2001rank}
\citation{Schalekamp2009Rank,Ali2012Experiments}
\citation{DG77,coppersmith2006ordering,VW07,ailon2008aggregating,FW15}
\citation{saari2000geometric,PRS12}
\citation{BFGNR08,BFGNR09,CGS13}
\citation{BBHH15}
\citation{DK04,CDK06,Sibony2014Borda}
\@writefile{toc}{\contentsline {chapter}{\numberline {4}A General Method to Bound the Distance to Kemeny Consensus}{41}{chapter.4}}
\@writefile{lof}{\addvspace {10\p@ }}
\@writefile{lot}{\addvspace {10\p@ }}
\newlabel{chap:icml16}{{4}{41}{A General Method to Bound the Distance to Kemeny Consensus}{chapter.4}{}}
\@writefile{toc}{\contentsline {section}{\numberline {4.1}Introduction}{41}{section.4.1}}
\@writefile{toc}{\contentsline {section}{\numberline {4.2}Controlling the Distance to a Kemeny Consensus}{42}{section.4.2}}
\newlabel{sec:problem-statement}{{4.2}{42}{Controlling the Distance to a Kemeny Consensus}{section.4.2}{}}
\newlabel{eq:Kemeny-aggregation}{{4.1}{42}{Controlling the Distance to a Kemeny Consensus}{equation.4.2.1}{}}
\citation{Stanley86}
\citation{DG77,BCHV11}
\citation{CFR06,CDK06,JLYY11}
\citation{saari2000geometric}
\citation{Jiao2015Kendall}
\citation{Barthelemy81}
\newlabel{pb:general-problem}{{4.2}{43}{}{equation.4.2.1}{}}
\@writefile{toc}{\contentsline {section}{\numberline {4.3}Geometric Analysis of Kemeny Aggregation}{43}{section.4.3}}
\newlabel{sec:geometry}{{4.3}{43}{Geometric Analysis of Kemeny Aggregation}{section.4.3}{}}
\citation{Zwicker2008Consistency}
\citation{Lahaie2014Neutrality}
\newlabel{prop:background-result}{{4.2}{44}{Background results}{theorem.4.3.2}{}}
\newlabel{eq:reformulation}{{4.2}{44}{Background results}{equation.4.3.2}{}}
\newlabel{eq:mean-embedding}{{4.3}{44}{Background results}{equation.4.3.3}{}}
\@writefile{lof}{\contentsline {figure}{\numberline {4.1}{\ignorespaces Kemeny aggregation for $n=3$.\relax }}{45}{figure.caption.15}}
\newlabel{fig:geometric-interpretation}{{4.1}{45}{Kemeny aggregation for $n=3$.\relax }{figure.caption.15}{}}
\@writefile{toc}{\contentsline {section}{\numberline {4.4}Main Result}{45}{section.4.4}}
\newlabel{sec:main-result}{{4.4}{45}{Main Result}{section.4.4}{}}
\newlabel{eq:cosinus}{{4.4}{45}{Main Result}{equation.4.4.4}{}}
\newlabel{th:method}{{4.4}{45}{}{theorem.4.4.4}{}}
\newlabel{eq:k-min}{{4.5}{45}{Main Result}{equation.4.4.5}{}}
\citation{Kamishima2003Nantonac}
\newlabel{met:method}{{1}{46}{}{method.1}{}}
\@writefile{lot}{\contentsline {table}{\numberline {4.1}{\ignorespaces Summary of a case-study on the validity of Method \ref  {met:method} with the sushi dataset $(N=5000,n=10)$. Rows are ordered by increasing $k_{min}$ (or decreasing cosine) value.\relax }}{47}{table.caption.16}}
\newlabel{tab:sushi}{{4.1}{47}{Summary of a case-study on the validity of Method \ref {met:method} with the sushi dataset $(N=5000,n=10)$. Rows are ordered by increasing $k_{min}$ (or decreasing cosine) value.\relax }{table.caption.16}{}}
\@writefile{toc}{\contentsline {section}{\numberline {4.5}Geometric Interpretation and Proof of Theorem \ref  {th:method}}{47}{section.4.5}}
\newlabel{sec:proof}{{4.5}{47}{Geometric Interpretation and Proof of Theorem \ref {th:method}}{section.4.5}{}}
\@writefile{toc}{\contentsline {subsection}{\numberline {4.5.1}Extended Cost Function}{47}{subsection.4.5.1}}
\newlabel{eq:relaxed-problem}{{4.6}{47}{Extended Cost Function}{equation.4.5.6}{}}
\newlabel{lem:angles}{{4.6}{48}{}{theorem.4.5.6}{}}
\@writefile{lof}{\contentsline {figure}{\numberline {4.2}{\ignorespaces Level sets of $\mathcal  {C}_{N}$ over $\mathbb  {S}$.\relax }}{48}{figure.caption.17}}
\newlabel{fig:level-sets}{{4.2}{48}{Level sets of $\CN $ over $\Sphere $.\relax }{figure.caption.17}{}}
\@writefile{toc}{\contentsline {subsection}{\numberline {4.5.2}Interpretation of the Condition in Theorem \ref  {th:method}}{48}{subsection.4.5.2}}
\newlabel{lem:condition}{{4.7}{48}{}{theorem.4.5.7}{}}
\@writefile{lof}{\contentsline {figure}{\numberline {4.3}{\ignorespaces Illustration of Lemma \ref  {lem:condition}.\relax }}{50}{figure.caption.18}}
\newlabel{fig:illustration-condition}{{4.3}{50}{Illustration of Lemma \ref {lem:condition}.\relax }{figure.caption.18}{}}
\@writefile{toc}{\contentsline {subsection}{\numberline {4.5.3}Embedding of a Ball}{50}{subsection.4.5.3}}
\newlabel{lem:ball-embedding}{{4.8}{50}{}{theorem.4.5.8}{}}
\@writefile{toc}{\contentsline {subsection}{\numberline {4.5.4}Proof of Theorem \ref  {th:method}}{50}{subsection.4.5.4}}
\@writefile{toc}{\contentsline {section}{\numberline {4.6}Numerical Experiments}{51}{section.4.6}}
\newlabel{sec:icml_experiments}{{4.6}{51}{Numerical Experiments}{section.4.6}{}}
\@writefile{toc}{\contentsline {subsection}{\numberline {4.6.1}Tightness of the Bound}{51}{subsection.4.6.1}}
\citation{Diaconis1989generalization}
\citation{Popova2012robust}
\@writefile{lof}{\contentsline {figure}{\numberline {4.4}{\ignorespaces Boxplot of $s \left (r,\mathcal  {D}_{N},n\right )$ over sampling collections of datasets shows the effect from different size of alternative set $n$ with restricted sushi datasets $(n=3;4;5,N=5000)$.\relax }}{52}{figure.caption.19}}
\newlabel{fig:sushi}{{4.4}{52}{Boxplot of $s \br {r,\DN ,n}$ over sampling collections of datasets shows the effect from different size of alternative set $n$ with restricted sushi datasets $(n=3;4;5,N=5000)$.\relax }{figure.caption.19}{}}
\citation{Mattei2012empirical}
\citation{Kamishima2003Nantonac}
\@writefile{lof}{\contentsline {figure}{\numberline {4.5}{\ignorespaces Boxplot of $s \left (r,\mathcal  {D}_{N},n\right )$ over sampling collections of datasets shows the effect from different voting rules $r$ with $500$ bootstrapped pseudo-samples of the APA dataset $(n=5,N=5738)$.\relax }}{53}{figure.caption.20}}
\newlabel{fig:APA}{{4.5}{53}{Boxplot of $s \br {r,\DN ,n}$ over sampling collections of datasets shows the effect from different voting rules $r$ with $500$ bootstrapped pseudo-samples of the APA dataset $(n=5,N=5738)$.\relax }{figure.caption.20}{}}
\@writefile{lof}{\contentsline {figure}{\numberline {4.6}{\ignorespaces Boxplot of $s \left (r,\mathcal  {D}_{N},n\right )$ over sampling collections of datasets shows the effect from datasets $\mathcal  {D}_{N}$. $100$ Netflix datasets with the presence of Condorcet winner and $100$ datasets with no Condorcet winner ($n=4$ and $N$ varies for each sample).\relax }}{53}{figure.caption.21}}
\newlabel{fig:netflix}{{4.6}{53}{Boxplot of $s \br {r,\DN ,n}$ over sampling collections of datasets shows the effect from datasets $\DN $. $100$ Netflix datasets with the presence of Condorcet winner and $100$ datasets with no Condorcet winner ($n=4$ and $N$ varies for each sample).\relax }{figure.caption.21}{}}
\citation{Wang2013rate}
\@writefile{toc}{\contentsline {subsection}{\numberline {4.6.2}Applicability of the Method}{54}{subsection.4.6.2}}
\@writefile{lof}{\contentsline {figure}{\numberline {4.7}{\ignorespaces Boxplot of $k_{min}$ over $500$ bootstrapped pseudo-samples of the sushi dataset $(n=10, N=5000)$.\relax }}{54}{figure.caption.22}}
\newlabel{fig:applicability}{{4.7}{54}{Boxplot of $k_{min}$ over $500$ bootstrapped pseudo-samples of the sushi dataset $(n=10, N=5000)$.\relax }{figure.caption.22}{}}
\@writefile{toc}{\contentsline {section}{\numberline {4.7}Conclusion and Discussion}{55}{section.4.7}}
\citation{Condorcet}
\citation{CS05,Truchon08,CRX09}
\citation{young1988condorcet}
\citation{soufiani2014statistical}
\citation{DGL96}
\citation{KB05}
\@writefile{toc}{\contentsline {chapter}{\numberline {5}A Statistical Framework for Ranking Aggregation}{57}{chapter.5}}
\@writefile{lof}{\addvspace {10\p@ }}
\@writefile{lot}{\addvspace {10\p@ }}
\newlabel{chap:stat_fram}{{5}{57}{A Statistical Framework for Ranking Aggregation}{chapter.5}{}}
\@writefile{toc}{\contentsline {section}{\numberline {5.1}Introduction}{57}{section.5.1}}
\citation{Kemeny59}
\citation{Ali2012Experiments}
\@writefile{toc}{\contentsline {section}{\numberline {5.2}Background}{58}{section.5.2}}
\newlabel{sec:background_stat_fram}{{5.2}{58}{Background}{section.5.2}{}}
\@writefile{toc}{\contentsline {subsection}{\numberline {5.2.1}Consensus Ranking}{58}{subsection.5.2.1}}
\newlabel{eq:ranking_aggregation}{{5.1}{58}{Consensus Ranking}{equation.5.2.1}{}}
\citation{Mallows57}
\citation{Vapnik}
\@writefile{toc}{\contentsline {subsection}{\numberline {5.2.2}Statistical Framework}{59}{subsection.5.2.2}}
\newlabel{eq:median_pb}{{5.2}{59}{Statistical Framework}{equation.5.2.2}{}}
\newlabel{eq:emp_risk}{{5.3}{59}{Statistical Framework}{equation.5.2.3}{}}
\newlabel{eq:ERM1}{{5.4}{59}{Statistical Framework}{equation.5.2.4}{}}
\citation{Lahiri93}
\citation{LB14a}
\citation{rajkumar2014statistical}
\citation{PPR15}
\newlabel{rk:dispersion_measure_bis}{{5.1}{60}{}{theorem.5.2.1}{}}
\newlabel{eq:disp_meas2}{{5.5}{60}{}{equation.5.2.5}{}}
\newlabel{eq:emp_disp_meas2}{{5.6}{60}{}{equation.5.2.6}{}}
\newlabel{rk:alt_setup}{{5.2}{60}{}{theorem.5.2.2}{}}
\@writefile{toc}{\contentsline {subsection}{\numberline {5.2.3}Connection to Voting Rules}{60}{subsection.5.2.3}}
\newlabel{subsec:voting-rules}{{5.2.3}{60}{Connection to Voting Rules}{subsection.5.2.3}{}}
\citation{Copeland51}
\citation{Borda}
\@writefile{toc}{\contentsline {section}{\numberline {5.3}Optimality}{61}{section.5.3}}
\newlabel{sec:optimality}{{5.3}{61}{Optimality}{section.5.3}{}}
\newlabel{eq:loss-1}{{5.7}{61}{Optimality}{equation.5.3.7}{}}
\newlabel{remark:connection_binary}{{5.3}{61}{}{theorem.5.3.3}{}}
\newlabel{eq:cond_opt}{{5.9}{62}{Optimality}{equation.5.3.9}{}}
\newlabel{eq:copeland_formula}{{5.10}{62}{Optimality}{equation.5.3.10}{}}
\newlabel{eq:cond_opt2}{{5.11}{62}{Optimality}{equation.5.3.11}{}}
\newlabel{thm:optimal}{{5.5}{62}{}{theorem.5.3.5}{}}
\newlabel{eq:Kendall_risk_min}{{5.12}{62}{}{equation.5.3.12}{}}
\citation{Mallows57}
\citation{BFHS14}
\citation{bradley1952rank,Luce59,Plackett75}
\newlabel{rk:borda}{{5.6}{63}{}{theorem.5.3.6}{}}
\newlabel{remark:borda}{{5.6}{63}{}{theorem.5.3.6}{}}
\newlabel{Rk:Mallows}{{5.7}{63}{}{theorem.5.3.7}{}}
\newlabel{eq:Mallows}{{5.14}{63}{}{equation.5.3.14}{}}
\newlabel{eq:Mallows_disp}{{5.15}{63}{}{equation.5.3.15}{}}
\newlabel{Rk:BTL model}{{5.8}{63}{}{theorem.5.3.8}{}}
\citation{KB05}
\@writefile{toc}{\contentsline {section}{\numberline {5.4}Empirical Consensus}{64}{section.5.4}}
\newlabel{sec:rates}{{5.4}{64}{Empirical Consensus}{section.5.4}{}}
\@writefile{toc}{\contentsline {subsection}{\numberline {5.4.1}Universal Rates}{64}{subsection.5.4.1}}
\newlabel{eq:classic}{{5.16}{64}{Universal Rates}{equation.5.4.16}{}}
\newlabel{eq:classic2}{{5.17}{64}{Universal Rates}{equation.5.4.17}{}}
\newlabel{eq:classic2}{{5.19}{64}{Universal Rates}{equation.5.4.19}{}}
\newlabel{prop:ERM}{{5.9}{64}{}{theorem.5.4.9}{}}
\citation{JKS16}
\citation{BB08nips}
\newlabel{eq:minimax}{{5.20}{65}{Universal Rates}{equation.5.4.20}{}}
\newlabel{prop:minimax_bound}{{5.11}{65}{}{theorem.5.4.11}{}}
\newlabel{eq:Kendall_risk_min_empirical}{{5.21}{65}{}{equation.5.4.21}{}}
\citation{MasNed06}
\citation{Tsy04}
\citation{audibert2007fast}
\citation{chen2015spectral}
\citation{KB05}
\citation{shah2015stochastically}
\@writefile{toc}{\contentsline {subsection}{\numberline {5.4.2}Fast Rates in Low Noise}{66}{subsection.5.4.2}}
\newlabel{prop:low_noise}{{5.14}{66}{}{theorem.5.4.14}{}}
\newlabel{prop:lower_bound_low_noise}{{5.15}{67}{}{theorem.5.4.15}{}}
\newlabel{eq:minimax_lownoise}{{5.22}{67}{}{equation.5.4.22}{}}
\@writefile{toc}{\contentsline {subsection}{\numberline {5.4.3}Computational Issues}{67}{subsection.5.4.3}}
\newlabel{sec:copeland_solution}{{5.4.3}{67}{Computational Issues}{subsection.5.4.3}{}}
\@writefile{toc}{\contentsline {section}{\numberline {5.5}Conclusion}{68}{section.5.5}}
\newlabel{sec:conclusion}{{5.5}{68}{Conclusion}{section.5.5}{}}
\@writefile{toc}{\contentsline {section}{\numberline {5.6}Proofs}{68}{section.5.6}}
\newlabel{sec:proofs_stat_fram}{{5.6}{68}{Proofs}{section.5.6}{}}
\newlabel{eq:pairwise_sigma}{{5.23}{68}{}{equation.5.6.23}{}}
\citation{tsybakov2009introduction}
\newlabel{eq:risk1}{{5.24}{70}{}{equation.5.6.24}{}}
\newlabel{eq:risk2}{{5.25}{70}{}{equation.5.6.25}{}}
\newlabel{eq:Hoeffding-pairwise}{{5.26}{70}{}{equation.5.6.26}{}}
\newlabel{eq:Hoeffding-bound}{{5.6}{70}{}{equation.5.6.26}{}}
\citation{BFHS14}
\citation{BFHS14}
\newlabel{eq:distance_difference}{{5.27}{72}{}{equation.5.6.27}{}}
\newlabel{eq:Kullback_mallows}{{5.28}{72}{}{equation.5.6.28}{}}
\newlabel{eq:binomial_proba}{{5.29}{73}{}{equation.5.6.29}{}}
\newlabel{eq:binom_increasing1}{{5.30}{73}{}{equation.5.6.30}{}}
\newlabel{eq:binom_increasing2}{{5.31}{73}{}{equation.5.6.31}{}}
\newlabel{eq:binomial_bound}{{5.32}{73}{}{equation.5.6.32}{}}
\newlabel{eq:an_c}{{5.33}{73}{}{equation.5.6.33}{}}
\newlabel{eq:an_c_bound}{{5.34}{74}{}{equation.5.6.34}{}}
\newlabel{eq:bias_variance}{{5.35}{74}{}{equation.5.6.35}{}}
\newlabel{eq:bias}{{5.36}{74}{}{equation.5.6.36}{}}
\newlabel{eq:variance_upper_bound1}{{5.37}{74}{}{equation.5.6.37}{}}
\newlabel{eq:variance_product}{{5.39}{75}{}{equation.5.6.39}{}}
\newlabel{eq:variance_upper_bound2}{{5.40}{75}{}{equation.5.6.40}{}}
\@writefile{toc}{\contentsline {part}{II\hspace  {1em}Beyond Ranking Aggregation: Dimensionality Reduction and Ranking Regression}{77}{part.2}}
\newlabel{part:beyond}{{II}{79}{}{part.2}{}}
\@writefile{toc}{\contentsline {chapter}{\numberline {6}Dimensionality Reduction and (Bucket) Ranking:\\ A Mass Transportation Approach}{79}{chapter.6}}
\@writefile{lof}{\addvspace {10\p@ }}
\@writefile{lot}{\addvspace {10\p@ }}
\newlabel{chap:dim_red_rank}{{6}{79}{Dimensionality Reduction and (Bucket) Ranking:\\ A Mass Transportation Approach}{chapter.6}{}}
\@writefile{toc}{\contentsline {section}{\numberline {6.1}Introduction}{79}{section.6.1}}
\@writefile{toc}{\contentsline {section}{\numberline {6.2}Preliminaries}{80}{section.6.2}}
\newlabel{sec:background}{{6.2}{80}{Preliminaries}{section.6.2}{}}
\@writefile{toc}{\contentsline {subsection}{\numberline {6.2.1}Background on Bucket Orders}{80}{subsection.6.2.1}}
\citation{Rachev91}
\citation{CJ10}
\@writefile{toc}{\contentsline {subsection}{\numberline {6.2.2}A Mass Transportation Approach to Dimensionality Reduction on $\mathfrak  {S}_n$}{81}{subsection.6.2.2}}
\newlabel{eq:metric}{{6.1}{81}{}{equation.6.2.1}{}}
\newlabel{lem:Kendall}{{6.2}{81}{}{theorem.6.2.2}{}}
\newlabel{eq:lower}{{6.2}{81}{}{equation.6.2.2}{}}
\newlabel{eq:min_transp}{{6.3}{82}{A Mass Transportation Approach to Dimensionality Reduction on $\Sn $}{equation.6.2.3}{}}
\newlabel{eq:best_bucket}{{6.4}{82}{A Mass Transportation Approach to Dimensionality Reduction on $\Sn $}{equation.6.2.4}{}}
\@writefile{toc}{\contentsline {subsection}{\numberline {6.2.3}Optimal Couplings and Minimal Distortion}{83}{subsection.6.2.3}}
\newlabel{eq:expect_dist_coupling}{{6.6}{83}{Optimal Couplings and Minimal Distortion}{equation.6.2.6}{}}
\newlabel{prop:kendall_prop}{{6.3}{83}{}{theorem.6.2.3}{}}
\newlabel{eq:mt_criterion}{{6.7}{83}{}{equation.6.2.7}{}}
\newlabel{prop:comp}{{1}{83}{}{property.1}{}}
\citation{CKS17}
\citation{aledo2017utopia}
\citation{aledo2018approaching}
\citation{feng2008discovering}
\citation{gionis2006algorithms}
\citation{ukkonen2009randomized}
\citation{shah2016feeling,pananjady2017worst}
\newlabel{cor:median_lambda}{{6.4}{84}{}{theorem.6.2.4}{}}
\@writefile{toc}{\contentsline {subsection}{\numberline {6.2.4}Related Work}{84}{subsection.6.2.4}}
\newlabel{eq:OBO2}{{6.9}{84}{Related Work}{equation.6.2.9}{}}
\newlabel{eq:OBO}{{6.10}{84}{Related Work}{equation.6.2.10}{}}
\newlabel{eq:indifference_set_cdt}{{6.11}{84}{Related Work}{equation.6.2.11}{}}
\@writefile{toc}{\contentsline {section}{\numberline {6.3}Empirical Distortion Minimization - Rate Bounds and Model Selection}{85}{section.6.3}}
\newlabel{sec:learning}{{6.3}{85}{Empirical Distortion Minimization - Rate Bounds and Model Selection}{section.6.3}{}}
\newlabel{eq:emp_distort}{{6.12}{85}{Empirical Distortion Minimization - Rate Bounds and Model Selection}{equation.6.3.12}{}}
\newlabel{eq:EDM}{{6.13}{85}{Empirical Distortion Minimization - Rate Bounds and Model Selection}{equation.6.3.13}{}}
\newlabel{thm:EDM}{{6.5}{85}{}{theorem.6.3.5}{}}
\citation{chen2013pairwise}
\citation{park2015preference}
\newlabel{rk:alt_setup}{{6.7}{86}{}{theorem.6.3.7}{}}
\newlabel{eq:penalty}{{6.14}{86}{Empirical Distortion Minimization - Rate Bounds and Model Selection}{equation.6.3.14}{}}
\newlabel{eq:EDM_penalty}{{6.15}{87}{Empirical Distortion Minimization - Rate Bounds and Model Selection}{equation.6.3.15}{}}
\newlabel{thm:select}{{6.8}{87}{}{theorem.6.3.8}{}}
\newlabel{thm:bucket_median}{{6.9}{87}{}{theorem.6.3.9}{}}
\newlabel{eq:opt_bucket}{{6.16}{87}{}{equation.6.3.16}{}}
\newlabel{eq:excess_distort}{{6.17}{87}{}{equation.6.3.17}{}}
\newlabel{eq:low_noise}{{6.18}{87}{Empirical Distortion Minimization - Rate Bounds and Model Selection}{equation.6.3.18}{}}
\citation{Kamishima2003Nantonac}
\citation{Abbasnejad2013}
\newlabel{thm:fast}{{6.10}{88}{}{theorem.6.3.10}{}}
\@writefile{toc}{\contentsline {section}{\numberline {6.4}Numerical Experiments on Real-world Datasets}{88}{section.6.4}}
\newlabel{sec:exp}{{6.4}{88}{Numerical Experiments on Real-world Datasets}{section.6.4}{}}
\@writefile{lof}{\contentsline {figure}{\numberline {6.1}{\ignorespaces Dimension-Distortion plot for different bucket sizes on real-world preference datasets.\relax }}{88}{figure.caption.23}}
\newlabel{fig:real_data}{{6.1}{88}{Dimension-Distortion plot for different bucket sizes on real-world preference datasets.\relax }{figure.caption.23}{}}
\@writefile{toc}{\contentsline {section}{\numberline {6.5}Conclusion}{89}{section.6.5}}
\newlabel{sec:concl}{{6.5}{89}{Conclusion}{section.6.5}{}}
\@writefile{toc}{\contentsline {section}{\numberline {6.6}Appendix}{89}{section.6.6}}
\newlabel{sec:appendix_dim_red_rank}{{6.6}{89}{Appendix}{section.6.6}{}}
\newlabel{sec:dim_red_rank_algo}{{6.6}{89}{}{section.6.6}{}}
\newlabel{eq:merged_bucket}{{6.19}{90}{}{equation.6.6.19}{}}
\newlabel{eq:delta}{{6.20}{90}{}{equation.6.6.20}{}}
\newlabel{eq:merged_dim}{{6.21}{90}{}{equation.6.6.21}{}}
\newlabel{thm:algo}{{6.11}{90}{}{theorem.6.6.11}{}}
\@writefile{lof}{\contentsline {figure}{\numberline {6.2}{\ignorespaces Dimension-Distortion plot for different bucket sizes on simulated datasets.\relax }}{91}{figure.caption.24}}
\newlabel{fig:simulated_data}{{6.2}{91}{Dimension-Distortion plot for different bucket sizes on simulated datasets.\relax }{figure.caption.24}{}}
\@writefile{lof}{\contentsline {figure}{\numberline {6.3}{\ignorespaces Dimension-Distortion plot for a true bucket distribution versus a uniform distribution ($n=10$ on top and $n=20$ below).\relax }}{92}{figure.caption.25}}
\newlabel{fig:bucket_vs_uniform}{{6.3}{92}{Dimension-Distortion plot for a true bucket distribution versus a uniform distribution ($n=10$ on top and $n=20$ below).\relax }{figure.caption.25}{}}
\newlabel{sec:other_distances}{{6.6}{93}{}{figure.caption.25}{}}
\newlabel{lem:squared_spearman}{{6.12}{93}{}{theorem.6.6.12}{}}
\newlabel{eq:Wspearman}{{6.22}{93}{}{equation.6.6.22}{}}
\newlabel{eq:spearman_triplets}{{6.23}{94}{}{equation.6.6.23}{}}
\newlabel{eq:Habc}{{6.25}{96}{}{equation.6.6.25}{}}
\newlabel{eq:Habc_max}{{6.26}{96}{}{equation.6.6.26}{}}
\newlabel{eq:3diff_buckets_1}{{6.27}{97}{}{equation.6.6.27}{}}
\newlabel{eq:3diff_buckets_2}{{6.28}{97}{}{equation.6.6.28}{}}
\newlabel{eq:2diff_buckets_1}{{6.30}{98}{}{equation.6.6.30}{}}
\newlabel{eq:2diff_buckets_2}{{6.31}{98}{}{equation.6.6.31}{}}
\newlabel{lem:hamming}{{6.13}{99}{}{theorem.6.6.13}{}}
\newlabel{eq:hamming}{{6.32}{99}{}{equation.6.6.32}{}}
\@writefile{toc}{\contentsline {section}{\numberline {6.7}Proofs}{100}{section.6.7}}
\newlabel{sec:proofs_dim_red_rank}{{6.7}{100}{Proofs}{section.6.7}{}}
\newlabel{eq:margin}{{6.33}{100}{}{equation.6.7.33}{}}
\citation{vanweak}
\newlabel{eq:min_dist}{{6.34}{101}{}{equation.6.7.34}{}}
\newlabel{eq:symmetrization}{{6.35}{101}{}{equation.6.7.35}{}}
\citation{boucheron2005theory}
\citation{boucheron2005theory}
\newlabel{eq:lowerb}{{6.36}{103}{}{equation.6.7.36}{}}
\newlabel{lem:var_control}{{6.14}{103}{}{theorem.6.7.14}{}}
\citation{cart84}
\citation{YWL10}
\@writefile{toc}{\contentsline {chapter}{\numberline {7}Ranking Median Regression: Learning to Order through Local Consensus}{105}{chapter.7}}
\@writefile{lof}{\addvspace {10\p@ }}
\@writefile{lot}{\addvspace {10\p@ }}
\newlabel{chap:rank_reg}{{7}{105}{Ranking Median Regression: Learning to Order through Local Consensus}{chapter.7}{}}
\@writefile{toc}{\contentsline {section}{\numberline {7.1}Introduction}{105}{section.7.1}}
\newlabel{sec:intro}{{7.1}{105}{Introduction}{section.7.1}{}}
\@writefile{toc}{\contentsline {section}{\numberline {7.2}Preliminaries}{107}{section.7.2}}
\newlabel{sec:background}{{7.2}{107}{Preliminaries}{section.7.2}{}}
\@writefile{toc}{\contentsline {subsection}{\numberline {7.2.1}Best Strictly Stochastically Transitive Approximation}{107}{subsection.7.2.1}}
\newlabel{subsec:best}{{7.2.1}{107}{Best Strictly Stochastically Transitive Approximation}{subsection.7.2.1}{}}
\newlabel{lem:bounds}{{7.1}{107}{}{theorem.7.2.1}{}}
\citation{JLYY11}
\citation{tsoumakas2009mining}
\citation{vembu2010label}
\citation{gurrieri2012label}
\citation{YWL10}
\citation{cheng2009new}
\citation{cheng2009decision}
\citation{cheng2010label}
\citation{rendle2009bpr}
\citation{lu2015individualized}
\newlabel{eq:min_ls}{{7.3}{108}{Best Strictly Stochastically Transitive Approximation}{equation.7.2.3}{}}
\@writefile{toc}{\contentsline {subsection}{\numberline {7.2.2}Predictive Ranking and Statistical Conditional Models}{108}{subsection.7.2.2}}
\newlabel{subsec:cdt_models}{{7.2.2}{108}{Predictive Ranking and Statistical Conditional Models}{subsection.7.2.2}{}}
\@writefile{toc}{\contentsline {section}{\numberline {7.3}Ranking Median Regression}{109}{section.7.3}}
\newlabel{sec:rmr}{{7.3}{109}{Ranking Median Regression}{section.7.3}{}}
\newlabel{eq:reg_risk}{{7.4}{109}{Ranking Median Regression}{equation.7.3.4}{}}
\newlabel{eq:excess_risk}{{7.5}{110}{Ranking Median Regression}{equation.7.3.5}{}}
\newlabel{eq:ERM}{{7.6}{110}{Ranking Median Regression}{equation.7.3.6}{}}
\newlabel{eq:emp_reg_risk}{{7.7}{110}{Ranking Median Regression}{equation.7.3.7}{}}
\newlabel{hyp:complex}{{1}{110}{}{assumption.1}{}}
\newlabel{prop:upper_bound}{{7.3}{110}{}{theorem.7.3.3}{}}
\citation{CJ10}
\citation{FJBA13}
\citation{YWL10}
\citation{AY14}
\newlabel{eq:ERM_bound_gen}{{7.8}{111}{}{equation.7.3.8}{}}
\newlabel{rk:minimaxity}{{7.4}{111}{}{theorem.7.3.4}{}}
\newlabel{hyp:margin}{{2}{111}{}{assumption.2}{}}
\newlabel{prop:fast}{{7.5}{111}{}{theorem.7.3.5}{}}
\@writefile{toc}{\contentsline {section}{\numberline {7.4}Local Consensus Methods for Ranking Median Regression}{112}{section.7.4}}
\newlabel{sec:main}{{7.4}{112}{Local Consensus Methods for Ranking Median Regression}{section.7.4}{}}
\@writefile{toc}{\contentsline {subsection}{\numberline {7.4.1}Piecewise Constant Predictive Ranking Rules and Local Consensus}{112}{subsection.7.4.1}}
\newlabel{subsec:piece}{{7.4.1}{112}{Piecewise Constant Predictive Ranking Rules and Local Consensus}{subsection.7.4.1}{}}
\newlabel{eq:piecewise_cst}{{7.10}{112}{Piecewise Constant Predictive Ranking Rules and Local Consensus}{equation.7.4.10}{}}
\newlabel{prop:opt_subclass}{{7.6}{113}{}{theorem.7.4.6}{}}
\newlabel{eq:piecewise_cst_opt}{{7.11}{113}{}{equation.7.4.11}{}}
\newlabel{eq:bias1}{{7.12}{113}{Piecewise Constant Predictive Ranking Rules and Local Consensus}{equation.7.4.12}{}}
\newlabel{hyp:smooth}{{3}{113}{}{assumption.3}{}}
\newlabel{thm:approx}{{7.7}{113}{}{theorem.7.4.7}{}}
\newlabel{eq:RMR_bound}{{7.14}{113}{}{equation.7.4.14}{}}
\citation{Binev}
\@writefile{lof}{\contentsline {figure}{\numberline {7.1}{\ignorespaces Example of a distribution satisfying Assumptions \ref  {hyp:margin}-\ref  {hyp:smooth} in $\mathbb  {R}^2$ .\relax }}{114}{figure.caption.26}}
\newlabel{fig:example_partition}{{7.1}{114}{Example of a distribution satisfying Assumptions \ref {hyp:margin}-\ref {hyp:smooth} in $\mathbb {R}^2$ .\relax }{figure.caption.26}{}}
\newlabel{eq:RMR_bound2}{{7.15}{114}{}{equation.7.4.15}{}}
\newlabel{ex:specific_distr}{{7.1}{114}{}{example.7.1}{}}
\citation{LN96}
\citation{LN96}
\citation{DGL96}
\newlabel{eq:rule_theor}{{7.16}{115}{Piecewise Constant Predictive Ranking Rules and Local Consensus}{equation.7.4.16}{}}
\newlabel{eq:rule_pract}{{7.17}{115}{Piecewise Constant Predictive Ranking Rules and Local Consensus}{equation.7.4.17}{}}
\newlabel{th:partition_consist}{{7.10}{115}{}{theorem.7.4.10}{}}
\@writefile{toc}{\contentsline {subsection}{\numberline {7.4.2}Nearest-Neighbor Rules for Ranking Median Regression}{116}{subsection.7.4.2}}
\newlabel{subsec:algoNN}{{7.4.2}{116}{Nearest-Neighbor Rules for Ranking Median Regression}{subsection.7.4.2}{}}
\newlabel{fig:trpseudoknn}{{\caption@xref {fig:trpseudoknn}{ on input line 199}}{116}{Nearest-Neighbor Rules for Ranking Median Regression}{Item.15}{}}
\@writefile{lof}{\contentsline {figure}{\numberline {7.2}{\ignorespaces Pseudo-code for the $k$-NN algorithm.\relax }}{116}{figure.caption.27}}
\citation{BHS14}
\citation{FHTbook}
\newlabel{eq:local_distr}{{7.18}{117}{Nearest-Neighbor Rules for Ranking Median Regression}{equation.7.4.18}{}}
\newlabel{eq:k_NNtheo}{{7.19}{117}{Nearest-Neighbor Rules for Ranking Median Regression}{equation.7.4.19}{}}
\newlabel{eq:k_NNpract}{{7.20}{117}{Nearest-Neighbor Rules for Ranking Median Regression}{equation.7.4.20}{}}
\newlabel{thm:NN_consist}{{7.11}{117}{}{theorem.7.4.11}{}}
\citation{friedman}
\citation{YWL10}
\@writefile{toc}{\contentsline {subsection}{\numberline {7.4.3}Recursive Partitioning - The {\sc  CRIT} algorithm}{118}{subsection.7.4.3}}
\newlabel{subsec:algo}{{7.4.3}{118}{Recursive Partitioning - The {\sc CRIT} algorithm}{subsection.7.4.3}{}}
\newlabel{fig:trpseudocrit}{{\caption@xref {fig:trpseudocrit}{ on input line 297}}{118}{Recursive Partitioning - The {\sc CRIT} algorithm}{Item.18}{}}
\@writefile{lof}{\contentsline {figure}{\numberline {7.3}{\ignorespaces Pseudo-code for the {\sc  CRIT} algorithm.\relax }}{118}{figure.caption.28}}
\newlabel{eq:train1}{{7.23}{118}{Recursive Partitioning - The {\sc CRIT} algorithm}{equation.7.4.23}{}}
\newlabel{eq:crit_exp1}{{7.24}{119}{Recursive Partitioning - The {\sc CRIT} algorithm}{equation.7.4.24}{}}
\newlabel{eq:crit_exp2}{{7.25}{119}{Recursive Partitioning - The {\sc CRIT} algorithm}{equation.7.4.25}{}}
\newlabel{eq:double}{{7.26}{119}{Recursive Partitioning - The {\sc CRIT} algorithm}{equation.7.4.26}{}}
\newlabel{eq:crit_exp3}{{7.27}{119}{Recursive Partitioning - The {\sc CRIT} algorithm}{equation.7.4.27}{}}
\newlabel{eq:min_pb}{{7.29}{119}{Recursive Partitioning - The {\sc CRIT} algorithm}{equation.7.4.29}{}}
\citation{YWL10}
\citation{cart84}
\citation{cart84}
\newlabel{rk:related}{{7.12}{120}{}{theorem.7.4.12}{}}
\citation{Br96}
\citation{Br01}
\citation{Mallows57}
\@writefile{toc}{\contentsline {section}{\numberline {7.5}Numerical Experiments}{121}{section.7.5}}
\newlabel{sec:num}{{7.5}{121}{Numerical Experiments}{section.7.5}{}}
\citation{AY14}
\citation{AY14}
\citation{AY14}
\citation{DGL96}
\@writefile{toc}{\contentsline {section}{\numberline {7.6}Conclusion and Perspectives}{123}{section.7.6}}
\newlabel{sec:conclusion}{{7.6}{123}{Conclusion and Perspectives}{section.7.6}{}}
\@writefile{toc}{\contentsline {section}{\numberline {7.7}Appendix - On Aggregation in Ranking Median Regression}{123}{section.7.7}}
\newlabel{sec:esann}{{7.7}{123}{Appendix - On Aggregation in Ranking Median Regression}{section.7.7}{}}
\citation{CKS17bis}
\newlabel{fig:trpseudoagg}{{\caption@xref {fig:trpseudoagg}{ on input line 44}}{124}{Appendix - On Aggregation in Ranking Median Regression}{Item.20}{}}
\@writefile{lof}{\contentsline {figure}{\numberline {7.4}{\ignorespaces Pseudo-code for the aggregation of RMR rules.\relax }}{124}{figure.caption.29}}
\@writefile{toc}{\contentsline {section}{\numberline {7.8}Proofs}{126}{section.7.8}}
\newlabel{sec:proofs_rank_reg}{{7.8}{126}{Proofs}{section.7.8}{}}
\citation{DGL96}
\newlabel{lem:var_control}{{7.14}{127}{}{theorem.7.8.14}{}}
\newlabel{eq:decompos}{{7.38}{129}{}{equation.7.8.38}{}}
\newlabel{eq:bound_diam}{{7.39}{129}{}{equation.7.8.39}{}}
\citation{DGL96}
\newlabel{eq:bound_term1}{{7.41}{130}{}{equation.7.8.41}{}}
\newlabel{lem:VCbounds}{{7.15}{130}{}{theorem.7.8.15}{}}
\newlabel{eq:indicator}{{7.42}{131}{}{equation.7.8.42}{}}
\citation{gyorfi2006distribution}
\citation{gyorfi2006distribution}
\citation{gyorfi2006distribution}
\newlabel{lem:x_bounded}{{7.16}{132}{}{theorem.7.8.16}{}}
\citation{gyorfi2006distribution}
\newlabel{RF1}{134}
\@writefile{lot}{\contentsline {table}{\numberline {7.1}{\ignorespaces Empirical risk averaged on 50 trials on simulated data for kNN, CRIT and parametric baseline.\relax }}{134}{table.7.1}}
\newlabel{table:simulated_data}{{7.1}{134}{Empirical risk averaged on 50 trials on simulated data for kNN, CRIT and parametric baseline.\relax }{table.7.1}{}}
\@writefile{lot}{\contentsline {table}{\numberline {7.2}{\ignorespaces Empirical risk averaged on 50 trials on simulated data for aggregation of RMR rules.\relax }}{135}{table.caption.30}}
\newlabel{table:simulated_data}{{7.2}{135}{Empirical risk averaged on 50 trials on simulated data for aggregation of RMR rules.\relax }{table.caption.30}{}}
\citation{geng2014multilabel}
\citation{wang2011ranking}
\citation{djuric2014non}
\citation{brazdil2003ranking,aiguzhinov2010similarity}
\citation{DSM03,furnkranz2003pairwise}
\citation{cao2007learning}
\@writefile{toc}{\contentsline {chapter}{\numberline {8}A Structured Prediction Approach for Label Ranking}{137}{chapter.8}}
\@writefile{lof}{\addvspace {10\p@ }}
\@writefile{lot}{\addvspace {10\p@ }}
\newlabel{chap:struc_pred}{{8}{137}{A Structured Prediction Approach for Label Ranking}{chapter.8}{}}
\@writefile{toc}{\contentsline {section}{\numberline {8.1}Introduction}{137}{section.8.1}}
\citation{Nowozin-book2011}
\citation{cortes2005,kadri_icml2013,brouard2016input}
\citation{ciliberto2016consistent}
\citation{osokin2017}
\citation{steinwart-book}
\citation{KKP11}
\citation{ailon2010aggregation}
\@writefile{toc}{\contentsline {section}{\numberline {8.2}Preliminaries}{138}{section.8.2}}
\newlabel{sec:preliminaries}{{8.2}{138}{Preliminaries}{section.8.2}{}}
\@writefile{toc}{\contentsline {subsection}{\numberline {8.2.1}Mathematical Background and Notations}{138}{subsection.8.2.1}}
\newlabel{sec:math_background}{{8.2.1}{138}{Mathematical Background and Notations}{subsection.8.2.1}{}}
\citation{vembu2010label}
\citation{zhou2014taxonomy}
\citation{furnkranz2003pairwise}
\citation{dekel2004log}
\citation{zhang2007ml}
\citation{chiang2012ranking}
\citation{cheng2010label}
\citation{cheng2009decision}
\citation{aledo2017tackling}
\citation{cheng13nearest}
\citation{YWL10}
\citation{zhou2016random}
\citation{CKS17bis}
\citation{sa2017label}
\citation{gurrieri2012label}
\citation{de2018preference}
\@writefile{toc}{\contentsline {subsection}{\numberline {8.2.2}Related Work}{139}{subsection.8.2.2}}
\citation{ciliberto2016consistent}
\citation{brouard2016input}
\citation{calauzenes2012non}
\@writefile{toc}{\contentsline {section}{\numberline {8.3}Structured Prediction for Label Ranking}{140}{section.8.3}}
\newlabel{sec:structured_prediction}{{8.3}{140}{Structured Prediction for Label Ranking}{section.8.3}{}}
\@writefile{toc}{\contentsline {subsection}{\numberline {8.3.1}Learning Problem}{140}{subsection.8.3.1}}
\newlabel{eq:risk_theo}{{8.1}{140}{Learning Problem}{equation.8.3.1}{}}
\newlabel{loss_embedding}{{8.2}{140}{Learning Problem}{equation.8.3.2}{}}
\newlabel{eq:surrogate_pb}{{8.3}{140}{Learning Problem}{equation.8.3.3}{}}
\newlabel{eq:pre-image}{{8.5}{140}{Learning Problem}{equation.8.3.5}{}}
\citation{Deza}
\newlabel{eq:emp_surrogate_pb}{{8.6}{141}{Learning Problem}{equation.8.3.6}{}}
\newlabel{eq:emp_inverse_image}{{8.7}{141}{Learning Problem}{equation.8.3.7}{}}
\newlabel{eq:decoding_function}{{8.8}{141}{Learning Problem}{equation.8.3.8}{}}
\@writefile{toc}{\contentsline {subsection}{\numberline {8.3.2}Losses for Ranking}{141}{subsection.8.3.2}}
\newlabel{eq:kendall_dist}{{8.9}{141}{Losses for Ranking}{equation.8.3.9}{}}
\citation{fathony2018efficient}
\citation{JKS16}
\citation{merlin1997copeland}
\newlabel{eq:hamming_dist}{{8.10}{142}{Losses for Ranking}{equation.8.3.10}{}}
\@writefile{toc}{\contentsline {section}{\numberline {8.4}Output Embeddings for Rankings}{142}{section.8.4}}
\newlabel{sec:embeddings}{{8.4}{142}{Output Embeddings for Rankings}{section.8.4}{}}
\@writefile{toc}{\contentsline {subsection}{\numberline {8.4.1}The Kemeny Embedding}{142}{subsection.8.4.1}}
\newlabel{kemeny:pre-image}{{8.11}{142}{The Kemeny Embedding}{equation.8.4.11}{}}
\citation{calauzenes2012non,ramaswamy2013convex}
\citation{calauzenes2012non}
\newlabel{eq:ILP_Kendall}{{8.12}{143}{The Kemeny Embedding}{equation.8.4.12}{}}
\@writefile{toc}{\contentsline {subsection}{\numberline {8.4.2}The Hamming Embedding}{143}{subsection.8.4.2}}
\citation{kuhn1955hungarian}
\citation{marevs2007linear}
\citation{myrvold2001ranking}
\citation{li2017efficient}
\newlabel{hamming:pre-image}{{8.13}{144}{The Hamming Embedding}{equation.8.4.13}{}}
\@writefile{toc}{\contentsline {subsection}{\numberline {8.4.3}Lehmer Code}{144}{subsection.8.4.3}}
\newlabel{eq:lehmer_complete}{{8.15}{144}{Lehmer Code}{equation.8.4.15}{}}
\citation{Deza}
\citation{wang2015compression}
\citation{li2017efficient}
\newlabel{eq:loss_lehmer}{{8.16}{145}{Lehmer Code}{equation.8.4.16}{}}
\newlabel{eq:decoding_lehmer}{{8.17}{145}{Lehmer Code}{equation.8.4.17}{}}
\@writefile{toc}{\contentsline {subsection}{\numberline {8.4.4}Extension to Partial and Incomplete Rankings}{145}{subsection.8.4.4}}
\newlabel{eq:kemeny_partial}{{8.18}{145}{Extension to Partial and Incomplete Rankings}{equation.8.4.18}{}}
\citation{FKMSV04}
\citation{ciliberto2016consistent}
\newlabel{eq:lehmer_partial}{{8.20}{146}{Extension to Partial and Incomplete Rankings}{equation.8.4.20}{}}
\@writefile{toc}{\contentsline {section}{\numberline {8.5}Computational and Theoretical Analysis}{146}{section.8.5}}
\newlabel{sec:analysis}{{8.5}{146}{Computational and Theoretical Analysis}{section.8.5}{}}
\@writefile{toc}{\contentsline {subsection}{\numberline {8.5.1}Theoretical Guarantees}{146}{subsection.8.5.1}}
\citation{ciliberto2016consistent}
\citation{micchelli2005learning}
\citation{DGL96}
\citation{caponnetto2007optimal}
\citation{cheng2010label}
\citation{cheng13nearest}
\citation{zhou2016random}
\newlabel{theo:consistency}{{8.1}{147}{}{theorem.8.5.1}{}}
\citation{cheng2010label}
\citation{cheng13nearest}
\@writefile{lot}{\contentsline {table}{\numberline {8.1}{\ignorespaces Embeddings and regressors complexities.\relax }}{148}{table.caption.31}}
\newlabel{table:complexities}{{8.1}{148}{Embeddings and regressors complexities.\relax }{table.caption.31}{}}
\@writefile{toc}{\contentsline {subsection}{\numberline {8.5.2}Algorithmic Complexity}{148}{subsection.8.5.2}}
\newlabel{sec:complexity}{{8.5.2}{148}{Algorithmic Complexity}{subsection.8.5.2}{}}
\@writefile{toc}{\contentsline {section}{\numberline {8.6}Numerical Experiments}{148}{section.8.6}}
\newlabel{sec:experiments}{{8.6}{148}{Numerical Experiments}{section.8.6}{}}
\newlabel{eq:kendall_gamma_coeff}{{8.21}{148}{Numerical Experiments}{equation.8.6.21}{}}
\citation{ciliberto2016consistent}
\@writefile{lot}{\contentsline {table}{\numberline {8.2}{\ignorespaces Mean Kendall's $\tau $ coefficient on benchmark datasets\relax }}{149}{table.caption.32}}
\newlabel{kendalltautable}{{8.2}{149}{Mean Kendall's $\tau $ coefficient on benchmark datasets\relax }{table.caption.32}{}}
\@writefile{toc}{\contentsline {section}{\numberline {8.7}Conclusion}{149}{section.8.7}}
\@writefile{toc}{\contentsline {section}{\numberline {8.8}Proofs and Additional Experiments}{150}{section.8.8}}
\newlabel{sec:proofs_struc_pred}{{8.8}{150}{Proofs and Additional Experiments}{section.8.8}{}}
\@writefile{toc}{\contentsline {subsection}{\numberline {8.8.1}Proof of Theorem 1}{150}{subsection.8.8.1}}
\newlabel{sec:lehmer_proof}{{8.8.1}{150}{Proof of Theorem 1}{subsection.8.8.1}{}}
\newlabel{th:ciliberto}{{8.3}{150}{}{theorem.8.8.3}{}}
\citation{ciliberto2016consistent}
\citation{ciliberto2016consistent}
\citation{ciliberto2016consistent}
\newlabel{eq:minimizer_surrogate}{{8.23}{151}{Proof of Theorem 1}{equation.8.8.23}{}}
\citation{ciliberto2016consistent}
\citation{li2017efficient}
\newlabel{rk:consistency_lehmer}{{8.4}{152}{}{theorem.8.8.4}{}}
\@writefile{toc}{\contentsline {subsection}{\numberline {8.8.2}Lehmer Embedding for Partial Rankings}{152}{subsection.8.8.2}}
\newlabel{sec:lehmer_partial}{{8.8.2}{152}{Lehmer Embedding for Partial Rankings}{subsection.8.8.2}{}}
\citation{micchelli2005learning}
\citation{kamishima2010survey}
\@writefile{toc}{\contentsline {subsection}{\numberline {8.8.3}Additional Experimental Results}{153}{subsection.8.8.3}}
\newlabel{sec:additional_results}{{8.8.3}{153}{Additional Experimental Results}{subsection.8.8.3}{}}
\@writefile{lot}{\contentsline {table}{\numberline {8.3}{\ignorespaces Rescaled Hamming distance on benchmark datasets\relax }}{153}{table.caption.33}}
\newlabel{tab:Hamming-results}{{8.3}{153}{Rescaled Hamming distance on benchmark datasets\relax }{table.caption.33}{}}
\newlabel{eq:least_squares}{{8.24}{153}{Additional Experimental Results}{equation.8.8.24}{}}
\@writefile{lot}{\contentsline {table}{\numberline {8.4}{\ignorespaces Mean Kendall's $\tau $ coefficient on additional datasets\relax }}{154}{table.caption.34}}
\newlabel{tab:additionaltable}{{8.4}{154}{Mean Kendall's $\tau $ coefficient on additional datasets\relax }{table.caption.34}{}}
\@writefile{toc}{\contentsline {chapter}{\numberline {9}Conclusion, Limitations \& Perspectives}{155}{chapter.9}}
\@writefile{lof}{\addvspace {10\p@ }}
\@writefile{lot}{\addvspace {10\p@ }}
\newlabel{chap:concl}{{9}{155}{Conclusion, Limitations \& Perspectives}{chapter.9}{}}
\citation{rajkumar2014statistical,sibony2014multiresolution}
\@writefile{toc}{\contentsline {chapter}{\numberline {10}R\'esum\'e en fran\c {c}ais}{157}{chapter.10}}
\@writefile{lof}{\addvspace {10\p@ }}
\@writefile{lot}{\addvspace {10\p@ }}
\newlabel{chap:intro}{{10}{157}{R\'esum\'e en fran\c {c}ais}{chapter.10}{}}
\@writefile{toc}{\contentsline {section}{\numberline {10.1}Pr\IeC {\'e}liminaires sur les Donn\IeC {\'e}es de Classements}{158}{section.10.1}}
\citation{Arrow51}
\citation{Kemeny59}
\@writefile{toc}{\contentsline {section}{\numberline {10.2}L'agr\IeC {\'e}gation de Classements}{159}{section.10.2}}
\@writefile{toc}{\contentsline {subsection}{\numberline {10.2.1}D\IeC {\'e}finition et Contexte}{159}{subsection.10.2.1}}
\citation{dwork2001rank}
\citation{DG77,coppersmith2006ordering,VW07,ailon2008aggregating,FW15}
\citation{DK04,CDK06,Sibony2014Borda}
\citation{BFGNR08,BFGNR09,CGS13,BBHH15}
\newlabel{eq:ranking_aggregation_intro}{{10.1}{160}{Définition et Contexte}{equation.10.2.1}{}}
\@writefile{toc}{\contentsline {subsection}{\numberline {10.2.2}Une M\IeC {\'e}thode G\IeC {\'e}n\IeC {\'e}rale pour Borner la Distance au Consensus de Kemeny}{161}{subsection.10.2.2}}
\newlabel{sec:intro_bound_kemeny}{{10.2.2}{161}{Une Méthode Générale pour Borner la Distance au Consensus de Kemeny}{subsection.10.2.2}{}}
\newlabel{eq:cosinus}{{10.4}{162}{Une Méthode Générale pour Borner la Distance au Consensus de Kemeny}{equation.10.2.4}{}}
\newlabel{th:method}{{10.1}{162}{}{theorem.10.2.1}{}}
\newlabel{eq:k-min}{{10.5}{162}{Une Méthode Générale pour Borner la Distance au Consensus de Kemeny}{equation.10.2.5}{}}
\@writefile{toc}{\contentsline {subsection}{\numberline {10.2.3}Un Cadre Statistique pour l'Agr\IeC {\'e}gation de Classements}{162}{subsection.10.2.3}}
\newlabel{sec:stat_fram_intro}{{10.2.3}{162}{Un Cadre Statistique pour l'Agrégation de Classements}{subsection.10.2.3}{}}
\newlabel{eq:median_pb_intro}{{10.6}{162}{Un Cadre Statistique pour l'Agrégation de Classements}{equation.10.2.6}{}}
\citation{davidson1959experimental}
\citation{Fishburn73,davidson1959experimental}
\citation{shah2015stochastically,shah2015simple,rajkumar2014statistical}
\citation{Vapnik}
\newlabel{def:stoch_trans_intro}{{10.2}{163}{}{theorem.10.2.2}{}}
\newlabel{eq:copeland_intro}{{10.7}{163}{}{equation.10.2.7}{}}
\citation{KB05}
\citation{shah2015stochastically}
\newlabel{eq:ERM1_intro}{{10.8}{164}{Un Cadre Statistique pour l'Agrégation de Classements}{equation.10.2.8}{}}
\newlabel{eq:low_noise_intro}{{10.9}{164}{Un Cadre Statistique pour l'Agrégation de Classements}{equation.10.2.9}{}}
\@writefile{toc}{\contentsline {section}{\numberline {10.3}Au-del\IeC {\`a} de l'Agr\IeC {\'e}gation de Classements : la R\IeC {\'e}duction de Dimension et la R\IeC {\'e}gression de Classements}{164}{section.10.3}}
\@writefile{toc}{\contentsline {subsection}{\numberline {10.3.1}R\IeC {\'e}duction de Dimension pour les Donn\IeC {\'e}es de Classements : une Approche de Transport de Masse}{164}{subsection.10.3.1}}
\newlabel{eq:metric_intro}{{10.10}{165}{}{equation.10.3.10}{}}
\newlabel{eq:min_transp_intro}{{10.11}{165}{Réduction de Dimension pour les Données de Classements : une Approche de Transport de Masse}{equation.10.3.11}{}}
\newlabel{eq:best_bucket_intro}{{10.12}{166}{Réduction de Dimension pour les Données de Classements : une Approche de Transport de Masse}{equation.10.3.12}{}}
\newlabel{eq:opt_bucket_intro}{{10.14}{166}{}{equation.10.3.14}{}}
\citation{DSM03,HFCB08,zhou2014taxonomy}
\newlabel{eq:emp_distortion_intro}{{10.15}{167}{Réduction de Dimension pour les Données de Classements : une Approche de Transport de Masse}{equation.10.3.15}{}}
\@writefile{toc}{\contentsline {subsection}{\numberline {10.3.2}R\IeC {\'e}gression M\IeC {\'e}diane de Classements: Apprendre \IeC {\`a} Classer \IeC {\`a} travers des Consensus Locaux}{167}{subsection.10.3.2}}
\newlabel{eq:reg_risk_intro}{{10.16}{168}{Régression Médiane de Classements: Apprendre à Classer à travers des Consensus Locaux}{equation.10.3.16}{}}
\newlabel{eq:lipschitz_intro}{{10.17}{168}{Régression Médiane de Classements: Apprendre à Classer à travers des Consensus Locaux}{equation.10.3.17}{}}
\newlabel{eq:piecewise_cst}{{10.18}{168}{Régression Médiane de Classements: Apprendre à Classer à travers des Consensus Locaux}{equation.10.3.18}{}}
\newlabel{thm:approx}{{10.7}{168}{}{theorem.10.3.7}{}}
\newlabel{eq:RMR_bound}{{10.19}{168}{}{equation.10.3.19}{}}
\citation{DGL96}
\citation{cortes2005,kadri_icml2013,brouard2016input}
\citation{ciliberto2016consistent,osokin2017}
\citation{steinwart-book}
\citation{ciliberto2016consistent}
\newlabel{eq:ERM}{{10.20}{169}{Régression Médiane de Classements: Apprendre à Classer à travers des Consensus Locaux}{equation.10.3.20}{}}
\@writefile{toc}{\contentsline {subsection}{\numberline {10.3.3}Une Approche de Pr\IeC {\'e}diction Structur\IeC {\'e}e pour la R\IeC {\'e}gression de Classements}{169}{subsection.10.3.3}}
\newlabel{loss_embedding}{{10.21}{169}{Une Approche de Prédiction Structurée pour la Régression de Classements}{equation.10.3.21}{}}
\newlabel{eq:substitut_pb_intro}{{10.22}{170}{Une Approche de Prédiction Structurée pour la Régression de Classements}{equation.10.3.22}{}}
\newlabel{eq:pre-image_intro}{{10.24}{170}{Une Approche de Prédiction Structurée pour la Régression de Classements}{equation.10.3.24}{}}
\newlabel{eq:emp_surrogate_pb_intro}{{10.25}{170}{Une Approche de Prédiction Structurée pour la Régression de Classements}{equation.10.3.25}{}}
\newlabel{eq:emp_inverse_image_intro}{{10.26}{170}{Une Approche de Prédiction Structurée pour la Régression de Classements}{equation.10.3.26}{}}
\citation{ciliberto2016consistent}
\newlabel{eq:decoding_function_intro}{{10.27}{171}{Une Approche de Prédiction Structurée pour la Régression de Classements}{equation.10.3.27}{}}
\@writefile{toc}{\contentsline {section}{\numberline {10.4}Conclusion}{171}{section.10.4}}
\@writefile{toc}{\contentsline {section}{\numberline {10.5}Plan de la Th\IeC {\`e}se}{171}{section.10.5}}
\bibstyle{ecs}
\bibdata{biblio_thesis_anna}
\bibcite{agarwal2017learning}{{1}{2017}{{Agarwal et~al.}}{{Agarwal, Agarwal, Assadi, and Khanna}}}
\bibcite{agarwal2018accelerated}{{2}{2018}{{Agarwal et~al.}}{{Agarwal, Patil, and Agarwal}}}
\bibcite{agarwal2016ranking}{{3}{2016}{{Agarwal}}{{}}}
\bibcite{aiguzhinov2010similarity}{{4}{2010}{{Aiguzhinov et~al.}}{{Aiguzhinov, Soares, and Serra}}}
\bibcite{ailon2010aggregation}{{5}{2010}{{Ailon}}{{}}}
\bibcite{ailon2012active}{{6}{2012}{{Ailon}}{{}}}
\bibcite{ailon2014improved}{{7}{2014}{{Ailon}}{{}}}
\bibcite{ailon2008aggregating}{{8}{2008}{{Ailon et~al.}}{{Ailon, Charikar, and Newman}}}
\bibcite{ailon2016bandit}{{9}{2014}{{Ailon et~al.}}{{Ailon, Hatano, and Takimoto}}}
\bibcite{AKB11}{{10}{2011}{{Akritidis et~al.}}{{Akritidis, Katsaros, and Bozanis}}}
\bibcite{aledo2017tackling}{{11}{2017{a}}{{Aledo et~al.}}{{Aledo, G{\'a}mez, and Molina}}}
\bibcite{aledo2017utopia}{{12}{2017{b}}{{Aledo et~al.}}{{Aledo, G{\'a}mez, and Rosete}}}
\bibcite{aledo2018approaching}{{13}{2018}{{Aledo et~al.}}{{Aledo, G{\'a}mez, and Rosete}}}
\bibcite{Ali2012Experiments}{{14}{2012}{{Ali \& Meila}}{{Ali and Meila}}}
\bibcite{alon2006ranking}{{15}{2006}{{Alon}}{{}}}
\@writefile{toc}{\contentsline {chapter}{Bibliography}{173}{dummy.4}}
\bibcite{AY14}{{16}{2014}{{Alvo \& Yu}}{{Alvo and Yu}}}
\bibcite{alwin1985measurement}{{17}{1985}{{Alwin \& Krosnick}}{{Alwin and Krosnick}}}
\bibcite{Arrow}{{18}{1950}{{Arrow}}{{}}}
\bibcite{Arrow51}{{19}{1951}{{Arrow}}{{}}}
\bibcite{AM01}{{20}{2001}{{Aslam \& Montague}}{{Aslam and Montague}}}
\bibcite{audibert2007fast}{{21}{2007}{{Audibert \& Tsybakov}}{{Audibert and Tsybakov}}}
\bibcite{azari2012random}{{22}{2012}{{Azari et~al.}}{{Azari, Parks, and Xia}}}
\bibcite{baggerly1995visual}{{23}{1995}{{Baggerly}}{{}}}
\bibcite{Barthelemy81}{{24}{1981}{{Barthelemy \& Monjardet}}{{Barthelemy and Monjardet}}}
\bibcite{BTT89}{{25}{1989}{{Bartholdi et~al.}}{{Bartholdi, Tovey, and Trick}}}
\bibcite{bashir2013document}{{26}{2013}{{Bashir et~al.}}{{Bashir, Anderton, Wu, Golbus, Pavlu, and Aslam}}}
\bibcite{bell2007lessons}{{27}{2007}{{Bell \& Koren}}{{Bell and Koren}}}
\bibcite{BHS14}{{28}{2013}{{{Bellet} et~al.}}{{{Bellet}, {Habrard}, and {Sebban}}}}
\bibcite{BFGNR09}{{29}{2009}{{Betzler et~al.}}{{Betzler, Fellows, Guo, Niedermeier, and Rosamond}}}
\bibcite{BFGNR08}{{30}{2008}{{Betzler et~al.}}{{Betzler, Fellows, Guo, Niedermeier, and Rosamond}}}
\bibcite{bhowmik2017letor}{{31}{2017}{{Bhowmik \& Ghosh}}{{Bhowmik and Ghosh}}}
\bibcite{Binev}{{32}{2005}{{Binev et~al.}}{{Binev, Cohen, Dahmen, DeVore, and Temlyakov}}}
\bibcite{BCHV11}{{33}{2011}{{Blin et~al.}}{{Blin, Crochemore, Hamel, and Vialette}}}
\bibcite{Borda}{{34}{1781}{{Borda}}{{}}}
\bibcite{BB08nips}{{35}{2008}{{Bottou \& Bousquet}}{{Bottou and Bousquet}}}
\bibcite{boucheron2005theory}{{36}{2005}{{Boucheron et~al.}}{{Boucheron, Bousquet, and Lugosi}}}
\bibcite{bradley1952rank}{{37}{1952}{{Bradley \& Terry}}{{Bradley and Terry}}}
\bibcite{Brancotte2015Rank}{{38}{2015}{{Brancotte et~al.}}{{Brancotte, Yang, Blin, Cohen-Boulakia, Denise, and Hamel}}}
\bibcite{BBHH15}{{39}{2015}{{Brandt et~al.}}{{Brandt, Brill, Hemaspaandra, and Hemaspaandra}}}
\bibcite{braverman2008noisy}{{40}{2008}{{Braverman \& Mossel}}{{Braverman and Mossel}}}
\bibcite{braverman2009sorting}{{41}{2009}{{Braverman \& Mossel}}{{Braverman and Mossel}}}
\bibcite{brazdil2003ranking}{{42}{2003}{{Brazdil et~al.}}{{Brazdil, Soares, and Da~Costa}}}
\bibcite{Br96}{{43}{1996}{{Breiman}}{{}}}
\bibcite{Br01}{{44}{2001}{{Breiman}}{{}}}
\bibcite{cart84}{{45}{1984}{{Breiman et~al.}}{{Breiman, Friedman, Olshen, and Stone}}}
\bibcite{BAAH04}{{46}{2004}{{Breitling et~al.}}{{Breitling, Armengaud, Amtmann, and Herzyk}}}
\bibcite{brin1998anatomy}{{47}{1998}{{Brin \& Page}}{{Brin and Page}}}
\bibcite{brouard2016input}{{48}{2016}{{Brouard et~al.}}{{Brouard, Szafranski, and d'Alch{\'e} Buc}}}
\bibcite{busa2018preference}{{49}{2018}{{Busa-Fekete et~al.}}{{Busa-Fekete, H{\"u}llermeier, and Mesaoudi-Paul}}}
\bibcite{BFHS14}{{50}{2014}{{Busa-Fekete et~al.}}{{Busa-Fekete, H{\"u}llermeier, and Sz{\"o}r{\'e}nyi}}}
\bibcite{calauzenes2012non}{{51}{2012}{{Calauzenes et~al.}}{{Calauzenes, Usunier, and Gallinari}}}
\bibcite{cao2007learning}{{52}{2007}{{Cao et~al.}}{{Cao, Qin, Liu, Tsai, and Li}}}
\bibcite{caponnetto2007optimal}{{53}{2007}{{Caponnetto \& De~Vito}}{{Caponnetto and De~Vito}}}
\bibcite{carterette2008evaluation}{{54}{2008}{{Carterette \& Bennett}}{{Carterette and Bennett}}}
\bibcite{carterette2008here}{{55}{2008}{{Carterette et~al.}}{{Carterette, Bennett, Chickering, and Dumais}}}
\bibcite{carvalho2008meta}{{56}{2008}{{Carvalho et~al.}}{{Carvalho, Elsas, Cohen, and Carbonell}}}
\bibcite{CC11}{{57}{2011}{{Chapelle \& Chang}}{{Chapelle and Chang}}}
\bibcite{chen2016modeling}{{58}{2016}{{Chen \& Joachims}}{{Chen and Joachims}}}
\bibcite{chen2013pairwise}{{59}{2013}{{Chen et~al.}}{{Chen, Bennett, Collins-Thompson, and Horvitz}}}
\bibcite{chen2015spectral}{{60}{2015}{{Chen \& Suh}}{{Chen and Suh}}}
\bibcite{cheng2009decision}{{61}{2009}{{Cheng et~al.}}{{Cheng, H{\"u}hn, and H{\"u}llermeier}}}
\bibcite{cheng2009new}{{62}{2009}{{Cheng \& H{\"u}llermeier}}{{Cheng and H{\"u}llermeier}}}
\bibcite{cheng13nearest}{{63}{2013}{{Cheng \& H{\"u}llermeier}}{{Cheng and H{\"u}llermeier}}}
\bibcite{cheng2010label}{{64}{2010}{{Cheng et~al.}}{{Cheng, H{\"u}llermeier, and Dembczynski}}}
\bibcite{chiang2012ranking}{{65}{2012}{{Chiang et~al.}}{{Chiang, Lo, and Lin}}}
\bibcite{ciliberto2016consistent}{{66}{2016}{{Ciliberto et~al.}}{{Ciliberto, Rosasco, and Rudi}}}
\bibcite{clemenccon2011clustering}{{67}{2011}{{Cl{\'e}men{\c {c}}on et~al.}}{{Cl{\'e}men{\c {c}}on, Gaudel, and Jakubowicz}}}
\bibcite{CJ10}{{68}{2010}{{Cl{\'e}men{\c {c}}on \& Jakubowicz}}{{Cl{\'e}men{\c {c}}on and Jakubowicz}}}
\bibcite{CKS17bis}{{69}{2017}{{Cl{\'e}men{\c {c}}on et~al.}}{{Cl{\'e}men{\c {c}}on, Korba, and Sibony}}}
\bibcite{CSS99}{{70}{1999}{{Cohen et~al.}}{{Cohen, Schapire, and Singer}}}
\bibcite{Condorcet}{{71}{1785}{{Condorcet}}{{}}}
\bibcite{CDK06}{{72}{2006}{{Conitzer et~al.}}{{Conitzer, Davenport, and Kalagnanam}}}
\bibcite{CRX09}{{73}{2009}{{Conitzer et~al.}}{{Conitzer, Rognlie, and Xia}}}
\bibcite{CS05}{{74}{2005}{{Conitzer \& Sandholm}}{{Conitzer and Sandholm}}}
\bibcite{conitzer2012common}{{75}{2012}{{Conitzer \& Sandholm}}{{Conitzer and Sandholm}}}
\bibcite{Copeland51}{{76}{1951}{{Copeland}}{{}}}
\bibcite{coppersmith2006ordering}{{77}{2006}{{Coppersmith et~al.}}{{Coppersmith, Fleischer, and Rudra}}}
\bibcite{CGS13}{{78}{2013}{{Cornaz et~al.}}{{Cornaz, Galand, and Spanjaard}}}
\bibcite{cortes2005}{{79}{2005}{{Cortes et~al.}}{{Cortes, Mohri, and Weston}}}
\bibcite{coulom2008whole}{{80}{2008}{{Coulom}}{{}}}
\bibcite{CFV91}{{81}{1991}{{Critchlow et~al.}}{{Critchlow, Fligner, and Verducci}}}
\bibcite{Croon89}{{82}{1989}{{Croon}}{{}}}
\bibcite{DK04}{{83}{2004}{{Davenport \& Kalagnanam}}{{Davenport and Kalagnanam}}}
\bibcite{DL05}{{84}{2005}{{Davenport \& Lovell}}{{Davenport and Lovell}}}
\bibcite{davidson1959experimental}{{85}{1959}{{Davidson \& Marschak}}{{Davidson and Marschak}}}
\bibcite{DSM03}{{86}{2004}{{Dekel et~al.}}{{Dekel, Singer, and Manning}}}
\bibcite{DHLL14}{{87}{2014}{{Deng et~al.}}{{Deng, Han, Li, and Liu}}}
\bibcite{Desarkar2016}{{88}{2016}{{Desarkar et~al.}}{{Desarkar, Sarkar, and Mitra}}}
\bibcite{DGL96}{{89}{1996}{{Devroye et~al.}}{{Devroye, Gy\"orfi, and Lugosi}}}
\bibcite{Deza}{{90}{2009}{{Deza \& Deza}}{{Deza and Deza}}}
\bibcite{Diaconis88}{{91}{1988}{{Diaconis}}{{}}}
\bibcite{Diaconis1989generalization}{{92}{1989}{{Diaconis}}{{}}}
\bibcite{DG77}{{93}{1977}{{Diaconis \& Graham}}{{Diaconis and Graham}}}
\bibcite{diss2016multi}{{94}{2016}{{Diss \& Doghmi}}{{Diss and Doghmi}}}
\bibcite{djuric2014non}{{95}{2014}{{Djuric et~al.}}{{Djuric, Grbovic, Radosavljevic, Bhamidipati, and Vucetic}}}
\bibcite{dong2017ranking}{{96}{2017}{{Dong et~al.}}{{Dong, Yang, and Shi}}}
\bibcite{dwork2001rank}{{97}{2001}{{Dwork et~al.}}{{Dwork, Kumar, Naor, and Sivakumar}}}
\bibcite{Abbasnejad2013}{{98}{2013}{{E.~Abbasnejad}}{{}}}
\bibcite{Elo78}{{99}{1978}{{Elo}}{{}}}
\bibcite{FKMSV04}{{100}{2004}{{Fagin et~al.}}{{Fagin, Kumar, Mahdian, Sivakumar, and Vee}}}
\bibcite{fagin2003comparing}{{101}{2003}{{Fagin et~al.}}{{Fagin, Kumar, and Sivakumar}}}
\bibcite{fahandar2017statistical}{{102}{2017}{{Fahandar et~al.}}{{Fahandar, H{\"u}llermeier, and Couso}}}
\bibcite{falahatgar2017maxing}{{103}{2017}{{Falahatgar et~al.}}{{Falahatgar, Hao, Orlitsky, Pichapati, and Ravindrakumar}}}
\bibcite{falahatgar2018limits}{{104}{2018}{{Falahatgar et~al.}}{{Falahatgar, Jain, Orlitsky, Pichapati, and Ravindrakumar}}}
\bibcite{farnoud2012novel}{{105}{2012{a}}{{Farnoud et~al.}}{{Farnoud, Milenkovic, and Touri}}}
\bibcite{farnoud2012rank}{{106}{2012{b}}{{Farnoud et~al.}}{{Farnoud, Skachek, and Milenkovic}}}
\bibcite{fathony2018efficient}{{107}{2018}{{Fathony et~al.}}{{Fathony, Behpour, Zhang, and Ziebart}}}
\bibcite{feng2008discovering}{{108}{2008}{{Feng et~al.}}{{Feng, Fang, and Ng}}}
\bibcite{Fishburn73}{{109}{1973}{{Fishburn}}{{}}}
\bibcite{FV86}{{110}{1986}{{Fligner \& Verducci}}{{Fligner and Verducci}}}
\bibcite{fligner1990posterior}{{111}{1990}{{Fligner \& Verducci}}{{Fligner and Verducci}}}
\bibcite{FJBA13}{{112}{2013}{{Fogel et~al.}}{{Fogel, Jenatton, Bach, and d'Aspremont}}}
\bibcite{ford1957solution}{{113}{1957}{{Ford~Jr}}{{}}}
\bibcite{FW15}{{114}{2015}{{Freund \& Williamson}}{{Freund and Williamson}}}
\bibcite{friedman}{{115}{1997}{{Friedman}}{{}}}
\bibcite{FHTbook}{{116}{2002}{{Friedman et~al.}}{{Friedman, Hastie, and Tibshirani}}}
\bibcite{furnkranz2003pairwise}{{117}{2003}{{F{\"u}rnkranz \& H{\"u}llermeier}}{{F{\"u}rnkranz and H{\"u}llermeier}}}
\bibcite{FH11}{{118}{2011}{{F{\"u}rnkranz \& H{\"u}llermeier}}{{F{\"u}rnkranz and H{\"u}llermeier}}}
\bibcite{geng2014multilabel}{{119}{2014}{{Geng \& Luo}}{{Geng and Luo}}}
\bibcite{gionis2006algorithms}{{120}{2006}{{Gionis et~al.}}{{Gionis, Mannila, Puolam{\"a}ki, and Ukkonen}}}
\bibcite{glickman1995glicko}{{121}{1995}{{Glickman}}{{}}}
\bibcite{glickman1999parameter}{{122}{1999}{{Glickman}}{{}}}
\bibcite{gomes2011crowdclustering}{{123}{2011}{{Gomes et~al.}}{{Gomes, Welinder, Krause, and Perona}}}
\bibcite{GM08}{{124}{2008}{{Gormley \& Murphy}}{{Gormley and Murphy}}}
\bibcite{GS09}{{125}{2009}{{Guiver \& Snelson}}{{Guiver and Snelson}}}
\bibcite{gunasekar2016preference}{{126}{2016}{{Gunasekar et~al.}}{{Gunasekar, Koyejo, and Ghosh}}}
\bibcite{gurrieri2012label}{{127}{2012}{{Gurrieri et~al.}}{{Gurrieri, Siebert, Fortemps, Greco, and S{\l }owi{\'n}ski}}}
\bibcite{gyorfi2006distribution}{{128}{2006}{{Gy{\"o}rfi et~al.}}{{Gy{\"o}rfi, Kohler, Krzyzak, and Walk}}}
\bibcite{HOX14}{{129}{2014}{{Hajek et~al.}}{{Hajek, Oh, and Xu}}}
\bibcite{heiser2013clustering}{{130}{2013}{{Heiser \& D\IeC {\textquoteright }Ambrosio}}{{Heiser and D\IeC {\textquoteright }Ambrosio}}}
\bibcite{HMG06}{{131}{2006}{{Herbrich et~al.}}{{Herbrich, Minka, and Graepel}}}
\bibcite{huang2009fourier}{{132}{2009}{{Huang et~al.}}{{Huang, Guestrin, and Guibas}}}
\bibcite{HFCB08}{{133}{2008}{{H{\"u}llermeier et~al.}}{{H{\"u}llermeier, F{\"u}rnkranz, Cheng, and Brinker}}}
\bibcite{Hunter04}{{134}{2004}{{Hunter}}{{}}}
\bibcite{irurozkimallows}{{135}{2017}{{Irurozki et~al.}}{{Irurozki, Calvo, and Lozano}}}
\bibcite{jamieson2011active}{{136}{2011}{{Jamieson \& Nowak}}{{Jamieson and Nowak}}}
\bibcite{JLYY11}{{137}{2011}{{Jiang et~al.}}{{Jiang, Lim, Yao, and Ye}}}
\bibcite{JKS16}{{138}{2016}{{Jiao et~al.}}{{Jiao, Korba, and Sibony}}}
\bibcite{jiao2017kendall}{{139}{2017}{{Jiao \& Vert}}{{Jiao and Vert}}}
\bibcite{Jiao2015Kendall}{{140}{2015}{{Jiao \& Vert}}{{Jiao and Vert}}}
\bibcite{joachims2005accurately}{{141}{2005}{{Joachims et~al.}}{{Joachims, Granka, Pan, Hembrooke, and Gay}}}
\bibcite{kadri_icml2013}{{142}{2013}{{Kadri et~al.}}{{Kadri, Ghavamzadeh, and Preux}}}
\bibcite{Kakarala11}{{143}{2011}{{Kakarala}}{{}}}
\bibcite{Kamishima2003Nantonac}{{144}{2003}{{Kamishima}}{{}}}
\bibcite{kamishima2010survey}{{145}{2010}{{Kamishima et~al.}}{{Kamishima, Kazawa, and Akaho}}}
\bibcite{karpinski2010faster}{{146}{2010}{{Karpinski \& Schudy}}{{Karpinski and Schudy}}}
\bibcite{katariya2018adaptive}{{147}{2018}{{Katariya et~al.}}{{Katariya, Jain, Sengupta, Evans, and Nowak}}}
\bibcite{Keener93}{{148}{1993}{{Keener}}{{}}}
\bibcite{Kemeny59}{{149}{1959}{{Kemeny}}{{}}}
\bibcite{kemeny1972mathematical}{{150}{1972}{{Kemeny}}{{}}}
\bibcite{KKP11}{{151}{2011}{{Kenkre et~al.}}{{Kenkre, Khan, and Pandit}}}
\bibcite{kenyon2007rank}{{152}{2007}{{Kenyon-Mathieu \& Schudy}}{{Kenyon-Mathieu and Schudy}}}
\bibcite{KO16}{{153}{2016}{{Khetan \& Oh}}{{Khetan and Oh}}}
\bibcite{KLC08}{{154}{2008}{{Kidwell et~al.}}{{Kidwell, Lebanon, and Cleveland}}}
\bibcite{KLAV12}{{155}{2012}{{Kolde et~al.}}{{Kolde, Laur, Adler, and Vilo}}}
\bibcite{KB05}{{156}{2005}{{Koltchinskii \& Beznosova}}{{Koltchinskii and Beznosova}}}
\bibcite{kondor2010ranking}{{157}{2010}{{Kondor \& Barbosa}}{{Kondor and Barbosa}}}
\bibcite{CKS17}{{158}{2017}{{Korba et~al.}}{{Korba, Cl\'emen\c {c}on, and Sibony}}}
\bibcite{korba2018structured}{{159}{2018}{{Korba et~al.}}{{Korba, Garcia, and Buc~d'Alch{\'e}}}}
\bibcite{kuhn1955hungarian}{{160}{1955}{{Kuhn}}{{}}}
\bibcite{kuleshov2014algorithms}{{161}{2014}{{Kuleshov \& Precup}}{{Kuleshov and Precup}}}
\bibcite{kumar2010generalized}{{162}{2010}{{Kumar \& Vassilvitskii}}{{Kumar and Vassilvitskii}}}
\bibcite{kurrild2001empirical}{{163}{2001}{{Kurrild-Klitgaard}}{{}}}
\bibcite{Lahaie2014Neutrality}{{164}{2014}{{Lahaie \& Shah}}{{Lahaie and Shah}}}
\bibcite{Lahiri93}{{165}{1993}{{Lahiri}}{{}}}
\bibcite{lai1985asymptotically}{{166}{1985}{{Lai \& Robbins}}{{Lai and Robbins}}}
\bibcite{lam2004rank}{{167}{2004}{{Lam \& Leung}}{{Lam and Leung}}}
\bibcite{LM08}{{168}{2008}{{Lebanon \& Mao}}{{Lebanon and Mao}}}
\bibcite{lee2011model}{{169}{2011}{{Lee et~al.}}{{Lee, Steyvers, DeYoung, and Miller}}}
\bibcite{LY12}{{170}{2012}{{Lee \& Yu}}{{Lee and Yu}}}
\bibcite{levin1995introduction}{{171}{1995}{{Levin \& Nalebuff}}{{Levin and Nalebuff}}}
\bibcite{Li2014}{{172}{2014}{{Li}}{{}}}
\bibcite{li2017efficient}{{173}{2017}{{Li et~al.}}{{Li, Mazumdar, and Milenkovic}}}
\bibcite{linderman2017reparameterizing}{{174}{2017}{{Linderman et~al.}}{{Linderman, Mena, Cooper, Paninski, and Cunningham}}}
\bibcite{Liu09}{{175}{2009}{{Liu}}{{}}}
\bibcite{liu2007supervised}{{176}{2007}{{Liu et~al.}}{{Liu, Liu, Qin, Ma, and Li}}}
\bibcite{lomeli2018antithetic}{{177}{2018}{{Lomeli et~al.}}{{Lomeli, Rowland, Gretton, and Ghahramani}}}
\bibcite{LB11a}{{178}{2011}{{Lu \& Boutilier}}{{Lu and Boutilier}}}
\bibcite{LB14a}{{179}{2014}{{Lu \& Boutilier}}{{Lu and Boutilier}}}
\bibcite{lu2015individualized}{{180}{2015}{{Lu \& Negahban}}{{Lu and Negahban}}}
\bibcite{Luce59}{{181}{1959}{{Luce}}{{}}}
\bibcite{LN96}{{182}{1996}{{Lugosi \& Nobel}}{{Lugosi and Nobel}}}
\bibcite{lundell2007second}{{183}{2007}{{Lundell}}{{}}}
\bibcite{Mallows57}{{184}{1957}{{Mallows}}{{}}}
\bibcite{mania2016kernel}{{185}{2016{a}}{{Mania et~al.}}{{Mania, Ramdas, Wainwright, Jordan, and Recht}}}
\bibcite{maniao2016universality}{{186}{2016{b}}{{Mania et~al.}}{{Mania, Ramdas, Wainwright, Jordan, and Recht}}}
\bibcite{Marden96}{{187}{1996}{{Marden}}{{}}}
\bibcite{marevs2007linear}{{188}{2007}{{Mare{\v {s}} \& Straka}}{{Mare{\v {s}} and Straka}}}
\bibcite{MasNed06}{{189}{2006}{{Massart \& N\'ed\'elec}}{{Massart and N\'ed\'elec}}}
\bibcite{Mattei2012empirical}{{190}{2012}{{Mattei et~al.}}{{Mattei, Forshee, and Goldsmith}}}
\bibcite{MG15b}{{191}{2015}{{Maystre \& Grossglauser}}{{Maystre and Grossglauser}}}
\bibcite{maystre2015just}{{192}{2017}{{Maystre \& Grossglauser}}{{Maystre and Grossglauser}}}
\bibcite{McFadden74}{{193}{1974}{{McFadden}}{{}}}
\bibcite{MB10}{{194}{2010}{{Meila \& Bao}}{{Meila and Bao}}}
\bibcite{MC10}{{195}{2010}{{Meila \& Chen}}{{Meila and Chen}}}
\bibcite{MPPB07}{{196}{2007}{{Meila et~al.}}{{Meila, Phadnis, Patterson, and Bilmes}}}
\bibcite{merlin1997copeland}{{197}{1997}{{Merlin \& Saari}}{{Merlin and Saari}}}
\bibcite{micchelli2005learning}{{198}{2005}{{Micchelli \& Pontil}}{{Micchelli and Pontil}}}
\bibcite{mohajer2017active}{{199}{2017}{{Mohajer et~al.}}{{Mohajer, Suh, and Elmahdy}}}
\bibcite{MM03}{{200}{2003}{{Murphy \& Martin}}{{Murphy and Martin}}}
\bibcite{myrvold2001ranking}{{201}{2001}{{Myrvold \& Ruskey}}{{Myrvold and Ruskey}}}
\bibcite{negahban2012iterative}{{202}{2012}{{Negahban et~al.}}{{Negahban, Oh, and Shah}}}
\bibcite{negahban2016rank}{{203}{2016}{{Negahban et~al.}}{{Negahban, Oh, and Shah}}}
\bibcite{niu2012top}{{204}{2012}{{Niu et~al.}}{{Niu, Guo, Lan, and Cheng}}}
\bibcite{niu2013stochastic}{{205}{2013}{{Niu et~al.}}{{Niu, Lan, Guo, and Cheng}}}
\bibcite{niu2015noise}{{206}{2015}{{Niu et~al.}}{{Niu, Lan, Guo, Wan, and Cheng}}}
\bibcite{Nowozin-book2011}{{207}{2011}{{Nowozin \& Lampert}}{{Nowozin and Lampert}}}
\bibcite{osokin2017}{{208}{2017}{{Osokin et~al.}}{{Osokin, Bach, and Lacoste{-}Julien}}}
\bibcite{pananjady2017worst}{{209}{2017}{{Pananjady et~al.}}{{Pananjady, Mao, Muthukumar, Wainwright, and Courtade}}}
\bibcite{park2015preference}{{210}{2015}{{Park et~al.}}{{Park, Neeman, Zhang, Sanghavi, and Dhillon}}}
\bibcite{Patel13}{{211}{2013}{{Patel et~al.}}{{Patel, Telesca, Rallo, George, Xia, and Nel}}}
\bibcite{Plackett75}{{212}{1975}{{Plackett}}{{}}}
\bibcite{plis2011directional}{{213}{2011}{{Plis et~al.}}{{Plis, McCracken, Lane, and Calhoun}}}
\bibcite{Popova2012robust}{{214}{2012}{{Popova}}{{}}}
\bibcite{PPR15}{{215}{2015}{{Prasad et~al.}}{{Prasad, Pareek, and Ravikumar}}}
\bibcite{PRS12}{{216}{2012}{{Procaccia et~al.}}{{Procaccia, Reddi, and Shah}}}
\bibcite{qian2015learning}{{217}{2015}{{Qian et~al.}}{{Qian, Gao, and Jagadish}}}
\bibcite{qin2010new}{{218}{2010}{{Qin et~al.}}{{Qin, Geng, and Liu}}}
\bibcite{Rachev91}{{219}{1991}{{Rachev}}{{}}}
\bibcite{radlinski2005query}{{220}{2005}{{Radlinski \& Joachims}}{{Radlinski and Joachims}}}
\bibcite{radlinski2007active}{{221}{2007}{{Radlinski \& Joachims}}{{Radlinski and Joachims}}}
\bibcite{rajkumar2014statistical}{{222}{2014}{{Rajkumar \& Agarwal}}{{Rajkumar and Agarwal}}}
\bibcite{rajkumar2016can}{{223}{2016}{{Rajkumar \& Agarwal}}{{Rajkumar and Agarwal}}}
\bibcite{rajkumar2015ranking}{{224}{2015}{{Rajkumar et~al.}}{{Rajkumar, Ghoshal, Lim, and Agarwal}}}
\bibcite{ramamohan2016dueling}{{225}{2016}{{Ramamohan et~al.}}{{Ramamohan, Rajkumar, and Agarwal}}}
\bibcite{raman2014methods}{{226}{2014}{{Raman \& Joachims}}{{Raman and Joachims}}}
\bibcite{ramaswamy2013convex}{{227}{2013}{{Ramaswamy et~al.}}{{Ramaswamy, Agarwal, and Tewari}}}
\bibcite{renda2003web}{{228}{2003}{{Renda \& Straccia}}{{Renda and Straccia}}}
\bibcite{rendle2009bpr}{{229}{2009}{{Rendle et~al.}}{{Rendle, Freudenthaler, Gantner, and Schmidt-Thieme}}}
\bibcite{Risse05}{{230}{2005}{{Risse}}{{}}}
\bibcite{de2018preference}{{231}{2018}{{S{\'a} et~al.}}{{S{\'a}, Azevedo, Soares, Jorge, and Knobbe}}}
\bibcite{sa2017label}{{232}{2017}{{S{\'a} et~al.}}{{S{\'a}, Soares, Knobbe, and Cortez}}}
\bibcite{saari2000geometric}{{233}{2000}{{Saari \& Merlin}}{{Saari and Merlin}}}
\bibcite{sahabattle}{{234}{2018}{{Saha \& Gopalan}}{{Saha and Gopalan}}}
\bibcite{Schalekamp2009Rank}{{235}{2009}{{Schalekamp \& Van~Zuylen}}{{Schalekamp and Van~Zuylen}}}
\bibcite{sculley2007rank}{{236}{2007}{{Sculley}}{{}}}
\bibcite{sese2001rank}{{237}{2001}{{Sese \& Morishita}}{{Sese and Morishita}}}
\bibcite{shah2015stochastically}{{238}{2017}{{Shah et~al.}}{{Shah, Balakrishnan, Guntuboyina, and Wainright}}}
\bibcite{shah2016feeling}{{239}{2016}{{Shah et~al.}}{{Shah, Balakrishnan, and Wainwright}}}
\bibcite{shah2013case}{{240}{2013}{{Shah et~al.}}{{Shah, Bradley, Parekh, Wainwright, and Ramchandran}}}
\bibcite{shah2015estimation}{{241}{2015}{{Shah et~al.}}{{Shah, Parekh, Balakrishnan, Ramchandran, Bradley, and Wainwright}}}
\bibcite{shah2015simple}{{242}{2017}{{Shah \& Wainwright}}{{Shah and Wainwright}}}
\bibcite{Sibony2014Borda}{{243}{2014}{{Sibony}}{{}}}
\bibcite{sibony2014multiresolution}{{244}{2014}{{Sibony et~al.}}{{Sibony, Clemencon, and Jakubowicz}}}
\bibcite{sibony2015mra}{{245}{2015}{{Sibony et~al.}}{{Sibony, Clemen{\c {c}}on, and Jakubowicz}}}
\bibcite{SCPX13}{{246}{2013}{{Soufiani et~al.}}{{Soufiani, Chen, Parkes, and Xia}}}
\bibcite{SPX14b}{{247}{2014{a}}{{Soufiani et~al.}}{{Soufiani, Parkes, and Xia}}}
\bibcite{soufiani2014statistical}{{248}{2014{b}}{{Soufiani et~al.}}{{Soufiani, Parkes, and Xia}}}
\bibcite{Stanley86}{{249}{1986}{{Stanley}}{{}}}
\bibcite{steinwart-book}{{250}{2008}{{Steinwart \& Christmann}}{{Steinwart and Christmann}}}
\bibcite{su2009survey}{{251}{2009}{{Su \& Khoshgoftaar}}{{Su and Khoshgoftaar}}}
\bibcite{sui2017multi}{{252}{2017}{{Sui et~al.}}{{Sui, Zhuang, Burdick, and Yue}}}
\bibcite{sui2018advancements}{{253}{2018}{{Sui et~al.}}{{Sui, Zoghi, Hofmann, and Yue}}}
\bibcite{sun2012estimating}{{254}{2012}{{Sun et~al.}}{{Sun, Lebanon, and Kidwell}}}
\bibcite{szorenyi2015online}{{255}{2015}{{Sz{\"o}r{\'e}nyi et~al.}}{{Sz{\"o}r{\'e}nyi, Busa-Fekete, Paul, and H{\"u}llermeier}}}
\bibcite{thompson1993generalized}{{256}{1993}{{Thompson}}{{}}}
\bibcite{Thurstone27}{{257}{1927}{{Thurstone}}{{}}}
\bibcite{truchon1998extension}{{258}{1998}{{Truchon}}{{}}}
\bibcite{Truchon08}{{259}{2008}{{Truchon}}{{}}}
\bibcite{tsoumakas2009mining}{{260}{2009}{{Tsoumakas et~al.}}{{Tsoumakas, Katakis, and Vlahavas}}}
\bibcite{Tsy04}{{261}{2004}{{Tsybakov}}{{}}}
\bibcite{tsybakov2009introduction}{{262}{2009}{{Tsybakov}}{{}}}
\bibcite{Tversky72}{{263}{1972}{{Tversky}}{{}}}
\bibcite{ukkonen2011clustering}{{264}{2011}{{Ukkonen}}{{}}}
\bibcite{ukkonen2009randomized}{{265}{2009}{{Ukkonen et~al.}}{{Ukkonen, Puolam{\"a}ki, Gionis, and Mannila}}}
\bibcite{vanweak}{{266}{1996}{{Van Der~Vaart \& Wellner}}{{Van Der~Vaart and Wellner}}}
\bibcite{VW07}{{267}{2007}{{Van~Zuylen \& Williamson}}{{Van~Zuylen and Williamson}}}
\bibcite{Vapnik}{{268}{2000}{{Vapnik}}{{}}}
\bibcite{vembu2010label}{{269}{2010}{{Vembu \& G{\"a}rtner}}{{Vembu and G{\"a}rtner}}}
\bibcite{Wang2013rate}{{270}{2013}{{Wang et~al.}}{{Wang, Mazumdar, and Wornell}}}
\bibcite{wang2015compression}{{271}{2015}{{Wang et~al.}}{{Wang, Mazumdar, and Wornell}}}
\bibcite{wang2011ranking}{{272}{2011}{{Wang et~al.}}{{Wang, Wu, Hu, Yang, and Li}}}
\bibcite{WJJ13}{{273}{2013}{{Wauthier et~al.}}{{Wauthier, Jordan, and Jojic}}}
\bibcite{wu2017large}{{274}{2017}{{Wu et~al.}}{{Wu, Hsieh, and Sharpnack}}}
\bibcite{wu2016listwise}{{275}{2016}{{Wu et~al.}}{{Wu, You, Mao, Xia, Yuan, and Hu}}}
\bibcite{XLWZL08}{{276}{2008}{{Xia et~al.}}{{Xia, Liu, Wang, Zhang, and Li}}}
\bibcite{Xia2015Generalized}{{277}{2015}{{Xia}}{{}}}
\bibcite{xia2011maximum}{{278}{2011}{{Xia \& Conitzer}}{{Xia and Conitzer}}}
\bibcite{yasutake2011online}{{279}{2011}{{Yasutake et~al.}}{{Yasutake, Hatano, Kijima, Takimoto, and Takeda}}}
\bibcite{yellott1977relationship}{{280}{1977}{{Yellott}}{{}}}
\bibcite{YJJJ13}{{281}{2013}{{Yi et~al.}}{{Yi, Jin, Jain, and Jain}}}
\bibcite{young1988condorcet}{{282}{1988}{{Young}}{{}}}
\bibcite{young1978consistent}{{283}{1978}{{Young \& Levenglick}}{{Young and Levenglick}}}
\bibcite{YLA02}{{284}{2002}{{Yu et~al.}}{{Yu, Lam, and Alvo}}}
\bibcite{YWL10}{{285}{2010}{{Yu et~al.}}{{Yu, Wan, and Lee}}}
\bibcite{yue2012k}{{286}{2012}{{Yue et~al.}}{{Yue, Broder, Kleinberg, and Joachims}}}
\bibcite{ZSM14}{{287}{2014}{{Zamani et~al.}}{{Zamani, Shakery, and Moradi}}}
\bibcite{zhang2007ml}{{288}{2007}{{Zhang \& Zhou}}{{Zhang and Zhou}}}
\bibcite{zhao2016learning}{{289}{2016}{{Zhao et~al.}}{{Zhao, Piech, and Xia}}}
\bibcite{zhou2014taxonomy}{{290}{2014}{{Zhou et~al.}}{{Zhou, Liu, Yang, He, and Liu}}}
\bibcite{zhou2016random}{{291}{2016}{{Zhou \& Qiu}}{{Zhou and Qiu}}}
\bibcite{Zwicker2008Consistency}{{292}{2008}{{Zwicker}}{{}}}
