\begin{thebibliography}{292}
\expandafter\ifx\csname natexlab\endcsname\relax\def\natexlab#1{#1}\fi
\expandafter\ifx\csname url\endcsname\relax
  \def\url#1{{\tt #1}}\fi

\bibitem[Agarwal et~al.(2017)Agarwal, Agarwal, Assadi, and
  Khanna]{agarwal2017learning}
A.~Agarwal, S.~Agarwal, S.~Assadi, and S.~Khanna.
\newblock Learning with limited rounds of adaptivity: Coin tossing, multi-armed
  bandits, and ranking from pairwise comparisons.
\newblock In {\em The 30th Conference on Learning Theory (COLT)}, pages 39--75,
  2017.

\bibitem[Agarwal et~al.(2018)Agarwal, Patil, and
  Agarwal]{agarwal2018accelerated}
A.~Agarwal, P.~Patil, and S.~Agarwal.
\newblock Accelerated spectral ranking.
\newblock In {\em Proceedings of the 35th International Conference on Machine
  Learning (ICML)}, pages 70--79, 2018.

\bibitem[Agarwal(2016)]{agarwal2016ranking}
S.~Agarwal.
\newblock On ranking and choice models.
\newblock In {\em Proceedings of the 25th International Joint Conference on
  Artificial Intelligence (IJCAI)}, pages 4050--4053, 2016.

\bibitem[Aiguzhinov et~al.(2010)Aiguzhinov, Soares, and
  Serra]{aiguzhinov2010similarity}
A.~Aiguzhinov, C.~Soares, and A.~P. Serra.
\newblock A similarity-based adaptation of naive bayes for label ranking:
  Application to the metalearning problem of algorithm recommendation.
\newblock In {\em International Conference on Discovery Science}, pages 16--26.
  Springer, 2010.

\bibitem[Ailon(2010)]{ailon2010aggregation}
N.~Ailon.
\newblock Aggregation of partial rankings, p-ratings and top-m lists.
\newblock {\em Algorithmica}, 57\penalty0 (2):\penalty0 284--300, 2010.

\bibitem[Ailon(2012)]{ailon2012active}
N.~Ailon.
\newblock An active learning algorithm for ranking from pairwise preferences
  with an almost optimal query complexity.
\newblock {\em Journal of Machine Learning Research}, 13\penalty0
  (Jan):\penalty0 137--164, 2012.

\bibitem[Ailon(2014)]{ailon2014improved}
N.~Ailon.
\newblock Improved bounds for online learning over the permutahedron and other
  ranking polytopes.
\newblock In {\em Proceedings of the Seventeenth International Conference on
  Artificial Intelligence and Statistics (AISTATS)}, pages 29--37, 2014.

\bibitem[Ailon et~al.(2008)Ailon, Charikar, and Newman]{ailon2008aggregating}
N.~Ailon, M.~Charikar, and A.~Newman.
\newblock Aggregating inconsistent information: Ranking and clustering.
\newblock {\em Journal of the ACM (JACM)}, 55\penalty0 (5):\penalty0
  23:1--23:27, 2008.

\bibitem[Ailon et~al.(2014)Ailon, Hatano, and Takimoto]{ailon2016bandit}
N.~Ailon, K.~Hatano, and E.~Takimoto.
\newblock Bandit online optimization over the permutahedron.
\newblock In {\em International Conference on Algorithmic Learning Theory
  (ALT)}, pages 215--229. Springer, 2014.

\bibitem[Akritidis et~al.(2011)Akritidis, Katsaros, and Bozanis]{AKB11}
L.~Akritidis, D.~Katsaros, and P.~Bozanis.
\newblock Effective rank aggregation for metasearching.
\newblock {\em Journal of Systems and Software}, 84\penalty0 (1):\penalty0
  130--143, 2011.

\bibitem[Aledo et~al.(2017{\natexlab{a}})Aledo, G{\'a}mez, and
  Molina]{aledo2017tackling}
J.~A Aledo, J.~A. G{\'a}mez, and D.~Molina.
\newblock Tackling the supervised label ranking problem by bagging weak
  learners.
\newblock {\em Information Fusion}, 35:\penalty0 38--50, 2017{\natexlab{a}}.

\bibitem[Aledo et~al.(2017{\natexlab{b}})Aledo, G{\'a}mez, and
  Rosete]{aledo2017utopia}
J.A. Aledo, J.A. G{\'a}mez, and A.~Rosete.
\newblock Utopia in the solution of the bucket order problem.
\newblock {\em Decision Support Systems}, 97:\penalty0 69--80,
  2017{\natexlab{b}}.

\bibitem[Aledo et~al.(2018)Aledo, G{\'a}mez, and Rosete]{aledo2018approaching}
J.A. Aledo, J.A. G{\'a}mez, and A.~Rosete.
\newblock Approaching rank aggregation problems by using evolution strategies:
  the case of the optimal bucket order problem.
\newblock {\em European Journal of Operational Research}, 2018.

\bibitem[Ali \& Meila(2012)Ali and Meila]{Ali2012Experiments}
A.~Ali and M.~Meila.
\newblock Experiments with kemeny ranking: What works when?
\newblock {\em Mathematical Social Sciences}, 64\penalty0 (1):\penalty0 28--40,
  2012.

\bibitem[Alon(2006)]{alon2006ranking}
N.~Alon.
\newblock Ranking tournaments.
\newblock {\em SIAM Journal on Discrete Mathematics}, 20\penalty0 (1):\penalty0
  137--142, 2006.

\bibitem[Alvo \& Yu(2014)Alvo and Yu]{AY14}
M.~Alvo and P.~L.~H. Yu.
\newblock {\em Statistical Methods for Ranking Data}.
\newblock Springer, 2014.

\bibitem[Alwin \& Krosnick(1985)Alwin and Krosnick]{alwin1985measurement}
D.~F. Alwin and J.~A. Krosnick.
\newblock The measurement of values in surveys: A comparison of ratings and
  rankings.
\newblock {\em Public Opinion Quarterly}, 49\penalty0 (4):\penalty0 535--552,
  1985.

\bibitem[Arrow(1950)]{Arrow}
K.~J. Arrow.
\newblock A difficulty in the concept of social welfare.
\newblock {\em The Journal of Political Economy}, pages 328--346, 1950.

\bibitem[Arrow(1951)]{Arrow51}
K.~J. Arrow.
\newblock Social choice and individual values.
\newblock 1951.

\bibitem[Aslam \& Montague(2001)Aslam and Montague]{AM01}
J.~A. Aslam and M.~Montague.
\newblock Models for metasearch.
\newblock In {\em Proceedings of the 24th annual international ACM SIGIR
  conference on Research and development in information retrieval}, pages
  276--284. ACM, 2001.

\bibitem[Audibert \& Tsybakov(2007)Audibert and Tsybakov]{audibert2007fast}
J.~Y. Audibert and A.~Tsybakov.
\newblock Fast learning rates for plug-in classifiers.
\newblock {\em Annals of statistics}, 35\penalty0 (2):\penalty0 608--633, 2007.

\bibitem[Azari et~al.(2012)Azari, Parks, and Xia]{azari2012random}
H.~Azari, D.~Parks, and L.~Xia.
\newblock Random utility theory for social choice.
\newblock In {\em Advances in Neural Information Processing Systems (NIPS)},
  pages 126--134, 2012.

\bibitem[Baggerly(1995)]{baggerly1995visual}
K.~A. Baggerly.
\newblock {\em Visual estimation of structure in ranked data}.
\newblock PhD thesis, Rice University, 1995.

\bibitem[Barthelemy \& Monjardet(1981)Barthelemy and Monjardet]{Barthelemy81}
J.~P. Barthelemy and B.~Monjardet.
\newblock The median procedure in cluster analysis and social choice theory.
\newblock {\em Mathematical Social Sciences}, 1:\penalty0 235--267, 1981.

\bibitem[Bartholdi et~al.(1989)Bartholdi, Tovey, and Trick]{BTT89}
J.~J. Bartholdi, C.~A. Tovey, and M.~A. Trick.
\newblock The computational difficulty of manipulating an election.
\newblock {\em Social Choice and Welfare}, 6:\penalty0 227--241, 1989.

\bibitem[Bashir et~al.(2013)Bashir, Anderton, Wu, Golbus, Pavlu, and
  Aslam]{bashir2013document}
M.~Bashir, J.~Anderton, J.~Wu, P.~B. Golbus, V.~Pavlu, and J.~A. Aslam.
\newblock A document rating system for preference judgements.
\newblock In {\em Proceedings of the 36th international ACM SIGIR conference on
  Research and development in information retrieval}, pages 909--912. ACM,
  2013.

\bibitem[Bell \& Koren(2007)Bell and Koren]{bell2007lessons}
R.~M. Bell and Y.~Koren.
\newblock Lessons from the netflix prize challenge.
\newblock {\em Acm Sigkdd Explorations Newsletter}, 9\penalty0 (2):\penalty0
  75--79, 2007.

\bibitem[{Bellet} et~al.(2013){Bellet}, {Habrard}, and {Sebban}]{BHS14}
A.~{Bellet}, A.~{Habrard}, and M.~{Sebban}.
\newblock {A Survey on Metric Learning for Feature Vectors and Structured
  Data}.
\newblock {\em ArXiv e-prints}, June 2013.

\bibitem[Betzler et~al.(2009)Betzler, Fellows, Guo, Niedermeier, and
  Rosamond]{BFGNR09}
N.~Betzler, M.~R. Fellows, J.~Guo, R.~Niedermeier, and F.~A. Rosamond.
\newblock How similarity helps to efficiently compute kemeny rankings.
\newblock In {\em Proceedings of The 8th International Conference on Autonomous
  Agents and Multiagent Systems-Volume 1}, pages 657--664. International
  Foundation for Autonomous Agents and Multiagent Systems, 2009.

\bibitem[Betzler et~al.(2008)Betzler, Fellows, Guo, Niedermeier, and
  Rosamond]{BFGNR08}
N.~Betzler, M.R. Fellows, J.~Guo, R.~Niedermeier, and F.A. Rosamond.
\newblock Computing kemeny rankings, parameterized by the average kt-distance.
\newblock In {\em Proceedings of the 2nd International Workshop on
  Computational Social Choice}, 2008.

\bibitem[Bhowmik \& Ghosh(2017)Bhowmik and Ghosh]{bhowmik2017letor}
A.~Bhowmik and J.~Ghosh.
\newblock Letor methods for unsupervised rank aggregation.
\newblock In {\em Proceedings of the 26th International Conference on World
  Wide Web}, pages 1331--1340. International World Wide Web Conferences
  Steering Committee, 2017.

\bibitem[Binev et~al.(2005)Binev, Cohen, Dahmen, DeVore, and Temlyakov]{Binev}
P.~Binev, A.~Cohen, W.~Dahmen, R.~DeVore, and V.~Temlyakov.
\newblock Universal algorithms for learning theory part i: piecewise constant
  functions.
\newblock {\em Journal of Machine Learning Research}, pages 1297--1321, 2005.

\bibitem[Blin et~al.(2011)Blin, Crochemore, Hamel, and Vialette]{BCHV11}
G.~Blin, M.~Crochemore, S.~Hamel, and S.~Vialette.
\newblock Median of an odd number of permutations.
\newblock {\em Pure Mathematics and Applications}, 21\penalty0 (2):\penalty0
  161--175, 2011.

\bibitem[Borda(1781)]{Borda}
J.~C. Borda.
\newblock M{\'e}moire sur les {\'e}lections au scrutin.
\newblock 1781.

\bibitem[Bottou \& Bousquet(2008)Bottou and Bousquet]{BB08nips}
L.~Bottou and O.~Bousquet.
\newblock The trade-offs of large-scale learning.
\newblock In J.C. Platt, D.~Koller, Y.~Singer, and S.T. Roweis, editors, {\em
  Advances in Neural Information Processing Systems (NIPS)}, pages 161--168,
  2008.

\bibitem[Boucheron et~al.(2005)Boucheron, Bousquet, and
  Lugosi]{boucheron2005theory}
S.~Boucheron, O.~Bousquet, and G.~Lugosi.
\newblock Theory of classification: A survey of some recent advances.
\newblock {\em ESAIM: probability and statistics}, 9:\penalty0 323--375, 2005.

\bibitem[Bradley \& Terry(1952)Bradley and Terry]{bradley1952rank}
R.~A. Bradley and M.~E. Terry.
\newblock Rank analysis of incomplete block designs: I. the method of paired
  comparisons.
\newblock {\em Biometrika}, 39\penalty0 (3/4):\penalty0 324--345, 1952.

\bibitem[Brancotte et~al.(2015)Brancotte, Yang, Blin, Cohen-Boulakia, Denise,
  and Hamel]{Brancotte2015Rank}
B.~Brancotte, B.~Yang, G.~Blin, S.~Cohen-Boulakia, A.~Denise, and S.~Hamel.
\newblock Rank aggregation with ties: Experiments and analysis.
\newblock {\em Proceedings of the VLDB Endowment}, 8\penalty0 (11):\penalty0
  1202--1213, 2015.

\bibitem[Brandt et~al.(2015)Brandt, Brill, Hemaspaandra, and
  Hemaspaandra]{BBHH15}
F.~Brandt, M.~Brill, E.~Hemaspaandra, and L.~A. Hemaspaandra.
\newblock Bypassing combinatorial protections: Polynomial-time algorithms for
  single-peaked electorates.
\newblock {\em Journal of Artificial Intelligence Research}, pages 439--496,
  2015.

\bibitem[Braverman \& Mossel(2008)Braverman and Mossel]{braverman2008noisy}
M.~Braverman and E.~Mossel.
\newblock Noisy sorting without resampling.
\newblock In {\em Proceedings of the Nineteenth Annual ACM-SIAM Symposium on
  Discrete Algorithms}, SODA '08, pages 268--276, 2008.

\bibitem[Braverman \& Mossel(2009)Braverman and Mossel]{braverman2009sorting}
M.~Braverman and E.~Mossel.
\newblock Sorting from noisy information.
\newblock {\em arXiv preprint arXiv:0910.1191}, 2009.

\bibitem[Brazdil et~al.(2003)Brazdil, Soares, and Da~Costa]{brazdil2003ranking}
P.~B. Brazdil, C.~Soares, and J.~P. Da~Costa.
\newblock Ranking learning algorithms: Using ibl and meta-learning on accuracy
  and time results.
\newblock {\em Machine Learning}, 50\penalty0 (3):\penalty0 251--277, 2003.

\bibitem[Breiman(1996)]{Br96}
L.~Breiman.
\newblock Bagging predictors.
\newblock {\em Machine Learning}, 26:\penalty0 123--140, 1996.

\bibitem[Breiman(2001)]{Br01}
L.~Breiman.
\newblock Random forests.
\newblock {\em Machine Learning}, 45\penalty0 (1):\penalty0 5--32, 2001.

\bibitem[Breiman et~al.(1984)Breiman, Friedman, Olshen, and Stone]{cart84}
L.~Breiman, J.~Friedman, R.~Olshen, and C.~Stone.
\newblock {\em {Classification and Regression Trees}}.
\newblock Wadsworth and Brooks, 1984.

\bibitem[Breitling et~al.(2004)Breitling, Armengaud, Amtmann, and
  Herzyk]{BAAH04}
R.~Breitling, P.~Armengaud, A.~Amtmann, and P.~Herzyk.
\newblock Rank products: a simple, yet powerful, new method to detect
  differentially regulated genes in replicated microarray experiments.
\newblock {\em FEBS letters}, 573\penalty0 (1):\penalty0 83--92, 2004.

\bibitem[Brin \& Page(1998)Brin and Page]{brin1998anatomy}
S.~Brin and L.~Page.
\newblock The anatomy of a large-scale hypertextual web search engine.
\newblock {\em Computer networks and ISDN systems}, 30\penalty0 (1-7):\penalty0
  107--117, 1998.

\bibitem[Brouard et~al.(2016)Brouard, Szafranski, and d'Alch{\'e}
  Buc]{brouard2016input}
C.~Brouard, M.~Szafranski, and F.~d'Alch{\'e} Buc.
\newblock Input output kernel regression: supervised and semi-supervised
  structured output prediction with operator-valued kernels.
\newblock {\em Journal of Machine Learning Research}, 17\penalty0
  (176):\penalty0 1--48, 2016.

\bibitem[Busa-Fekete et~al.(2018)Busa-Fekete, H{\"u}llermeier, and
  Mesaoudi-Paul]{busa2018preference}
R.~Busa-Fekete, E.~H{\"u}llermeier, and A.~E. Mesaoudi-Paul.
\newblock Preference-based online learning with dueling bandits: A survey.
\newblock {\em arXiv preprint arXiv:1807.11398}, 2018.

\bibitem[Busa-Fekete et~al.(2014)Busa-Fekete, H{\"u}llermeier, and
  Sz{\"o}r{\'e}nyi]{BFHS14}
R.~Busa-Fekete, E.~H{\"u}llermeier, and B.~Sz{\"o}r{\'e}nyi.
\newblock Preference-based rank elicitation using statistical models: The case
  of mallows.
\newblock In {\em Proceedings of the 31st International Conference on Machine
  Learning (ICML)}, pages 1071--1079, 2014.

\bibitem[Calauzenes et~al.(2012)Calauzenes, Usunier, and
  Gallinari]{calauzenes2012non}
C.~Calauzenes, N.~Usunier, and P.~Gallinari.
\newblock On the (non-) existence of convex, calibrated surrogate losses for
  ranking.
\newblock In {\em Advances in Neural Information Processing Systems (NIPS)},
  pages 197--205, 2012.

\bibitem[Cao et~al.(2007)Cao, Qin, Liu, Tsai, and Li]{cao2007learning}
Z.~Cao, T.~Qin, T-Y. Liu, M.-F. Tsai, and H.~Li.
\newblock Learning to rank: from pairwise approach to listwise approach.
\newblock In {\em Proceedings of the 24th Annual International Conference on
  Machine learning (ICML)}, pages 129--136. ACM, 2007.

\bibitem[Caponnetto \& De~Vito(2007)Caponnetto and
  De~Vito]{caponnetto2007optimal}
A.~Caponnetto and E.~De~Vito.
\newblock Optimal rates for the regularized least-squares algorithm.
\newblock {\em Foundations of Computational Mathematics}, 7\penalty0
  (3):\penalty0 331--368, 2007.

\bibitem[Carterette \& Bennett(2008)Carterette and
  Bennett]{carterette2008evaluation}
B.~Carterette and P.~N. Bennett.
\newblock Evaluation measures for preference judgments.
\newblock In {\em Proceedings of the 31st annual international ACM SIGIR
  conference on Research and development in information retrieval}, pages
  685--686. ACM, 2008.

\bibitem[Carterette et~al.(2008)Carterette, Bennett, Chickering, and
  Dumais]{carterette2008here}
B.~Carterette, P.~N. Bennett, D.~M. Chickering, and S.~T. Dumais.
\newblock Here or there.
\newblock In {\em European Conference on Information Retrieval}, pages 16--27.
  Springer, 2008.

\bibitem[Carvalho et~al.(2008)Carvalho, Elsas, Cohen, and
  Carbonell]{carvalho2008meta}
V.~R. Carvalho, J.~L. Elsas, W.~W. Cohen, and J.~G. Carbonell.
\newblock A meta-learning approach for robust rank learning.
\newblock In {\em SIGIR 2008 workshop on learning to rank for information
  retrieval}, volume~1, 2008.

\bibitem[Chapelle \& Chang(2011)Chapelle and Chang]{CC11}
O.~Chapelle and Y.~Chang.
\newblock Yahoo! learning to rank challenge overview.
\newblock In {\em Yahoo! Learning to Rank Challenge}, pages 1--24, 2011.

\bibitem[Chen \& Joachims(2016)Chen and Joachims]{chen2016modeling}
S.~Chen and T.~Joachims.
\newblock Modeling intransitivity in matchup and comparison data.
\newblock In {\em Proceedings of the 9th ACM international conference on web
  search and data mining}, pages 227--236. ACM, 2016.

\bibitem[Chen et~al.(2013)Chen, Bennett, Collins-Thompson, and
  Horvitz]{chen2013pairwise}
X.~Chen, P.N. Bennett, K.~Collins-Thompson, and E.~Horvitz.
\newblock Pairwise ranking aggregation in a crowdsourced setting.
\newblock In {\em Proceedings of the sixth ACM international conference on Web
  search and data mining}, pages 193--202. ACM, 2013.

\bibitem[Chen \& Suh(2015)Chen and Suh]{chen2015spectral}
Y.~Chen and C.~Suh.
\newblock Spectral mle: Top-k rank aggregation from pairwise comparisons.
\newblock In {\em Proceedings of the 32nd International Conference on Machine
  Learning (ICML)}, pages 371--380, 2015.

\bibitem[Cheng et~al.(2009)Cheng, H{\"u}hn, and
  H{\"u}llermeier]{cheng2009decision}
W.~Cheng, J.~H{\"u}hn, and E.~H{\"u}llermeier.
\newblock Decision tree and instance-based learning for label ranking.
\newblock In {\em Proceedings of the 26th International Conference on Machine
  Learning (ICML)}, pages 161--168, 2009.

\bibitem[Cheng \& H{\"u}llermeier(2009)Cheng and H{\"u}llermeier]{cheng2009new}
W.~Cheng and E.~H{\"u}llermeier.
\newblock A new instance-based label ranking approach using the mallows model.
\newblock {\em Advances in Neural Networks--ISNN 2009}, pages 707--716, 2009.

\bibitem[Cheng \& H{\"u}llermeier(2013)Cheng and
  H{\"u}llermeier]{cheng13nearest}
W.~Cheng and E.~H{\"u}llermeier.
\newblock A nearest neighbor approach to label ranking based on generalized
  labelwise loss minimization, 2013.

\bibitem[Cheng et~al.(2010)Cheng, H{\"u}llermeier, and
  Dembczynski]{cheng2010label}
W.~Cheng, E.~H{\"u}llermeier, and K.~J Dembczynski.
\newblock Label ranking methods based on the plackett-luce model.
\newblock In {\em Proceedings of the 27th International Conference on Machine
  Learning (ICML)}, pages 215--222, 2010.

\bibitem[Chiang et~al.(2012)Chiang, Lo, and Lin]{chiang2012ranking}
T.~H. Chiang, H.~Y. Lo, and S.~D. Lin.
\newblock A ranking-based knn approach for multi-label classification.
\newblock In {\em Asian Conference on Machine Learning}, pages 81--96, 2012.

\bibitem[Ciliberto et~al.(2016)Ciliberto, Rosasco, and
  Rudi]{ciliberto2016consistent}
C.~Ciliberto, L.~Rosasco, and A.~Rudi.
\newblock A consistent regularization approach for structured prediction.
\newblock In {\em Advances in Neural Information Processing Systems (NIPS)},
  pages 4412--4420, 2016.

\bibitem[Cl{\'e}men{\c{c}}on et~al.(2011)Cl{\'e}men{\c{c}}on, Gaudel, and
  Jakubowicz]{clemenccon2011clustering}
S.~Cl{\'e}men{\c{c}}on, R.~Gaudel, and J.~Jakubowicz.
\newblock Clustering rankings in the fourier domain.
\newblock In {\em Machine Learning and Knowledge Discovery in Databases}, pages
  343--358. Springer, 2011.

\bibitem[Cl{\'e}men{\c{c}}on \& Jakubowicz(2010)Cl{\'e}men{\c{c}}on and
  Jakubowicz]{CJ10}
S.~Cl{\'e}men{\c{c}}on and J.~Jakubowicz.
\newblock Kantorovich distances between rankings with applications to rank
  aggregation.
\newblock In {\em Machine Learning and Knowledge Discovery in Databases}, pages
  248--263. Springer, 2010.

\bibitem[Cl{\'e}men{\c{c}}on et~al.(2017)Cl{\'e}men{\c{c}}on, Korba, and
  Sibony]{CKS17bis}
S.~Cl{\'e}men{\c{c}}on, A.~Korba, and E.~Sibony.
\newblock Ranking median regression: Learning to order through local consensus.
\newblock {\em International Conference on Algorithmic Learning Theory (ALT)},
  2017.

\bibitem[Cohen et~al.(1999)Cohen, Schapire, and Singer]{CSS99}
W.~W. Cohen, R.~E. Schapire, and Y.~Singer.
\newblock Learning to order things.
\newblock {\em Journal of Artificial Intelligence Research}, 10\penalty0
  (1):\penalty0 243--270, may 1999.

\bibitem[Condorcet(1785)]{Condorcet}
N.~Condorcet.
\newblock {\em Essai sur l'application de l'analyse {\`a} la probabilit{\'e}
  des d{\'e}cisions rendues {\`a} la pluralit{\'e} des voix}.
\newblock L'imprimerie royale, 1785.

\bibitem[Conitzer et~al.(2006)Conitzer, Davenport, and Kalagnanam]{CDK06}
V.~Conitzer, A.~Davenport, and J.~Kalagnanam.
\newblock Improved bounds for computing kemeny rankings.
\newblock In {\em Proceedings, The 21st National Conference on Artificial
  Intelligence and the 18th Innovative Applications of Artificial Intelligence
  Conference (AAAI)}, volume~6, pages 620--626, 2006.

\bibitem[Conitzer et~al.(2009)Conitzer, Rognlie, and Xia]{CRX09}
V.~Conitzer, M.~Rognlie, and L.~Xia.
\newblock Preference functions that score rankings and maximum likelihood
  estimation.
\newblock In {\em Proceedings of the 21st International Joint Conference on
  Artificial Intelligence (IJCAI)}, volume~9, pages 109--115, 2009.

\bibitem[Conitzer \& Sandholm(2005)Conitzer and Sandholm]{CS05}
V.~Conitzer and T.~Sandholm.
\newblock Common voting rules as maximum likelihood estimators.
\newblock In {\em Proceedings of the 21st Conference in Uncertainty in
  Artificial Intelligence (UAI)}, pages 145--152, Arlington, Virginia, 2005.
  AUAI Press.

\bibitem[Conitzer \& Sandholm(2012)Conitzer and Sandholm]{conitzer2012common}
V.~Conitzer and T.~Sandholm.
\newblock Common voting rules as maximum likelihood estimators.
\newblock {\em arXiv preprint arXiv:1207.1368}, 2012.

\bibitem[Copeland(1951)]{Copeland51}
A.~H. Copeland.
\newblock A reasonable social welfare function.
\newblock In {\em Seminar on applications of mathematics to social sciences,
  University of Michigan}, 1951.

\bibitem[Coppersmith et~al.(2006)Coppersmith, Fleischer, and
  Rudra]{coppersmith2006ordering}
D.~Coppersmith, L.~Fleischer, and A.~Rudra.
\newblock Ordering by weighted number of wins gives a good ranking for weighted
  tournaments.
\newblock In {\em Proceedings of the 17th Annual ACM-SIAM Symposium on Discrete
  Algorithm}, SODA '06, pages 776--782, 2006.

\bibitem[Cornaz et~al.(2013)Cornaz, Galand, and Spanjaard]{CGS13}
D.~Cornaz, L.~Galand, and O.~Spanjaard.
\newblock Kemeny elections with bounded single-peaked or single-crossing width.
\newblock In {\em Proceedings of the 23rd International Joint Conference on
  Artificial Intelligence (IJCAI)}, volume~13, pages 76--82. Citeseer, 2013.

\bibitem[Cortes et~al.(2005)Cortes, Mohri, and Weston]{cortes2005}
C.~Cortes, M.~Mohri, and J.~Weston.
\newblock A general regression technique for learning transductions.
\newblock In {\em Proceedings of the 22nd International Conference on Machine
  Learning (ICML)}, pages 153--160, 2005.

\bibitem[Coulom(2008)]{coulom2008whole}
R.~Coulom.
\newblock Whole-history rating: A bayesian rating system for players of
  time-varying strength.
\newblock In {\em International Conference on Computers and Games}, pages
  113--124. Springer, 2008.

\bibitem[Critchlow et~al.(1991)Critchlow, Fligner, and Verducci]{CFV91}
D.~E. Critchlow, M.~A. Fligner, and J.~S. Verducci.
\newblock Probability models on rankings.
\newblock {\em Journal of Mathematical Psychology}, 35\penalty0 (3):\penalty0
  294 -- 318, 1991.

\bibitem[Croon(1989)]{Croon89}
M.~A. Croon.
\newblock Latent class models for the analysis of rankings.
\newblock In Hubert~Feger Geert~de Soete and Karl~C. Klauer, editors, {\em New
  Developments in Psychological Choice Modeling}, volume~60 of {\em Advances in
  Psychology}, pages 99 -- 121. North-Holland, 1989.

\bibitem[Davenport \& Kalagnanam(2004)Davenport and Kalagnanam]{DK04}
A.~Davenport and J.~Kalagnanam.
\newblock A computational study of the kemeny rule for preference aggregation.
\newblock In {\em AAAI}, volume~4, pages 697--702, 2004.

\bibitem[Davenport \& Lovell(2005)Davenport and Lovell]{DL05}
A.~Davenport and D.~Lovell.
\newblock Ranking pilots in aerobatic flight competitions.
\newblock Technical report, IBM Research Report RC23631 (W0506-079), TJ Watson
  Research Center, NY, 2005.

\bibitem[Davidson \& Marschak(1959)Davidson and
  Marschak]{davidson1959experimental}
D.~Davidson and J.~Marschak.
\newblock Experimental tests of a stochastic decision theory.
\newblock {\em Measurement: Definitions and theories}, 17:\penalty0 274, 1959.

\bibitem[Dekel et~al.(2004)Dekel, Singer, and Manning]{DSM03}
O.~Dekel, Y.~Singer, and C.~D. Manning.
\newblock Log-linear models for label ranking.
\newblock In {\em Advances in Neural Information Processing Systems (NIPS)},
  pages 497--504, 2004.

\bibitem[Deng et~al.(2014)Deng, Han, Li, and Liu]{DHLL14}
K.~Deng, S.~Han, K.~J. Li, and J.~S. Liu.
\newblock Bayesian aggregation of order-based rank data.
\newblock {\em Journal of the American Statistical Association}, 109\penalty0
  (507):\penalty0 1023--1039, 2014.

\bibitem[Desarkar et~al.(2016)Desarkar, Sarkar, and Mitra]{Desarkar2016}
M.~S. Desarkar, S.~Sarkar, and P.~Mitra.
\newblock Preference relations based unsupervised rank aggregation for
  metasearch.
\newblock {\em Expert Systems with Applications}, 49:\penalty0 86--98, 2016.

\bibitem[Devroye et~al.(1996)Devroye, Gy\"orfi, and Lugosi]{DGL96}
L.~Devroye, L.~Gy\"orfi, and G.~Lugosi.
\newblock {\em A probabilistic theory of pattern recognition}.
\newblock Springer, 1996.

\bibitem[Deza \& Deza(2009)Deza and Deza]{Deza}
M.M. Deza and E.~Deza.
\newblock {\em {Encyclopedia of Distances}}.
\newblock Springer, 2009.

\bibitem[Diaconis(1988)]{Diaconis88}
P.~Diaconis.
\newblock {\em Group representations in probability and statistics}.
\newblock Institute of Mathematical Statistics Lecture Notes - Monograph
  Series. Institute of Mathematical Statistics, Hayward, CA, 1988.
\newblock ISBN 0-940600-14-5.

\bibitem[Diaconis(1989)]{Diaconis1989generalization}
P.~Diaconis.
\newblock A generalization of spectral analysis with application to ranked
  data.
\newblock {\em The Annals of Statistics}, pages 949--979, 1989.

\bibitem[Diaconis \& Graham(1977)Diaconis and Graham]{DG77}
P.~Diaconis and R.~L. Graham.
\newblock Spearman's footrule as a measure of disarray.
\newblock {\em Journal of the Royal Statistical Society. Series B
  (Methodological)}, pages 262--268, 1977.

\bibitem[Diss \& Doghmi(2016)Diss and Doghmi]{diss2016multi}
M.~Diss and A.~Doghmi.
\newblock Multi-winner scoring election methods: Condorcet consistency and
  paradoxes.
\newblock {\em Public Choice}, 169\penalty0 (1-2):\penalty0 97--116, 2016.

\bibitem[Djuric et~al.(2014)Djuric, Grbovic, Radosavljevic, Bhamidipati, and
  Vucetic]{djuric2014non}
N.~Djuric, M.~Grbovic, V.~Radosavljevic, N.~Bhamidipati, and S.~Vucetic.
\newblock Non-linear label ranking for large-scale prediction of long-term user
  interests.
\newblock In {\em AAAI}, pages 1788--1794, 2014.

\bibitem[Dong et~al.(2017)Dong, Yang, and Shi]{dong2017ranking}
J.~Dong, K.~Yang, and Y.~Shi.
\newblock Ranking from crowdsourced pairwise comparisons via smoothed matrix
  manifold optimization.
\newblock In {\em Data Mining Workshops (ICDMW), 2017 IEEE International
  Conference on}, pages 949--956. IEEE, 2017.

\bibitem[Dwork et~al.(2001)Dwork, Kumar, Naor, and Sivakumar]{dwork2001rank}
C.~Dwork, R.~Kumar, M.~Naor, and D.~Sivakumar.
\newblock Rank aggregation methods for the web.
\newblock In {\em Proceedings of the 10th International Conference on World
  Wide Web}, pages 613--622. ACM, 2001.

\bibitem[E.~Abbasnejad(2013)]{Abbasnejad2013}
E.~V. Bonilla P.~Poupart E.~Abbasnejad, S.~Sanner.
\newblock Learning community-based preferences via dirichlet process mixtures
  of gaussian processes.
\newblock In {\em Proceedings of the 23rd International Joint Conference on
  Artificial Intelligence (IJCAI)}, 2013.

\bibitem[Elo(1978)]{Elo78}
A.~E Elo.
\newblock {\em The rating of chessplayers, past and present}.
\newblock Arco Pub., 1978.

\bibitem[Fagin et~al.(2004)Fagin, Kumar, Mahdian, Sivakumar, and Vee]{FKMSV04}
R.~Fagin, R.~Kumar, M.~Mahdian, D.~Sivakumar, and E.~Vee.
\newblock Comparing and aggregating rankings with ties.
\newblock In {\em Proceedings of the 23rd ACM SIGMOD-SIGACT-SIGART symposium on
  Principles of database systems}, pages 47--58. ACM, 2004.

\bibitem[Fagin et~al.(2003)Fagin, Kumar, and Sivakumar]{fagin2003comparing}
R.~Fagin, R.~Kumar, and D.~Sivakumar.
\newblock Comparing top k lists.
\newblock {\em SIAM Journal on discrete mathematics}, 17\penalty0 (1):\penalty0
  134--160, 2003.

\bibitem[Fahandar et~al.(2017)Fahandar, H{\"u}llermeier, and
  Couso]{fahandar2017statistical}
M.~A. Fahandar, E.~H{\"u}llermeier, and I~Couso.
\newblock Statistical inference for incomplete ranking data: The case of
  rank-dependent coarsening.
\newblock In {\em Proceedings of the 34th International Conference on Machine
  Learning (ICML)}, pages 1078--1087, 2017.

\bibitem[Falahatgar et~al.(2017)Falahatgar, Hao, Orlitsky, Pichapati, and
  Ravindrakumar]{falahatgar2017maxing}
M.~Falahatgar, Y.~Hao, A.~Orlitsky, V.~Pichapati, and V.~Ravindrakumar.
\newblock Maxing and ranking with few assumptions.
\newblock In {\em Advances in Neural Information Processing Systems (NIPS)},
  pages 7060--7070, 2017.

\bibitem[Falahatgar et~al.(2018)Falahatgar, Jain, Orlitsky, Pichapati, and
  Ravindrakumar]{falahatgar2018limits}
M.~Falahatgar, A.~Jain, A.~Orlitsky, V.~Pichapati, and V.~Ravindrakumar.
\newblock The limits of maxing, ranking, and preference learning.
\newblock In {\em Proceedings of the 35th International Conference on Machine
  Learning (ICML)}, pages 1426--1435, 2018.

\bibitem[Farnoud et~al.(2012{\natexlab{a}})Farnoud, Milenkovic, and
  Touri]{farnoud2012novel}
F.~Farnoud, O.~Milenkovic, and B.~Touri.
\newblock A novel distance-based approach to constrained rank aggregation.
\newblock {\em arXiv preprint arXiv:1212.1471}, 2012{\natexlab{a}}.

\bibitem[Farnoud et~al.(2012{\natexlab{b}})Farnoud, Skachek, and
  Milenkovic]{farnoud2012rank}
F.~Farnoud, V.~Skachek, and O.~Milenkovic.
\newblock Rank modulation for translocation error correction.
\newblock In {\em Information Theory Proceedings (ISIT), 2012 IEEE
  International Symposium on}, pages 2988--2992. IEEE, 2012{\natexlab{b}}.

\bibitem[Fathony et~al.(2018)Fathony, Behpour, Zhang, and
  Ziebart]{fathony2018efficient}
R.~Fathony, S.~Behpour, X.~Zhang, and B.~Ziebart.
\newblock Efficient and consistent adversarial bipartite matching.
\newblock In {\em Proceedings of the 35th International Conference on Machine
  Learning (ICML)}, pages 1456--1465, 2018.

\bibitem[Feng et~al.(2008)Feng, Fang, and Ng]{feng2008discovering}
J.~Feng, Q.~Fang, and W.~Ng.
\newblock Discovering bucket orders from full rankings.
\newblock In {\em Proceedings of the 2008 ACM SIGMOD international conference
  on Management of data}, pages 55--66. ACM, 2008.

\bibitem[Fishburn(1973)]{Fishburn73}
P.~C. Fishburn.
\newblock Binary choice probabilities: on the varieties of stochastic
  transitivity.
\newblock {\em Journal of Mathematical psychology}, 10\penalty0 (4):\penalty0
  327--352, 1973.

\bibitem[Fligner \& Verducci(1986)Fligner and Verducci]{FV86}
M.~A. Fligner and J.~S. Verducci.
\newblock Distance based ranking models.
\newblock {\em JRSS Series B (Methodological)}, 48\penalty0 (3):\penalty0
  359--369, 1986.

\bibitem[Fligner \& Verducci(1990)Fligner and Verducci]{fligner1990posterior}
M.~A. Fligner and J.~S. Verducci.
\newblock Posterior probabilities for a consensus ordering.
\newblock {\em Psychometrika}, 55\penalty0 (1):\penalty0 53--63, 1990.

\bibitem[Fogel et~al.(2013)Fogel, Jenatton, Bach, and d'Aspremont]{FJBA13}
F.~Fogel, R.~Jenatton, F.~Bach, and A.~d'Aspremont.
\newblock Convex relaxations for permutation problems.
\newblock In {\em Advances in Neural Information Processing Systems (NIPS)},
  pages 1016--1024, 2013.

\bibitem[Ford~Jr(1957)]{ford1957solution}
Lester~R. Ford~Jr.
\newblock Solution of a ranking problem from binary comparisons.
\newblock {\em The American Mathematical Monthly}, 64\penalty0 (8P2):\penalty0
  28--33, 1957.

\bibitem[Freund \& Williamson(2015)Freund and Williamson]{FW15}
D.~Freund and D.~P. Williamson.
\newblock Rank aggregation: New bounds for mcx.
\newblock {\em CoRR}, abs/1510.00738, 2015.

\bibitem[Friedman(1997)]{friedman}
J.~Friedman.
\newblock Local learning based on recursive covering.
\newblock {\em Computing Science and Statistics}, pages 123--140, 1997.

\bibitem[Friedman et~al.(2002)Friedman, Hastie, and Tibshirani]{FHTbook}
J.~Friedman, T.~Hastie, and R.~Tibshirani.
\newblock {\em The elements of statistical learning}.
\newblock Springer, 2002.

\bibitem[F{\"u}rnkranz \& H{\"u}llermeier(2003)F{\"u}rnkranz and
  H{\"u}llermeier]{furnkranz2003pairwise}
J.~F{\"u}rnkranz and E.~H{\"u}llermeier.
\newblock Pairwise preference learning and ranking.
\newblock In {\em European Conference on Machine Learning}, pages 145--156.
  Springer, 2003.

\bibitem[F{\"u}rnkranz \& H{\"u}llermeier(2011)F{\"u}rnkranz and
  H{\"u}llermeier]{FH11}
J.~F{\"u}rnkranz and E.~H{\"u}llermeier.
\newblock {\em Preference learning}.
\newblock Springer, 2011.

\bibitem[Geng \& Luo(2014)Geng and Luo]{geng2014multilabel}
X.~Geng and L.~Luo.
\newblock Multilabel ranking with inconsistent rankers.
\newblock In {\em Computer Vision and Pattern Recognition (CVPR), 2014 IEEE
  Conference on}, pages 3742--3747. IEEE, 2014.

\bibitem[Gionis et~al.(2006)Gionis, Mannila, Puolam{\"a}ki, and
  Ukkonen]{gionis2006algorithms}
A.~Gionis, H.~Mannila, K.~Puolam{\"a}ki, and A.~Ukkonen.
\newblock Algorithms for discovering bucket orders from data.
\newblock In {\em Proceedings of the 12th ACM SIGKDD international conference
  on Knowledge discovery and data mining}, pages 561--566. ACM, 2006.

\bibitem[Glickman(1995)]{glickman1995glicko}
M.~E. Glickman.
\newblock The glicko system.
\newblock {\em Boston University}, 1995.

\bibitem[Glickman(1999)]{glickman1999parameter}
M.~E. Glickman.
\newblock Parameter estimation in large dynamic paired comparison experiments.
\newblock {\em Journal of the Royal Statistical Society: Series C (Applied
  Statistics)}, 48\penalty0 (3):\penalty0 377--394, 1999.

\bibitem[Gomes et~al.(2011)Gomes, Welinder, Krause, and
  Perona]{gomes2011crowdclustering}
R.~G. Gomes, P.~Welinder, A.~Krause, and P.~Perona.
\newblock Crowdclustering.
\newblock In {\em Advances in neural information processing systems}, pages
  558--566, 2011.

\bibitem[Gormley \& Murphy(2008)Gormley and Murphy]{GM08}
I.~C. Gormley and T.~B. Murphy.
\newblock A mixture of experts model for rank data with applications in
  election studies.
\newblock {\em The Annals of Applied Statistics}, 2\penalty0 (4):\penalty0
  1452--1477, 12 2008.

\bibitem[Guiver \& Snelson(2009)Guiver and Snelson]{GS09}
J.~Guiver and E.~Snelson.
\newblock Bayesian inference for plackett-luce ranking models.
\newblock In {\em Proceedings of the 26th International Conference on Machine
  Learning (ICML)}, 2009.

\bibitem[Gunasekar et~al.(2016)Gunasekar, Koyejo, and
  Ghosh]{gunasekar2016preference}
S.~Gunasekar, O.~O. Koyejo, and J.~Ghosh.
\newblock Preference completion from partial rankings.
\newblock In {\em Advances in Neural Information Processing Systems (NIPS)},
  pages 1370--1378, 2016.

\bibitem[Gurrieri et~al.(2012)Gurrieri, Siebert, Fortemps, Greco, and
  S{\l}owi{\'n}ski]{gurrieri2012label}
M.~Gurrieri, X.~Siebert, P.~Fortemps, S.~Greco, and R.~S{\l}owi{\'n}ski.
\newblock Label ranking: A new rule-based label ranking method.
\newblock In {\em International Conference on Information Processing and
  Management of Uncertainty in Knowledge-Based Systems}, pages 613--623.
  Springer, 2012.

\bibitem[Gy{\"o}rfi et~al.(2006)Gy{\"o}rfi, Kohler, Krzyzak, and
  Walk]{gyorfi2006distribution}
L.~Gy{\"o}rfi, M.~Kohler, A.~Krzyzak, and H.~Walk.
\newblock {\em A distribution-free theory of nonparametric regression}.
\newblock Springer Science \& Business Media, 2006.

\bibitem[Hajek et~al.(2014)Hajek, Oh, and Xu]{HOX14}
B.~Hajek, S.~Oh, and J.~Xu.
\newblock Minimax-optimal inference from partial rankings.
\newblock In {\em Advances in Neural Information Processing Systems (NIPS)},
  pages 1475--1483, 2014.

\bibitem[Heiser \& D’Ambrosio(2013)Heiser and
  D’Ambrosio]{heiser2013clustering}
W.~J. Heiser and A.~D’Ambrosio.
\newblock Clustering and prediction of rankings within a kemeny distance
  framework.
\newblock In {\em Algorithms from and for Nature and Life}, pages 19--31.
  Springer, 2013.

\bibitem[Herbrich et~al.(2006)Herbrich, Minka, and Graepel]{HMG06}
R.~Herbrich, T.~Minka, and T.~Graepel.
\newblock Trueskill™: A bayesian skill rating system.
\newblock In {\em Advances in Neural Information Processing Systems (NIPS)},
  pages 569--576, 2006.

\bibitem[Huang et~al.(2009)Huang, Guestrin, and Guibas]{huang2009fourier}
J.~Huang, C.~Guestrin, and L.~Guibas.
\newblock Fourier theoretic probabilistic inference over permutations.
\newblock {\em Journal of Machine Learning Research}, 10:\penalty0 997--1070,
  2009.

\bibitem[H{\"u}llermeier et~al.(2008)H{\"u}llermeier, F{\"u}rnkranz, Cheng, and
  Brinker]{HFCB08}
E.~H{\"u}llermeier, J.~F{\"u}rnkranz, W.~Cheng, and K.~Brinker.
\newblock Label ranking by learning pairwise preferences.
\newblock {\em Artificial Intelligence}, 172\penalty0 (16):\penalty0
  1897--1916, 2008.

\bibitem[Hunter(2004)]{Hunter04}
D.~R. Hunter.
\newblock {MM} algorithms for generalized bradley-terry models.
\newblock {\em Annals of Statistics}, pages 384--406, 2004.

\bibitem[Irurozki et~al.(2017)Irurozki, Calvo, and Lozano]{irurozkimallows}
E.~Irurozki, B.~Calvo, and J.~Lozano.
\newblock Mallows and generalized mallows model for matchings.
\newblock 2017.

\bibitem[Jamieson \& Nowak(2011)Jamieson and Nowak]{jamieson2011active}
K.~G. Jamieson and R.~Nowak.
\newblock Active ranking using pairwise comparisons.
\newblock In {\em Advances in Neural Information Processing Systems (NIPS)},
  pages 2240--2248, 2011.

\bibitem[Jiang et~al.(2011)Jiang, Lim, Yao, and Ye]{JLYY11}
X.~Jiang, L.~H. Lim, Y.~Yao, and Y.~Ye.
\newblock Statistical ranking and combinatorial {H}odge theory.
\newblock {\em Mathematical Programming}, 127\penalty0 (1):\penalty0 203--244,
  2011.

\bibitem[Jiao et~al.(2016)Jiao, Korba, and Sibony]{JKS16}
Y.~Jiao, A.~Korba, and E.~Sibony.
\newblock Controlling the distance to a kemeny consensus without computing it.
\newblock In {\em Proceedings of the 33rd International Conference on Machine
  Learning (ICML)}, 2016.

\bibitem[Jiao \& Vert(2017)Jiao and Vert]{jiao2017kendall}
Y.~Jiao and J.~P. Vert.
\newblock The kendall and mallows kernels for permutations.
\newblock {\em IEEE transactions on pattern analysis and machine intelligence},
  2017.

\bibitem[Jiao \& Vert(2015)Jiao and Vert]{Jiao2015Kendall}
Y.~Jiao and J.P. Vert.
\newblock The kendall and mallows kernels for permutations.
\newblock In D.~Blei and F.~Bach, editors, {\em Proceedings of the 32nd
  International Conference on Machine Learning (ICML)}, pages 1935--1944, 2015.

\bibitem[Joachims et~al.(2005)Joachims, Granka, Pan, Hembrooke, and
  Gay]{joachims2005accurately}
T.~Joachims, L.~Granka, B.~Pan, H.~Hembrooke, and G.~Gay.
\newblock Accurately interpreting clickthrough data as implicit feedback.
\newblock In {\em ACM SIGIR Forum}, volume~51, pages 4--11. Acm, 2005.

\bibitem[Kadri et~al.(2013)Kadri, Ghavamzadeh, and Preux]{kadri_icml2013}
H.~Kadri, M.~Ghavamzadeh, and P.~Preux.
\newblock A generalized kernel approach to structured output learning.
\newblock In {\em Proceedings of the 30th International Conference on Machine
  Learning (ICML)}, pages 471--479, 2013.

\bibitem[Kakarala(2011)]{Kakarala11}
R.~Kakarala.
\newblock {A signal processing approach to Fourier analysis of ranking data:
  the importance of phase}.
\newblock {\em IEEE Transactions on Signal Processing}, pages 1--10, 2011.

\bibitem[Kamishima(2003)]{Kamishima2003Nantonac}
T.~Kamishima.
\newblock Nantonac collaborative filtering: recommendation based on order
  responses.
\newblock In {\em Proceedings of the ninth ACM SIGKDD international conference
  on Knowledge discovery and data mining}, pages 583--588. ACM, 2003.

\bibitem[Kamishima et~al.(2010)Kamishima, Kazawa, and
  Akaho]{kamishima2010survey}
T.~Kamishima, H.~Kazawa, and S.~Akaho.
\newblock A survey and empirical comparison of object ranking methods.
\newblock In {\em Preference learning}, pages 181--201. Springer, 2010.

\bibitem[Karpinski \& Schudy(2010)Karpinski and Schudy]{karpinski2010faster}
M.~Karpinski and W.~Schudy.
\newblock Faster algorithms for feedback arc set tournament, kemeny rank
  aggregation and betweenness tournament.
\newblock {\em Algorithms and Computation}, pages 3--14, 2010.

\bibitem[Katariya et~al.(2018)Katariya, Jain, Sengupta, Evans, and
  Nowak]{katariya2018adaptive}
S.~Katariya, L.~Jain, N.~Sengupta, J.~Evans, and R.~Nowak.
\newblock Adaptive sampling for coarse ranking.
\newblock {\em Proceedings of the 21st International Conference on Artificial
  Intelligence and Statistics (AISTATS)}, 2018.

\bibitem[Keener(1993)]{Keener93}
J.~P. Keener.
\newblock The perron-frobenius theorem and the ranking of football teams.
\newblock {\em SIAM review}, 35\penalty0 (1):\penalty0 80--93, 1993.

\bibitem[Kemeny(1959)]{Kemeny59}
J.~G. Kemeny.
\newblock Mathematics without numbers.
\newblock {\em Daedalus}, 88:\penalty0 571--591, 1959.

\bibitem[Kemeny(1972)]{kemeny1972mathematical}
J.~G Kemeny.
\newblock Mathematical models in the social sciences.
\newblock Technical report, 1972.

\bibitem[Kenkre et~al.(2011)Kenkre, Khan, and Pandit]{KKP11}
S.~Kenkre, A.~Khan, and V.~Pandit.
\newblock On discovering bucket orders from preference data.
\newblock In {\em Society for Industrial and Applied Mathematics. Proceedings
  of the SIAM International Conference on Data Mining}, page 872. SIAM, 2011.

\bibitem[Kenyon-Mathieu \& Schudy(2007)Kenyon-Mathieu and
  Schudy]{kenyon2007rank}
C.~Kenyon-Mathieu and W.~Schudy.
\newblock How to rank with few errors.
\newblock In {\em Proceedings of the thirty-ninth annual ACM symposium on
  Theory of computing}, pages 95--103. ACM, 2007.

\bibitem[Khetan \& Oh(2016)Khetan and Oh]{KO16}
A.~Khetan and S.~Oh.
\newblock Data-driven rank breaking for efficient rank aggregation.
\newblock {\em arxiv preprint}, 2016.

\bibitem[Kidwell et~al.(2008)Kidwell, Lebanon, and Cleveland]{KLC08}
P.~Kidwell, G.~Lebanon, and W.~S. Cleveland.
\newblock {Visualizing incomplete and partially ranked data.}
\newblock {\em IEEE transactions on visualization and computer graphics},
  14\penalty0 (6):\penalty0 1356--63, 2008.

\bibitem[Kolde et~al.(2012)Kolde, Laur, Adler, and Vilo]{KLAV12}
R.~Kolde, S.~Laur, P.~Adler, and J.~Vilo.
\newblock Robust rank aggregation for gene list integration and meta-analysis.
\newblock {\em Bioinformatics}, 28\penalty0 (4):\penalty0 573--580, 2012.

\bibitem[Koltchinskii \& Beznosova(2005)Koltchinskii and Beznosova]{KB05}
V.~Koltchinskii and O.~Beznosova.
\newblock Exponential convergence rates in classification.
\newblock In {\em The 18th Conference on Learning Theory (COLT)}, 2005.

\bibitem[Kondor \& Barbosa(2010)Kondor and Barbosa]{kondor2010ranking}
R.~Kondor and M.~S. Barbosa.
\newblock Ranking with kernels in {F}ourier space.
\newblock In {\em The 23rd Conference on Learning Theory (COLT)}, pages
  451--463, 2010.

\bibitem[Korba et~al.(2017)Korba, Cl\'emen\c{c}on, and Sibony]{CKS17}
A.~Korba, S.~Cl\'emen\c{c}on, and E.~Sibony.
\newblock A learning theory of ranking aggregation.
\newblock In {\em Proceedings of the 20th International Conference on
  Artificial Intelligence and Statistics (AISTATS)}, 2017.

\bibitem[Korba et~al.(2018)Korba, Garcia, and
  Buc~d'Alch{\'e}]{korba2018structured}
A.~Korba, A.~Garcia, and F.~Buc~d'Alch{\'e}.
\newblock A structured prediction approach for label ranking.
\newblock {\em arXiv preprint arXiv:1807.02374}, 2018.

\bibitem[Kuhn(1955)]{kuhn1955hungarian}
H.~W. Kuhn.
\newblock The hungarian method for the assignment problem.
\newblock {\em Naval Research Logistics (NRL)}, 2\penalty0 (1-2):\penalty0
  83--97, 1955.

\bibitem[Kuleshov \& Precup(2014)Kuleshov and Precup]{kuleshov2014algorithms}
V.~Kuleshov and D.~Precup.
\newblock Algorithms for multi-armed bandit problems.
\newblock {\em arXiv preprint arXiv:1402.6028}, 2014.

\bibitem[Kumar \& Vassilvitskii(2010)Kumar and
  Vassilvitskii]{kumar2010generalized}
R.~Kumar and S.~Vassilvitskii.
\newblock Generalized distances between rankings.
\newblock In {\em Proceedings of the 19th international conference on World
  wide web}, pages 571--580. ACM, 2010.

\bibitem[Kurrild-Klitgaard(2001)]{kurrild2001empirical}
P.~Kurrild-Klitgaard.
\newblock An empirical example of the condorcet paradox of voting in a large
  electorate.
\newblock {\em Public Choice}, 107\penalty0 (1-2):\penalty0 135--145, 2001.

\bibitem[Lahaie \& Shah(2014)Lahaie and Shah]{Lahaie2014Neutrality}
S.~Lahaie and N.~Shah.
\newblock Neutrality and geometry of mean voting.
\newblock In {\em Proceedings of the fifteenth ACM conference on Economics and
  computation}, pages 333--350. ACM, 2014.

\bibitem[Lahiri(1993)]{Lahiri93}
M.~Lahiri.
\newblock Bootstrapping the studentized sample mean of lattice variables.
\newblock {\em Journal of Multivariate Analysis.}, 45:\penalty0 247--256, 1993.

\bibitem[Lai \& Robbins(1985)Lai and Robbins]{lai1985asymptotically}
T.~L. Lai and H.~Robbins.
\newblock Asymptotically efficient adaptive allocation rules.
\newblock {\em Advances in applied mathematics}, 6\penalty0 (1):\penalty0
  4--22, 1985.

\bibitem[Lam \& Leung(2004)Lam and Leung]{lam2004rank}
K.~W. Lam and C.~H. Leung.
\newblock Rank aggregation for meta-search engines.
\newblock In {\em Proceedings of the 13th international World Wide Web
  conference on Alternate track papers \& posters}, pages 384--385. ACM, 2004.

\bibitem[Lebanon \& Mao(2008)Lebanon and Mao]{LM08}
G.~Lebanon and Y.~Mao.
\newblock Non-parametric modeling of partially ranked data.
\newblock {\em Journal of Machine Learning Research}, 9:\penalty0 2401--2429,
  2008.

\bibitem[Lee et~al.(2011)Lee, Steyvers, DeYoung, and Miller]{lee2011model}
M.~Lee, M.~Steyvers, M.~DeYoung, and B.~Miller.
\newblock A model-based approach to measuring expertise in ranking tasks.
\newblock In {\em Proceedings of the Annual Meeting of the Cognitive Science
  Society}, volume~33, 2011.

\bibitem[Lee \& Yu(2012)Lee and Yu]{LY12}
P.~H. Lee and P.~L.~H. Yu.
\newblock Mixtures of weighted distance-based models for ranking data with
  applications in political studies.
\newblock {\em Computational Statistics \& Data Analysis}, 56\penalty0
  (8):\penalty0 2486 -- 2500, 2012.

\bibitem[Levin \& Nalebuff(1995)Levin and Nalebuff]{levin1995introduction}
J.~Levin and B.~Nalebuff.
\newblock An introduction to vote-counting schemes.
\newblock {\em Journal of Economic Perspectives}, 9\penalty0 (1):\penalty0
  3--26, 1995.

\bibitem[Li(2014)]{Li2014}
H.~Li.
\newblock Learning to rank for information retrieval and natural language
  processing.
\newblock {\em Synthesis Lectures on Human Language Technologies}, 7\penalty0
  (3):\penalty0 1--121, 2014.

\bibitem[Li et~al.(2017)Li, Mazumdar, and Milenkovic]{li2017efficient}
P.~Li, A.~Mazumdar, and O.~Milenkovic.
\newblock Efficient rank aggregation via lehmer codes.
\newblock {\em arXiv preprint arXiv:1701.09083}, 2017.

\bibitem[Linderman et~al.(2017)Linderman, Mena, Cooper, Paninski, and
  Cunningham]{linderman2017reparameterizing}
S.~W. Linderman, G.~E. Mena, H.~Cooper, L.~Paninski, and J.~P. Cunningham.
\newblock Reparameterizing the birkhoff polytope for variational permutation
  inference.
\newblock {\em arXiv preprint arXiv:1710.09508}, 2017.

\bibitem[Liu(2009)]{Liu09}
T.~Y. Liu.
\newblock Learning to rank for information retrieval.
\newblock {\em Foundations and Trends in Information Retrieval}, 3\penalty0
  (3):\penalty0 225--331, 2009.

\bibitem[Liu et~al.(2007)Liu, Liu, Qin, Ma, and Li]{liu2007supervised}
Y.~T. Liu, T.~Y. Liu, T.~Qin, Z.~M. Ma, and H.~Li.
\newblock Supervised rank aggregation.
\newblock In {\em Proceedings of the 16th international conference on World
  Wide Web}, pages 481--490. ACM, 2007.

\bibitem[Lomeli et~al.(2018)Lomeli, Rowland, Gretton, and
  Ghahramani]{lomeli2018antithetic}
M.~Lomeli, M.~Rowland, A.~Gretton, and Z.~Ghahramani.
\newblock Antithetic and monte carlo kernel estimators for partial rankings.
\newblock {\em arXiv preprint arXiv:1807.00400}, 2018.

\bibitem[Lu \& Boutilier(2011)Lu and Boutilier]{LB11a}
T.~Lu and C.~Boutilier.
\newblock Learning mallows models with pairwise preferences.
\newblock In {\em Proceedings of the 28th International Conference on Machine
  Learning (ICML)}, pages 145--152, 2011.

\bibitem[Lu \& Boutilier(2014)Lu and Boutilier]{LB14a}
T.~Lu and C.~Boutilier.
\newblock Effective sampling and learning for mallows models with
  pairwise-preference data.
\newblock volume~15, pages 3963--4009, 2014.

\bibitem[Lu \& Negahban(2015)Lu and Negahban]{lu2015individualized}
Y.~Lu and S.~N. Negahban.
\newblock Individualized rank aggregation using nuclear norm regularization.
\newblock In {\em Communication, Control, and Computing (Allerton), 2015 53rd
  Annual Allerton Conference on}, pages 1473--1479. IEEE, 2015.

\bibitem[Luce(1959)]{Luce59}
R.~D. Luce.
\newblock {\em Individual Choice Behavior}.
\newblock Wiley, 1959.

\bibitem[Lugosi \& Nobel(1996)Lugosi and Nobel]{LN96}
G.~Lugosi and A.~Nobel.
\newblock Consistency of data-driven histogram methods for density estimation
  and classification.
\newblock {\em Ann. Statist.}, 24\penalty0 (2):\penalty0 687--706, 1996.

\bibitem[Lundell(2007)]{lundell2007second}
J.~Lundell.
\newblock Second report of the irish commission on electronic voting.
\newblock {\em Voting matters}, 23:\penalty0 13--17, 2007.

\bibitem[Mallows(1957)]{Mallows57}
C.~L. Mallows.
\newblock Non-null ranking models.
\newblock {\em Biometrika}, 44\penalty0 (1-2):\penalty0 114--130, 1957.

\bibitem[Mania et~al.(2016{\natexlab{a}})Mania, Ramdas, Wainwright, Jordan, and
  Recht]{mania2016kernel}
H.~Mania, A.~Ramdas, M.~J. Wainwright, M.~I. Jordan, and B.~Recht.
\newblock On kernel methods for covariates that are rankings.
\newblock {\em arXiv preprint arXiv:1603.08035}, 2016{\natexlab{a}}.

\bibitem[Mania et~al.(2016{\natexlab{b}})Mania, Ramdas, Wainwright, Jordan, and
  Recht]{maniao2016universality}
H.~Mania, A.~Ramdas, M.~J. Wainwright, M.~I. Jordan, and B.~Recht.
\newblock Universality of mallows’ and degeneracy of kendall’s kernels for
  rankings.
\newblock {\em stat}, 1050:\penalty0 25, 2016{\natexlab{b}}.

\bibitem[Marden(1996)]{Marden96}
J.~I. Marden.
\newblock {\em Analyzing and Modeling Rank Data}.
\newblock CRC Press, London, 1996.

\bibitem[Mare{\v{s}} \& Straka(2007)Mare{\v{s}} and Straka]{marevs2007linear}
M.~Mare{\v{s}} and M.~Straka.
\newblock Linear-time ranking of permutations.
\newblock In {\em European Symposium on Algorithms}, pages 187--193. Springer,
  2007.

\bibitem[Massart \& N\'ed\'elec(2006)Massart and N\'ed\'elec]{MasNed06}
P.~Massart and E.~N\'ed\'elec.
\newblock Risk bounds for statistical learning.
\newblock {\em Annals of Statistics}, 34\penalty0 (5), 2006.

\bibitem[Mattei et~al.(2012)Mattei, Forshee, and
  Goldsmith]{Mattei2012empirical}
N.~Mattei, J.~Forshee, and J.~Goldsmith.
\newblock An empirical study of voting rules and manipulation with large
  datasets.
\newblock In {\em Proceedings of COMSOC}. Citeseer, 2012.

\bibitem[Maystre \& Grossglauser(2015)Maystre and Grossglauser]{MG15b}
L.~Maystre and M.~Grossglauser.
\newblock Fast and accurate inference of plackett--luce models.
\newblock In {\em Advances in Neural Information Processing Systems (NIPS)},
  pages 172--180, 2015.

\bibitem[Maystre \& Grossglauser(2017)Maystre and
  Grossglauser]{maystre2015just}
L.~Maystre and M.~Grossglauser.
\newblock Just sort it! a simple and effective approach to active preference
  learning.
\newblock {\em Proceedings of the 34th International Conference on Machine
  Learning (ICML)}, 2017.

\bibitem[McFadden(1974)]{McFadden74}
D.~McFadden.
\newblock Conditional logit analysis of qualitative choice behavior.
\newblock {\em Frontiers in Econometrics}, pages 105--142, 1974.

\bibitem[Meila \& Bao(2010)Meila and Bao]{MB10}
M.~Meila and L.~Bao.
\newblock An exponential model for infinite rankings.
\newblock {\em Journal of Macine Learning Research}, 11:\penalty0 3481--3518,
  dec 2010.

\bibitem[Meila \& Chen(2010)Meila and Chen]{MC10}
M.~Meila and H.~Chen.
\newblock Dirichlet process mixtures of generalized mallows models.
\newblock In {\em Proceedings of the 26th Conference on Uncertainty in
  Artificial Intelligence (UAI)}, pages 358--367, 2010.

\bibitem[Meila et~al.(2007)Meila, Phadnis, Patterson, and Bilmes]{MPPB07}
M.~Meila, K.~Phadnis, A.~Patterson, and J.~Bilmes.
\newblock Consensus ranking under the exponential model.
\newblock In {\em Proceedings of {UAI}'07}, pages 729--734, 2007.

\bibitem[Merlin \& Saari(1997)Merlin and Saari]{merlin1997copeland}
V.~R. Merlin and D.~G. Saari.
\newblock Copeland method ii: Manipulation, monotonicity, and paradoxes.
\newblock {\em Journal of Economic Theory}, 72\penalty0 (1):\penalty0 148--172,
  1997.

\bibitem[Micchelli \& Pontil(2005)Micchelli and Pontil]{micchelli2005learning}
C.~A. Micchelli and M.~Pontil.
\newblock Learning the kernel function via regularization.
\newblock {\em Journal of machine learning research}, 6\penalty0
  (Jul):\penalty0 1099--1125, 2005.

\bibitem[Mohajer et~al.(2017)Mohajer, Suh, and Elmahdy]{mohajer2017active}
S.~Mohajer, C.~Suh, and A.~Elmahdy.
\newblock Active learning for top-$ k $ rank aggregation from noisy
  comparisons.
\newblock In {\em Proceedings of the 34th International Conference on Machine
  Learning (ICML)}, pages 2488--2497, 2017.

\bibitem[Murphy \& Martin(2003)Murphy and Martin]{MM03}
T.~B. Murphy and D.~Martin.
\newblock Mixtures of distance-based models for ranking data.
\newblock {\em Computational statistics \& data analysis}, 41\penalty0
  (3):\penalty0 645--655, 2003.

\bibitem[Myrvold \& Ruskey(2001)Myrvold and Ruskey]{myrvold2001ranking}
W.~Myrvold and F.~Ruskey.
\newblock Ranking and unranking permutations in linear time.
\newblock {\em Information Processing Letters}, 79\penalty0 (6):\penalty0
  281--284, 2001.

\bibitem[Negahban et~al.(2012)Negahban, Oh, and Shah]{negahban2012iterative}
S.~Negahban, S.~Oh, and D.~Shah.
\newblock Iterative ranking from pair-wise comparisons.
\newblock In {\em Advances in Neural Information Processing Systems (NIPS)},
  pages 2474--2482, 2012.

\bibitem[Negahban et~al.(2016)Negahban, Oh, and Shah]{negahban2016rank}
S.~Negahban, S.~Oh, and D.~Shah.
\newblock Rank centrality: Ranking from pairwise comparisons.
\newblock {\em Operations Research}, 65\penalty0 (1):\penalty0 266--287, 2016.

\bibitem[Niu et~al.(2012)Niu, Guo, Lan, and Cheng]{niu2012top}
S.~Niu, J.~Guo, Y.~Lan, and X.~Cheng.
\newblock Top-k learning to rank: labeling, ranking and evaluation.
\newblock In {\em Proceedings of the 35th international ACM SIGIR conference on
  Research and development in information retrieval}, pages 751--760. ACM,
  2012.

\bibitem[Niu et~al.(2013)Niu, Lan, Guo, and Cheng]{niu2013stochastic}
S.~Niu, Y.~Lan, J.~Guo, and X.~Cheng.
\newblock Stochastic rank aggregation.
\newblock In {\em Proceedings of the 31st Conference on Uncertainty in
  Artificial Intelligence (UAI)}, pages 478--487. AUAI Press, 2013.

\bibitem[Niu et~al.(2015)Niu, Lan, Guo, Wan, and Cheng]{niu2015noise}
S.~Niu, Y.~Lan, J.~Guo, S.~Wan, and X.~Cheng.
\newblock Which noise affects algorithm robustness for learning to rank.
\newblock {\em Information Retrieval Journal}, 18\penalty0 (3):\penalty0
  215--245, 2015.

\bibitem[Nowozin \& Lampert(2011)Nowozin and Lampert]{Nowozin-book2011}
S.~Nowozin and C.~H. Lampert.
\newblock Structured learning and prediction in computer vision.
\newblock {\em Foundations and Trends in Computer Graphics and Vision},
  6\penalty0 (3--4):\penalty0 185--365, 2011.

\bibitem[Osokin et~al.(2017)Osokin, Bach, and Lacoste{-}Julien]{osokin2017}
A.~Osokin, F.R. Bach, and S.~Lacoste{-}Julien.
\newblock On structured prediction theory with calibrated convex surrogate
  losses.
\newblock In {\em Advances in Neural Information Processing Systems (NIPS)},
  pages 301--312, 2017.

\bibitem[Pananjady et~al.(2017)Pananjady, Mao, Muthukumar, Wainwright, and
  Courtade]{pananjady2017worst}
A.~Pananjady, C.~Mao, V.~Muthukumar, M.~J. Wainwright, and T.~A. Courtade.
\newblock Worst-case vs average-case design for estimation from fixed pairwise
  comparisons.
\newblock {\em arXiv preprint arXiv:1707.06217}, 2017.

\bibitem[Park et~al.(2015)Park, Neeman, Zhang, Sanghavi, and
  Dhillon]{park2015preference}
D.~Park, J.~Neeman, J.~Zhang, S.~Sanghavi, and I.~Dhillon.
\newblock Preference completion: Large-scale collaborative ranking from
  pairwise comparisons.
\newblock In {\em Proceedings of the 32nd International Conference on Machine
  Learning (ICML)}, pages 1907--1916, 2015.

\bibitem[Patel et~al.(2013)Patel, Telesca, Rallo, George, Xia, and
  Nel]{Patel13}
T.~Patel, D.~Telesca, R.~Rallo, S.~George, T.~Xia, and A.~E. Nel.
\newblock Hierarchical rank aggregation with applications to nanotoxicology.
\newblock {\em Journal of Agricultural, Biological, and Environmental
  Statistics}, 18\penalty0 (2):\penalty0 159--177, 2013.

\bibitem[Plackett(1975)]{Plackett75}
R.~L. Plackett.
\newblock The analysis of permutations.
\newblock {\em Applied Statistics}, 2\penalty0 (24):\penalty0 193--202, 1975.

\bibitem[Plis et~al.(2011)Plis, McCracken, Lane, and
  Calhoun]{plis2011directional}
S.~Plis, S.~McCracken, T.~Lane, and V.~Calhoun.
\newblock Directional statistics on permutations.
\newblock In {\em Proceedings of the 14th International Conference on
  Artificial Intelligence and Statistics (AISTATS)}, pages 600--608, 2011.

\bibitem[Popova(2012)]{Popova2012robust}
A.~Popova.
\newblock The robust beauty of apa presidential elections: an empty-handed hunt
  for the social choice conundrum.
\newblock Master's thesis, University of Illinois at Urbana-Champaign, 2012.

\bibitem[Prasad et~al.(2015)Prasad, Pareek, and Ravikumar]{PPR15}
A.~Prasad, H.~Pareek, and P.~Ravikumar.
\newblock Distributional rank aggregation, and an axiomatic analysis.
\newblock In David Blei and Francis Bach, editors, {\em Proceedings of the 32nd
  International Conference on Machine Learning (ICML)}, pages 2104--2112. JMLR
  Workshop and Conference Proceedings, 2015.

\bibitem[Procaccia et~al.(2012)Procaccia, Reddi, and Shah]{PRS12}
A.~D. Procaccia, S.~J. Reddi, and N.~Shah.
\newblock A maximum likelihood approach for selecting sets of alternatives.
\newblock {\em CoRR}, 2012.

\bibitem[Qian et~al.(2015)Qian, Gao, and Jagadish]{qian2015learning}
L.~Qian, J.~Gao, and H.~Jagadish.
\newblock Learning user preferences by adaptive pairwise comparison.
\newblock {\em Proceedings of the VLDB Endowment}, 8\penalty0 (11):\penalty0
  1322--1333, 2015.

\bibitem[Qin et~al.(2010)Qin, Geng, and Liu]{qin2010new}
T.~Qin, X.~Geng, and T.~Y. Liu.
\newblock A new probabilistic model for rank aggregation.
\newblock In {\em Advances in Neural Information Processing Systems (NIPS)},
  pages 1948--1956, 2010.

\bibitem[Rachev(1991)]{Rachev91}
S.T. Rachev.
\newblock {\em Probability Metrics and the Stability of Stochastic Models}.
\newblock Wiley, 1991.

\bibitem[Radlinski \& Joachims(2005)Radlinski and Joachims]{radlinski2005query}
F.~Radlinski and T.~Joachims.
\newblock Query chains: learning to rank from implicit feedback.
\newblock In {\em Proceedings of the eleventh ACM SIGKDD international
  conference on Knowledge discovery in data mining}, pages 239--248. ACM, 2005.

\bibitem[Radlinski \& Joachims(2007)Radlinski and
  Joachims]{radlinski2007active}
F.~Radlinski and T.~Joachims.
\newblock Active exploration for learning rankings from clickthrough data.
\newblock In {\em Proceedings of the 13th ACM SIGKDD international conference
  on Knowledge discovery and data mining}, pages 570--579. ACM, 2007.

\bibitem[Rajkumar \& Agarwal(2014)Rajkumar and
  Agarwal]{rajkumar2014statistical}
A.~Rajkumar and S.~Agarwal.
\newblock A statistical convergence perspective of algorithms for rank
  aggregation from pairwise data.
\newblock In {\em Proceedings of the 31st International Conference on Machine
  Learning (ICML)}, pages 118--126, 2014.

\bibitem[Rajkumar \& Agarwal(2016)Rajkumar and Agarwal]{rajkumar2016can}
A.~Rajkumar and S.~Agarwal.
\newblock When can we rank well from comparisons of $ o (n log (n)) $
  non-actively chosen pairs?
\newblock In {\em The 29th Conference on Learning Theory (COLT)}, pages
  1376--1401, 2016.

\bibitem[Rajkumar et~al.(2015)Rajkumar, Ghoshal, Lim, and
  Agarwal]{rajkumar2015ranking}
A.~Rajkumar, S.~Ghoshal, L.~H. Lim, and S.~Agarwal.
\newblock Ranking from stochastic pairwise preferences: Recovering condorcet
  winners and tournament solution sets at the top.
\newblock In {\em Proceedings of the 32nd International Conference on Machine
  Learning (ICML)}, pages 665--673, 2015.

\bibitem[Ramamohan et~al.(2016)Ramamohan, Rajkumar, and
  Agarwal]{ramamohan2016dueling}
S.~Y. Ramamohan, A.~Rajkumar, and S.~Agarwal.
\newblock Dueling bandits: Beyond condorcet winners to general tournament
  solutions.
\newblock In {\em Advances in Neural Information Processing Systems (NIPS)},
  pages 1253--1261, 2016.

\bibitem[Raman \& Joachims(2014)Raman and Joachims]{raman2014methods}
K.~Raman and T.~Joachims.
\newblock Methods for ordinal peer grading.
\newblock In {\em Proceedings of the 20th ACM SIGKDD international conference
  on Knowledge discovery and data mining}, pages 1037--1046. ACM, 2014.

\bibitem[Ramaswamy et~al.(2013)Ramaswamy, Agarwal, and
  Tewari]{ramaswamy2013convex}
H.~G. Ramaswamy, S.~Agarwal, and A.~Tewari.
\newblock Convex calibrated surrogates for low-rank loss matrices with
  applications to subset ranking losses.
\newblock In {\em Advances in Neural Information Processing Systems (NIPS)},
  pages 1475--1483, 2013.

\bibitem[Renda \& Straccia(2003)Renda and Straccia]{renda2003web}
M.~E. Renda and U.~Straccia.
\newblock Web metasearch: rank vs. score based rank aggregation methods.
\newblock In {\em Proceedings of the 2003 ACM symposium on Applied computing},
  pages 841--846. ACM, 2003.

\bibitem[Rendle et~al.(2009)Rendle, Freudenthaler, Gantner, and
  Schmidt-Thieme]{rendle2009bpr}
S.~Rendle, C.~Freudenthaler, Z.~Gantner, and L.~Schmidt-Thieme.
\newblock Bpr: Bayesian personalized ranking from implicit feedback.
\newblock In {\em Proceedings of the 25th conference on uncertainty in
  artificial intelligence}, pages 452--461. AUAI Press, 2009.

\bibitem[Risse(2005)]{Risse05}
M.~Risse.
\newblock Why the count de borda cannot beat the marquis de condorcet.
\newblock {\em Social Choice and Welfare}, 25\penalty0 (1):\penalty0 95--113,
  2005.

\bibitem[S{\'a} et~al.(2018)S{\'a}, Azevedo, Soares, Jorge, and
  Knobbe]{de2018preference}
C.~R. S{\'a}, P.~Azevedo, C.~Soares, A.~M. Jorge, and A.~Knobbe.
\newblock Preference rules for label ranking: Mining patterns in multi-target
  relations.
\newblock {\em Information Fusion}, 40:\penalty0 112--125, 2018.

\bibitem[S{\'a} et~al.(2017)S{\'a}, Soares, Knobbe, and Cortez]{sa2017label}
C.~R. S{\'a}, C.~M. Soares, A.~Knobbe, and P.~Cortez.
\newblock Label ranking forests.
\newblock {\em Expert Systems - The Journal of Knowledge Engineering}, 2017.

\bibitem[Saari \& Merlin(2000)Saari and Merlin]{saari2000geometric}
D.~G. Saari and V.~R. Merlin.
\newblock A geometric examination of kemeny's rule.
\newblock {\em Social Choice and Welfare}, 17\penalty0 (3):\penalty0 403--438,
  2000.

\bibitem[Saha \& Gopalan(2018)Saha and Gopalan]{sahabattle}
A.~Saha and A.~Gopalan.
\newblock Battle of bandits.
\newblock 2018.

\bibitem[Schalekamp \& Van~Zuylen(2009)Schalekamp and
  Van~Zuylen]{Schalekamp2009Rank}
F.~Schalekamp and A.~Van~Zuylen.
\newblock Rank aggregation: Together we're strong.
\newblock In {\em Proceedings of the Meeting on Algorithm Engineering \&
  Expermiments}, pages 38--51. Society for Industrial and Applied Mathematics,
  2009.

\bibitem[Sculley(2007)]{sculley2007rank}
D.~Sculley.
\newblock Rank aggregation for similar items.
\newblock In {\em Proceedings of the 2007 SIAM international conference on data
  mining}, pages 587--592. SIAM, 2007.

\bibitem[Sese \& Morishita(2001)Sese and Morishita]{sese2001rank}
J.~Sese and S.~Morishita.
\newblock Rank aggregation method for biological databases.
\newblock {\em Genome Informatics}, 12:\penalty0 506--507, 2001.

\bibitem[Shah et~al.(2017)Shah, Balakrishnan, Guntuboyina, and
  Wainright]{shah2015stochastically}
N.~B. Shah, S.~Balakrishnan, A.~Guntuboyina, and M.~J. Wainright.
\newblock Stochastically transitive models for pairwise comparisons:
  Statistical and computational issues.
\newblock {\em IEEE Transactions on Information Theory}, 2017.

\bibitem[Shah et~al.(2016)Shah, Balakrishnan, and Wainwright]{shah2016feeling}
N.~B. Shah, S.~Balakrishnan, and M.~J. Wainwright.
\newblock Feeling the bern: Adaptive estimators for bernoulli probabilities of
  pairwise comparisons.
\newblock In {\em Information Theory (ISIT), 2016 IEEE International Symposium
  on}, pages 1153--1157. IEEE, 2016.

\bibitem[Shah et~al.(2013)Shah, Bradley, Parekh, Wainwright, and
  Ramchandran]{shah2013case}
N.~B. Shah, J.~K. Bradley, A.~Parekh, M.~Wainwright, and K.~Ramchandran.
\newblock A case for ordinal peer-evaluation in moocs.
\newblock In {\em NIPS Workshop on Data Driven Education}, pages 1--8, 2013.

\bibitem[Shah et~al.(2015)Shah, Parekh, Balakrishnan, Ramchandran, Bradley, and
  Wainwright]{shah2015estimation}
N.~B. Shah, A.~Parekh, S.~Balakrishnan, K.~Ramchandran, J.~Bradley, and
  M.~Wainwright.
\newblock Estimation from pairwise comparisons: Sharp minimax bounds with
  topology dependence.
\newblock In {\em Proceedings of the 18th International Conference on
  Artificial Intelligence and Statistics (AISTATS)}, pages 856--865, 2015.

\bibitem[Shah \& Wainwright(2017)Shah and Wainwright]{shah2015simple}
N.~B. Shah and M.~J. Wainwright.
\newblock Simple, robust and optimal ranking from pairwise comparisons.
\newblock {\em Journal of Machine Learning Research}, 2017.

\bibitem[Sibony(2014)]{Sibony2014Borda}
E.~Sibony.
\newblock Borda count approximation of kemeny's rule and pairwise voting
  inconsistencies.
\newblock In {\em NIPS-2014 Workshop on Analysis of Rank Data: Confluence of
  Social Choice, Operations Research, and Machine Learning}. Curran Associates,
  Inc., 2014.

\bibitem[Sibony et~al.(2014)Sibony, Clemencon, and
  Jakubowicz]{sibony2014multiresolution}
E.~Sibony, S.~Clemencon, and J.~Jakubowicz.
\newblock Multiresolution analysis of incomplete rankings with applications to
  prediction.
\newblock In {\em Big Data (Big Data), 2014 IEEE International Conference on},
  pages 88--95. IEEE, 2014.

\bibitem[Sibony et~al.(2015)Sibony, Clemen{\c{c}}on, and
  Jakubowicz]{sibony2015mra}
E.~Sibony, S.~Clemen{\c{c}}on, and J.~Jakubowicz.
\newblock Mra-based statistical learning from incomplete rankings.
\newblock In {\em Proceedings of the 32nd International Conference on Machine
  Learning (ICML)}, pages 1432--1441, 2015.

\bibitem[Soufiani et~al.(2013)Soufiani, Chen, Parkes, and Xia]{SCPX13}
H.~A. Soufiani, W.~Chen, D.~C. Parkes, and L.~Xia.
\newblock Generalized method-of-moments for rank aggregation.
\newblock In {\em Advances in Neural Information Processing Systems (NIPS)},
  pages 2706--2714, 2013.

\bibitem[Soufiani et~al.(2014{\natexlab{a}})Soufiani, Parkes, and Xia]{SPX14b}
H.~A. Soufiani, D.~C. Parkes, and L.~Xia.
\newblock Computing parametric ranking models via rank-breaking.
\newblock In {\em Proceedings of The 31st International Conference on Machine
  Learning (ICML)}. International Conference on Machine Learning,
  2014{\natexlab{a}}.

\bibitem[Soufiani et~al.(2014{\natexlab{b}})Soufiani, Parkes, and
  Xia]{soufiani2014statistical}
H.~A. Soufiani, D.~C. Parkes, and L.~Xia.
\newblock A statistical decision-theoretic framework for social choice.
\newblock In {\em Advances in Neural Information Processing Systems (NIPS)},
  pages 3185--3193, 2014{\natexlab{b}}.

\bibitem[Stanley(1986)]{Stanley86}
R.~P. Stanley.
\newblock {\em Enumerative Combinatorics}.
\newblock Wadsworth Publishing Company, Belmont, CA, USA, 1986.
\newblock ISBN 0-534-06546-5.

\bibitem[Steinwart \& Christmann(2008)Steinwart and Christmann]{steinwart-book}
I.~Steinwart and A.~Christmann.
\newblock {\em Support Vector Machines}.
\newblock Springer, 2008.

\bibitem[Su \& Khoshgoftaar(2009)Su and Khoshgoftaar]{su2009survey}
X.~Su and T.~M. Khoshgoftaar.
\newblock A survey of collaborative filtering techniques.
\newblock {\em Advances in artificial intelligence}, 2009, 2009.

\bibitem[Sui et~al.(2017)Sui, Zhuang, Burdick, and Yue]{sui2017multi}
Y.~Sui, V.~Zhuang, J.~W. Burdick, and Y.~Yue.
\newblock Multi-dueling bandits with dependent arms.
\newblock {\em arXiv preprint arXiv:1705.00253}, 2017.

\bibitem[Sui et~al.(2018)Sui, Zoghi, Hofmann, and Yue]{sui2018advancements}
Y.~Sui, M.~Zoghi, K.~Hofmann, and Y.~Yue.
\newblock Advancements in dueling bandits.
\newblock In {\em Proceedings of the 27th International Joint Conference on
  Artificial Intelligence (IJCAI)}, pages 5502--5510, 2018.

\bibitem[Sun et~al.(2012)Sun, Lebanon, and Kidwell]{sun2012estimating}
M.~Sun, G.~Lebanon, and P.~Kidwell.
\newblock Estimating probabilities in recommendation systems.
\newblock {\em Journal of the Royal Statistical Society: Series C (Applied
  Statistics)}, 61\penalty0 (3):\penalty0 471--492, 2012.

\bibitem[Sz{\"o}r{\'e}nyi et~al.(2015)Sz{\"o}r{\'e}nyi, Busa-Fekete, Paul, and
  H{\"u}llermeier]{szorenyi2015online}
B.~Sz{\"o}r{\'e}nyi, R.~Busa-Fekete, A.~Paul, and E.~H{\"u}llermeier.
\newblock Online rank elicitation for plackett-luce: A dueling bandits
  approach.
\newblock In {\em Advances in Neural Information Processing Systems (NIPS)},
  pages 604--612, 2015.

\bibitem[Thompson(1993)]{thompson1993generalized}
G.~L. Thompson.
\newblock Generalized permutation polytopes and exploratory graphical methods
  for ranked data.
\newblock {\em The Annals of Statistics}, pages 1401--1430, 1993.

\bibitem[Thurstone(1927)]{Thurstone27}
L.~L. Thurstone.
\newblock {A law of comparative judgment}.
\newblock {\em Psychological Review}, 34\penalty0 (4):\penalty0 273--286, July
  1927.

\bibitem[Truchon(1998)]{truchon1998extension}
M.~Truchon.
\newblock An extension of the condorcet criterion and kemeny orders.
\newblock {\em Cahier}, 9813, 1998.

\bibitem[Truchon(2008)]{Truchon08}
M.~Truchon.
\newblock Borda and the maximum likelihood approach to vote aggregation.
\newblock {\em Mathematical Social Sciences}, 55\penalty0 (1):\penalty0
  96--102, 2008.

\bibitem[Tsoumakas et~al.(2009)Tsoumakas, Katakis, and
  Vlahavas]{tsoumakas2009mining}
G.~Tsoumakas, I.~Katakis, and I.~Vlahavas.
\newblock Mining multi-label data.
\newblock In {\em Data mining and knowledge discovery handbook}, pages
  667--685. Springer, 2009.

\bibitem[Tsybakov(2004)]{Tsy04}
A.~B. Tsybakov.
\newblock Optimal aggregation of classifiers in statistical learning.
\newblock {\em Annals of Statistics}, 32\penalty0 (1):\penalty0 135--166, 2004.

\bibitem[Tsybakov(2009)]{tsybakov2009introduction}
A.~B. Tsybakov.
\newblock Introduction to nonparametric estimation. revised and extended from
  the 2004 french original. translated by vladimir zaiats, 2009.

\bibitem[Tversky(1972)]{Tversky72}
A.~Tversky.
\newblock Elimination by aspects: A theory of choice.
\newblock {\em Psychological review}, 79\penalty0 (4):\penalty0 281, 1972.

\bibitem[Ukkonen(2011)]{ukkonen2011clustering}
A.~Ukkonen.
\newblock Clustering algorithms for chains.
\newblock {\em Journal of Machine Learning Research}, 12\penalty0
  (Apr):\penalty0 1389--1423, 2011.

\bibitem[Ukkonen et~al.(2009)Ukkonen, Puolam{\"a}ki, Gionis, and
  Mannila]{ukkonen2009randomized}
A.~Ukkonen, K.~Puolam{\"a}ki, A.~Gionis, and H.~Mannila.
\newblock A randomized approximation algorithm for computing bucket orders.
\newblock {\em Information Processing Letters}, 109\penalty0 (7):\penalty0
  356--359, 2009.

\bibitem[Van Der~Vaart \& Wellner(1996)Van Der~Vaart and Wellner]{vanweak}
A.~W. Van Der~Vaart and J.~A. Wellner.
\newblock Weak convergence.
\newblock In {\em Weak convergence and empirical processes}, pages 16--28.
  Springer, 1996.

\bibitem[Van~Zuylen \& Williamson(2007)Van~Zuylen and Williamson]{VW07}
A.~Van~Zuylen and D.~P. Williamson.
\newblock Deterministic algorithms for rank aggregation and other ranking and
  clustering problems.
\newblock In {\em Approximation and Online Algorithms}, pages 260--273.
  Springer, 2007.

\bibitem[Vapnik(2000)]{Vapnik}
V.~N. Vapnik.
\newblock {\em {The Nature of Statistical Learning Theory}}.
\newblock Lecture Notes in Statistics. Springer, 2000.

\bibitem[Vembu \& G{\"a}rtner(2010)Vembu and G{\"a}rtner]{vembu2010label}
S.~Vembu and T.~G{\"a}rtner.
\newblock Label ranking algorithms: A survey.
\newblock In {\em Preference learning}, pages 45--64. Springer, 2010.

\bibitem[Wang et~al.(2013)Wang, Mazumdar, and Wornell]{Wang2013rate}
D.~Wang, A.~Mazumdar, and G.~W. Wornell.
\newblock A rate-distortion theory for permutation spaces.
\newblock In {\em Information Theory Proceedings (ISIT), 2013 IEEE
  International Symposium on}, pages 2562--2566. IEEE, 2013.

\bibitem[Wang et~al.(2015)Wang, Mazumdar, and Wornell]{wang2015compression}
D.~Wang, A.~Mazumdar, and G.~W. Wornell.
\newblock Compression in the space of permutations.
\newblock {\em IEEE Transactions on Information Theory}, 61\penalty0
  (12):\penalty0 6417--6431, 2015.

\bibitem[Wang et~al.(2011)Wang, Wu, Hu, Yang, and Li]{wang2011ranking}
Q.~Wang, O.~Wu, W.~Hu, J.~Yang, and W.~Li.
\newblock Ranking social emotions by learning listwise preference.
\newblock In {\em Pattern Recognition (ACPR), 2011 First Asian Conference on},
  pages 164--168. IEEE, 2011.

\bibitem[Wauthier et~al.(2013)Wauthier, Jordan, and Jojic]{WJJ13}
F.~Wauthier, M.~Jordan, and N.~Jojic.
\newblock Efficient ranking from pairwise comparisons.
\newblock In {\em Proceedings of the 30th International Conference on Machine
  Learning (ICML)}, pages 109--117, 2013.

\bibitem[Wu et~al.(2017)Wu, Hsieh, and Sharpnack]{wu2017large}
L.~Wu, C.~J. Hsieh, and J.~Sharpnack.
\newblock Large-scale collaborative ranking in near-linear time.
\newblock In {\em Proceedings of the 23rd ACM SIGKDD International Conference
  on Knowledge Discovery and Data Mining}, pages 515--524. ACM, 2017.

\bibitem[Wu et~al.(2016)Wu, You, Mao, Xia, Yuan, and Hu]{wu2016listwise}
O.~Wu, Q.~You, X.~Mao, F.~Xia, F.~Yuan, and W.~Hu.
\newblock Listwise learning to rank by exploring structure of objects.
\newblock {\em IEEE Trans. Knowl. Data Eng.}, 28\penalty0 (7):\penalty0
  1934--1939, 2016.

\bibitem[Xia et~al.(2008)Xia, Liu, Wang, Zhang, and Li]{XLWZL08}
F.~Xia, T.~Y. Liu, J.~Wang, W.~Zhang, and H.~Li.
\newblock Listwise approach to learning to rank: theory and algorithm.
\newblock In {\em Proceedings of the 25th international conference on Machine
  learning}, pages 1192--1199. ACM, 2008.

\bibitem[Xia(2015)]{Xia2015Generalized}
L.~Xia.
\newblock Generalized decision scoring rules: Statistical, computational, and
  axiomatic properties.
\newblock In {\em Proceedings of the Sixteenth ACM Conference on Economics and
  Computation}, EC '15, pages 661--678, New York, NY, USA, 2015. ACM.

\bibitem[Xia \& Conitzer(2011)Xia and Conitzer]{xia2011maximum}
L.~Xia and V.~Conitzer.
\newblock A maximum likelihood approach towards aggregating partial orders.
\newblock In {\em Proceedings of the 22nd International Joint Conference on
  Artificial Intelligence (IJCAI)}, volume~22, page 446, 2011.

\bibitem[Yasutake et~al.(2011)Yasutake, Hatano, Kijima, Takimoto, and
  Takeda]{yasutake2011online}
S.~Yasutake, K.~Hatano, S.~Kijima, E.~Takimoto, and M.~Takeda.
\newblock Online linear optimization over permutations.
\newblock In {\em International Symposium on Algorithms and Computation}, pages
  534--543. Springer, 2011.

\bibitem[Yellott(1977)]{yellott1977relationship}
J.~I. Yellott.
\newblock The relationship between luce's choice axiom, thurstone's theory of
  comparative judgment, and the double exponential distribution.
\newblock {\em Journal of Mathematical Psychology}, 15\penalty0 (2):\penalty0
  109--144, 1977.

\bibitem[Yi et~al.(2013)Yi, Jin, Jain, and Jain]{YJJJ13}
J.~Yi, R.~Jin, S.~Jain, and A.~Jain.
\newblock Inferring users’ preferences from crowdsourced pairwise
  comparisons: A matrix completion approach.
\newblock In {\em First AAAI Conference on Human Computation and
  Crowdsourcing}, 2013.

\bibitem[Young(1988)]{young1988condorcet}
H.~P. Young.
\newblock Condorcet's theory of voting.
\newblock {\em American Political Science Review}, 82\penalty0 (4):\penalty0
  1231--1244, 1988.

\bibitem[Young \& Levenglick(1978)Young and Levenglick]{young1978consistent}
H.~P. Young and A.~Levenglick.
\newblock A consistent extension of condorcet's election principle.
\newblock {\em SIAM Journal on applied Mathematics}, 35\penalty0 (2):\penalty0
  285--300, 1978.

\bibitem[Yu et~al.(2002)Yu, Lam, and Alvo]{YLA02}
P.~L.~H. Yu, K.~F. Lam, and M.~Alvo.
\newblock Nonparametric rank test for independence in opinion surveys.
\newblock {\em Australian Journal of Statistics}, 31:\penalty0 279--290, 2002.

\bibitem[Yu et~al.(2010)Yu, Wan, and Lee]{YWL10}
P.~L.~H. Yu, W.~M. Wan, and P.~H. Lee.
\newblock {\em Preference Learning}, chapter Decision tree modelling for
  ranking data, pages 83--106.
\newblock Springer, New York, 2010.

\bibitem[Yue et~al.(2012)Yue, Broder, Kleinberg, and Joachims]{yue2012k}
Y.~Yue, J.~Broder, R.~Kleinberg, and T.~Joachims.
\newblock The k-armed dueling bandits problem.
\newblock {\em Journal of Computer and System Sciences}, 78\penalty0
  (5):\penalty0 1538--1556, 2012.

\bibitem[Zamani et~al.(2014)Zamani, Shakery, and Moradi]{ZSM14}
H.~Zamani, A.~Shakery, and P.~Moradi.
\newblock Regression and learning to rank aggregation for user engagement
  evaluation.
\newblock In {\em Proceedings of the 2014 Recommender Systems Challenge},
  page~29. ACM, 2014.

\bibitem[Zhang \& Zhou(2007)Zhang and Zhou]{zhang2007ml}
M.~L. Zhang and Z.~H. Zhou.
\newblock Ml-knn: A lazy learning approach to multi-label learning.
\newblock {\em Pattern recognition}, 40\penalty0 (7):\penalty0 2038--2048,
  2007.

\bibitem[Zhao et~al.(2016)Zhao, Piech, and Xia]{zhao2016learning}
Z.~Zhao, P.~Piech, and L.~Xia.
\newblock Learning mixtures of plackett-luce models.
\newblock In {\em Proceedings of the 33nd International Conference on Machine
  Learning (ICML)}, pages 2906--2914, 2016.

\bibitem[Zhou et~al.(2014)Zhou, Liu, Yang, He, and Liu]{zhou2014taxonomy}
Y.~Zhou, Y.~Liu, J.~Yang, X.~He, and L.~Liu.
\newblock A taxonomy of label ranking algorithms.
\newblock {\em JCP}, 9\penalty0 (3):\penalty0 557--565, 2014.

\bibitem[Zhou \& Qiu(2016)Zhou and Qiu]{zhou2016random}
Y.~Zhou and G.~Qiu.
\newblock Random forest for label ranking.
\newblock {\em arXiv preprint arXiv:1608.07710}, 2016.

\bibitem[Zwicker(2008)]{Zwicker2008Consistency}
W.~S. Zwicker.
\newblock Consistency without neutrality in voting rules: When is a vote an
  average?
\newblock {\em Mathematical and Computer Modelling}, 48\penalty0 (9):\penalty0
  1357--1373, 2008.

\end{thebibliography}
