\relax 
\providecommand\hyper@newdestlabel[2]{}
\providecommand\HyperFirstAtBeginDocument{\AtBeginDocument}
\HyperFirstAtBeginDocument{\ifx\hyper@anchor\@undefined
\global\let\oldcontentsline\contentsline
\gdef\contentsline#1#2#3#4{\oldcontentsline{#1}{#2}{#3}}
\global\let\oldnewlabel\newlabel
\gdef\newlabel#1#2{\newlabelxx{#1}#2}
\gdef\newlabelxx#1#2#3#4#5#6{\oldnewlabel{#1}{{#2}{#3}}}
\AtEndDocument{\ifx\hyper@anchor\@undefined
\let\contentsline\oldcontentsline
\let\newlabel\oldnewlabel
\fi}
\fi}
\global\let\hyper@last\relax 
\gdef\HyperFirstAtBeginDocument#1{#1}
\providecommand\HyField@AuxAddToFields[1]{}
\providecommand\HyField@AuxAddToCoFields[2]{}
\citation{*}
\citation{*}
\bibstyle{unsrt}
\bibdata{mybib}
\bibcite{YL78}{{1}{}{{}}{{}}}
\bibcite{DKNS01}{{2}{}{{}}{{}}}
\bibcite{Jiao2015Kendall}{{3}{}{{}}{{}}}
\bibcite{Mattei2012empirical}{{4}{}{{}}{{}}}
\bibcite{Xia2015Generalized}{{5}{}{{}}{{}}}
\bibcite{Zwicker2008Consistency}{{6}{}{{}}{{}}}
\providecommand\NAT@force@numbers{}\NAT@force@numbers
\newlabel{eq:mean-embedding}{{}{2}{}{Doc-Start}{}}
