\relax 
\providecommand\hyper@newdestlabel[2]{}
\providecommand\HyperFirstAtBeginDocument{\AtBeginDocument}
\HyperFirstAtBeginDocument{\ifx\hyper@anchor\@undefined
\global\let\oldcontentsline\contentsline
\gdef\contentsline#1#2#3#4{\oldcontentsline{#1}{#2}{#3}}
\global\let\oldnewlabel\newlabel
\gdef\newlabel#1#2{\newlabelxx{#1}#2}
\gdef\newlabelxx#1#2#3#4#5#6{\oldnewlabel{#1}{{#2}{#3}}}
\AtEndDocument{\ifx\hyper@anchor\@undefined
\let\contentsline\oldcontentsline
\let\newlabel\oldnewlabel
\fi}
\fi}
\global\let\hyper@last\relax 
\gdef\HyperFirstAtBeginDocument#1{#1}
\providecommand*\HyPL@Entry[1]{}
\HyPL@Entry{0<</P(1)>>}
\@writefile{nav}{\headcommand {\slideentry {0}{0}{1}{1/1}{}{0}}}
\@writefile{nav}{\headcommand {\beamer@framepages {1}{1}}}
\HyPL@Entry{1<</P(2)>>}
\@writefile{nav}{\headcommand {\slideentry {0}{0}{2}{2/2}{}{0}}}
\@writefile{nav}{\headcommand {\beamer@framepages {2}{2}}}
\HyPL@Entry{2<</P(3)>>}
\@writefile{toc}{\beamer@sectionintoc {1}{Ranking Regression}{3}{0}{1}}
\@writefile{nav}{\headcommand {\beamer@sectionpages {1}{2}}}
\@writefile{nav}{\headcommand {\beamer@subsectionpages {1}{2}}}
\@writefile{nav}{\headcommand {\sectionentry {1}{Ranking Regression}{3}{Ranking Regression}{0}}}
\@writefile{nav}{\headcommand {\slideentry {1}{0}{1}{3/3}{}{0}}}
\@writefile{nav}{\headcommand {\beamer@framepages {3}{3}}}
\HyPL@Entry{3<</P(4)>>}
\@writefile{nav}{\headcommand {\slideentry {1}{0}{2}{4/9}{}{0}}}
\@writefile{nav}{\headcommand {\beamer@framepages {4}{9}}}
\citation{tsoumakas2009mining}
\citation{vembu2010label}
\citation{cheng2009new}
\citation{CHH09}
\citation{CDH10}
\citation{CKS17}
\HyPL@Entry{9<</P(5)>>}
\citation{tsoumakas2009mining}
\citation{vembu2010label}
\citation{cheng2009new}
\citation{CHH09}
\citation{CDH10}
\citation{CKS17}
\@writefile{nav}{\headcommand {\slideentry {1}{0}{3}{10/11}{}{0}}}
\@writefile{nav}{\headcommand {\beamer@framepages {10}{11}}}
\HyPL@Entry{11<</P(6)>>}
\@writefile{nav}{\headcommand {\slideentry {1}{0}{4}{12/12}{}{0}}}
\@writefile{nav}{\headcommand {\beamer@framepages {12}{12}}}
\HyPL@Entry{12<</P(7)>>}
\@writefile{nav}{\headcommand {\slideentry {1}{0}{5}{13/14}{}{0}}}
\@writefile{nav}{\headcommand {\beamer@framepages {13}{14}}}
\HyPL@Entry{14<</P(8)>>}
\@writefile{nav}{\headcommand {\slideentry {1}{0}{6}{15/16}{}{0}}}
\@writefile{nav}{\headcommand {\beamer@framepages {15}{16}}}
\HyPL@Entry{16<</P(9)>>}
\@writefile{nav}{\headcommand {\slideentry {1}{0}{7}{17/18}{}{0}}}
\@writefile{nav}{\headcommand {\beamer@framepages {17}{18}}}
\HyPL@Entry{18<</P(10)>>}
\@writefile{toc}{\beamer@sectionintoc {2}{Background on Ranking Aggregation/Medians}{19}{0}{2}}
\@writefile{nav}{\headcommand {\beamer@sectionpages {3}{18}}}
\@writefile{nav}{\headcommand {\beamer@subsectionpages {3}{18}}}
\@writefile{nav}{\headcommand {\sectionentry {2}{Background on Ranking Aggregation/Medians}{19}{Background on Ranking Aggregation/Medians}{0}}}
\@writefile{nav}{\headcommand {\slideentry {2}{0}{1}{19/19}{}{0}}}
\@writefile{nav}{\headcommand {\beamer@framepages {19}{19}}}
\HyPL@Entry{19<</P(11)>>}
\@writefile{nav}{\headcommand {\slideentry {2}{0}{2}{20/23}{}{0}}}
\@writefile{nav}{\headcommand {\beamer@framepages {20}{23}}}
\citation{CKS17}
\HyPL@Entry{23<</P(12)>>}
\@writefile{snm}{\beamer@slide {eq:Kemeny_median}{24}}
\newlabel{eq:Kemeny_median}{{1}{24}{Background on Ranking Aggregation/Medians}{Doc-Start}{}}
\citation{CKS17}
\@writefile{nav}{\headcommand {\slideentry {2}{0}{3}{24/25}{}{0}}}
\@writefile{nav}{\headcommand {\beamer@framepages {24}{25}}}
\citation{AudTsy07}
\citation{CKS17}
\HyPL@Entry{25<</P(13)>>}
\citation{AudTsy07}
\citation{CKS17}
\citation{AudTsy07}
\citation{CKS17}
\citation{AudTsy07}
\citation{CKS17}
\citation{AudTsy07}
\citation{CKS17}
\citation{AudTsy07}
\citation{CKS17}
\@writefile{nav}{\headcommand {\slideentry {2}{0}{4}{26/31}{}{0}}}
\@writefile{nav}{\headcommand {\beamer@framepages {26}{31}}}
\HyPL@Entry{31<</P(14)>>}
\@writefile{nav}{\headcommand {\slideentry {2}{0}{5}{32/32}{}{0}}}
\@writefile{nav}{\headcommand {\beamer@framepages {32}{32}}}
\HyPL@Entry{32<</P(15)>>}
\@writefile{toc}{\beamer@sectionintoc {3}{Risk Minimization for Ranking (Median) Regression}{33}{0}{3}}
\@writefile{nav}{\headcommand {\beamer@sectionpages {19}{32}}}
\@writefile{nav}{\headcommand {\beamer@subsectionpages {19}{32}}}
\@writefile{nav}{\headcommand {\sectionentry {3}{Risk Minimization for Ranking (Median) Regression}{33}{Risk Minimization for Ranking (Median) Regression}{0}}}
\@writefile{nav}{\headcommand {\slideentry {3}{0}{1}{33/33}{}{0}}}
\@writefile{nav}{\headcommand {\beamer@framepages {33}{33}}}
\HyPL@Entry{33<</P(16)>>}
\@writefile{nav}{\headcommand {\slideentry {3}{0}{2}{34/35}{}{0}}}
\@writefile{nav}{\headcommand {\beamer@framepages {34}{35}}}
\HyPL@Entry{35<</P(17)>>}
\@writefile{nav}{\headcommand {\slideentry {3}{0}{3}{36/38}{}{0}}}
\@writefile{nav}{\headcommand {\beamer@framepages {36}{38}}}
\HyPL@Entry{38<</P(18)>>}
\@writefile{nav}{\headcommand {\slideentry {3}{0}{4}{39/40}{}{0}}}
\@writefile{nav}{\headcommand {\beamer@framepages {39}{40}}}
\HyPL@Entry{40<</P(19)>>}
\@writefile{nav}{\headcommand {\slideentry {3}{0}{5}{41/41}{}{0}}}
\@writefile{nav}{\headcommand {\beamer@framepages {41}{41}}}
\HyPL@Entry{41<</P(20)>>}
\@writefile{toc}{\beamer@sectionintoc {4}{Algorithms - Local Median Methods}{42}{0}{4}}
\@writefile{nav}{\headcommand {\beamer@sectionpages {33}{41}}}
\@writefile{nav}{\headcommand {\beamer@subsectionpages {33}{41}}}
\@writefile{nav}{\headcommand {\sectionentry {4}{Algorithms - Local Median Methods}{42}{Algorithms - Local Median Methods}{0}}}
\@writefile{nav}{\headcommand {\slideentry {4}{0}{1}{42/42}{}{0}}}
\@writefile{nav}{\headcommand {\beamer@framepages {42}{42}}}
\HyPL@Entry{42<</P(21)>>}
\@writefile{nav}{\headcommand {\slideentry {4}{0}{2}{43/44}{}{0}}}
\@writefile{nav}{\headcommand {\beamer@framepages {43}{44}}}
\HyPL@Entry{44<</P(22)>>}
\@writefile{nav}{\headcommand {\slideentry {4}{0}{3}{45/45}{}{0}}}
\@writefile{nav}{\headcommand {\beamer@framepages {45}{45}}}
\citation{alvo2014decision}
\HyPL@Entry{45<</P(23)>>}
\citation{alvo2014decision}
\@writefile{nav}{\headcommand {\slideentry {4}{0}{4}{46/47}{}{0}}}
\@writefile{nav}{\headcommand {\beamer@framepages {46}{47}}}
\HyPL@Entry{47<</P(24)>>}
\@writefile{nav}{\headcommand {\slideentry {4}{0}{5}{48/48}{}{0}}}
\@writefile{nav}{\headcommand {\beamer@framepages {48}{48}}}
\bibstyle{apalike}
\bibdata{biblio}
\bibcite{alvo2014decision}{\hyperlink {beamerbibalvo2014decision}{Alvo and Philip, 2014}}
\bibcite{AudTsy07}{\hyperlink {beamerbibAudTsy07}{Audibert and Tsybakov, 2007}}
\bibcite{CDH10}{\hyperlink {beamerbibCDH10}{Cheng et\nobreakspace  {}al., 2010}}
\bibcite{CHH09}{\hyperlink {beamerbibCHH09}{Cheng et\nobreakspace  {}al., 2009}}
\bibcite{cheng2009new}{\hyperlink {beamerbibcheng2009new}{Cheng and H{\"u}llermeier, 2009}}
\HyPL@Entry{48<</S/D /St 49>>}
\bibcite{jiang2011statistical}{\hyperlink {beamerbibjiang2011statistical}{Jiang et\nobreakspace  {}al., 2011}}
\bibcite{CKS17}{\hyperlink {beamerbibCKS17}{Korba et\nobreakspace  {}al., 2017}}
\bibcite{tsoumakas2009mining}{\hyperlink {beamerbibtsoumakas2009mining}{Tsoumakas et\nobreakspace  {}al., 2009}}
\bibcite{vembu2010label}{\hyperlink {beamerbibvembu2010label}{Vembu and G{\"a}rtner, 2010}}
\citation{jiang2011statistical}
\HyPL@Entry{49<</P(25)>>}
\HyPL@Entry{50<</S/D /St 51>>}
\citation{jiang2011statistical}
\HyPL@Entry{51<</P(25)>>}
\@writefile{nav}{\headcommand {\slideentry {4}{0}{6}{50/52}{}{0}}}
\@writefile{nav}{\headcommand {\beamer@framepages {50}{52}}}
\HyPL@Entry{52<</P(26)>>}
\@writefile{nav}{\headcommand {\slideentry {4}{0}{7}{53/53}{}{0}}}
\@writefile{nav}{\headcommand {\beamer@framepages {53}{53}}}
\@writefile{nav}{\headcommand {\beamer@partpages {1}{53}}}
\@writefile{nav}{\headcommand {\beamer@subsectionpages {42}{53}}}
\@writefile{nav}{\headcommand {\beamer@sectionpages {42}{53}}}
\@writefile{nav}{\headcommand {\beamer@documentpages {53}}}
\@writefile{nav}{\headcommand {\gdef \inserttotalframenumber {26}}}
