\beamer@sectionintoc {1}{Ranking Regression}{3}{0}{1}
\beamer@sectionintoc {2}{Background on Ranking Aggregation/Medians}{19}{0}{2}
\beamer@sectionintoc {3}{Risk Minimization for Ranking (Median) Regression}{33}{0}{3}
\beamer@sectionintoc {4}{Algorithms - Local Median Methods}{42}{0}{4}
