\relax 
\providecommand\hyper@newdestlabel[2]{}
\providecommand\HyperFirstAtBeginDocument{\AtBeginDocument}
\HyperFirstAtBeginDocument{\ifx\hyper@anchor\@undefined
\global\let\oldcontentsline\contentsline
\gdef\contentsline#1#2#3#4{\oldcontentsline{#1}{#2}{#3}}
\global\let\oldnewlabel\newlabel
\gdef\newlabel#1#2{\newlabelxx{#1}#2}
\gdef\newlabelxx#1#2#3#4#5#6{\oldnewlabel{#1}{{#2}{#3}}}
\AtEndDocument{\ifx\hyper@anchor\@undefined
\let\contentsline\oldcontentsline
\let\newlabel\oldnewlabel
\fi}
\fi}
\global\let\hyper@last\relax 
\gdef\HyperFirstAtBeginDocument#1{#1}
\providecommand\HyField@AuxAddToFields[1]{}
\providecommand\HyField@AuxAddToCoFields[2]{}
\select@language{english}
\@writefile{toc}{\select@language{english}}
\@writefile{lof}{\select@language{english}}
\@writefile{lot}{\select@language{english}}
\@writefile{toc}{\contentsline {section}{\numberline {1}Introduction}{1}{section.1}}
\@writefile{toc}{\contentsline {section}{\numberline {2}Background on Rankings}{1}{section.2}}
\@writefile{toc}{\contentsline {subsection}{\numberline {2.1}Rankings - Definition}{1}{subsection.2.1}}
\newlabel{definition}{{2.1}{1}{Rankings - Definition}{subsection.2.1}{}}
\citation{kondor2010ranking}
\citation{lebanon2007non}
\citation{deza2009encyclopedia}
\@writefile{toc}{\contentsline {subsection}{\numberline {2.2}Distances on rankings}{2}{subsection.2.2}}
\newlabel{distances}{{2.2}{2}{Distances on rankings}{subsection.2.2}{}}
\@writefile{toc}{\contentsline {subsection}{\numberline {2.3}Harmonic analysis on $L(\mathfrak  {S}_n)$}{3}{subsection.2.3}}
\newlabel{sec:harmonic_analysis}{{2.3}{3}{Harmonic analysis on $L(\mathfrak {S}_n)$}{subsection.2.3}{}}
\@writefile{toc}{\contentsline {section}{\numberline {3}Incomplete rankings}{4}{section.3}}
\@writefile{toc}{\contentsline {subsection}{\numberline {3.1}The consistency assumption}{5}{subsection.3.1}}
\newlabel{ranking_assumption}{{3}{5}{The consistency assumption}{equation.3.3}{}}
\@writefile{toc}{\contentsline {subsection}{\numberline {3.2}Statistical setting}{5}{subsection.3.2}}
\citation{clemenccon2014multiresolution}
\@writefile{toc}{\contentsline {subsection}{\numberline {3.3}General MRA-based approach}{6}{subsection.3.3}}
\newlabel{MRA_decomposition}{{3.3}{6}{General MRA-based approach}{subsection.3.3}{}}
\@writefile{toc}{\contentsline {section}{\numberline {4}Ranking aggregation}{7}{section.4}}
\newlabel{sec:ranking_aggregation}{{4}{7}{Ranking aggregation}{section.4}{}}
\@writefile{toc}{\contentsline {subsection}{\numberline {4.1}Kemeny's consensus}{7}{subsection.4.1}}
\citation{young1978consistent}
\@writefile{toc}{\contentsline {subsection}{\numberline {4.2}Ranking aggregation with Kendall and Hamming distances}{8}{subsection.4.2}}
\@writefile{toc}{\contentsline {subsubsection}{\numberline {4.2.1}Positional Scoring rules: Borda count}{8}{subsubsection.4.2.1}}
\citation{coppersmith2006ordering}
\@writefile{toc}{\contentsline {subsection}{\numberline {4.3}Information Levels}{9}{subsection.4.3}}
\citation{gormley2008mixture}
\@writefile{toc}{\contentsline {section}{\numberline {5}Axis 2: Ranking Aggregation With Incomplete Rankings}{10}{section.5}}
\newlabel{consensus_cost}{{4}{10}{Axis 2: Ranking Aggregation With Incomplete Rankings}{equation.5.4}{}}
\newlabel{consensus_cost_on_A}{{5}{10}{Axis 2: Ranking Aggregation With Incomplete Rankings}{equation.5.5}{}}
\@writefile{loa}{\contentsline {algorithm}{\numberline {1}{\ignorespaces Consensus\relax }}{11}{algorithm.1}}
\providecommand*\caption@xref[2]{\@setref\relax\@undefined{#1}}
\newlabel{Consensus}{{1}{11}{Consensus\relax }{algorithm.1}{}}
\@writefile{toc}{\contentsline {section}{\numberline {6}Experiments}{11}{section.6}}
\@writefile{toc}{\contentsline {subsection}{\numberline {6.1}Noise influence}{11}{subsection.6.1}}
\citation{*}
\@writefile{toc}{\contentsline {subsection}{\numberline {6.2}Evaluating the Distance Measures}{12}{subsection.6.2}}
\@writefile{toc}{\contentsline {section}{\numberline {7}Variants}{12}{section.7}}
\bibstyle{unsrt}
\bibdata{ref}
\bibcite{dwork2001rank}{{1}{}{{}}{{}}}
\bibcite{fagin2003efficient}{{2}{}{{}}{{}}}
\providecommand\NAT@force@numbers{}\NAT@force@numbers
