\relax 
\providecommand\hyper@newdestlabel[2]{}
\providecommand\HyperFirstAtBeginDocument{\AtBeginDocument}
\HyperFirstAtBeginDocument{\ifx\hyper@anchor\@undefined
\global\let\oldcontentsline\contentsline
\gdef\contentsline#1#2#3#4{\oldcontentsline{#1}{#2}{#3}}
\global\let\oldnewlabel\newlabel
\gdef\newlabel#1#2{\newlabelxx{#1}#2}
\gdef\newlabelxx#1#2#3#4#5#6{\oldnewlabel{#1}{{#2}{#3}}}
\AtEndDocument{\ifx\hyper@anchor\@undefined
\let\contentsline\oldcontentsline
\let\newlabel\oldnewlabel
\fi}
\fi}
\global\let\hyper@last\relax 
\gdef\HyperFirstAtBeginDocument#1{#1}
\providecommand\HyField@AuxAddToFields[1]{}
\providecommand\HyField@AuxAddToCoFields[2]{}
\citation{borda1781memoire}
\citation{condorcet1785marie}
\citation{arrow1950difficulty}
\citation{dwork2001rank}
\citation{renda2003web}
\citation{desarkar2016preference}
\select@language{english}
\@writefile{toc}{\select@language{english}}
\@writefile{lof}{\select@language{english}}
\@writefile{lot}{\select@language{english}}
\@writefile{toc}{\contentsline {section}{\numberline {1}Introduction}{1}{section.1}}
\@writefile{toc}{\contentsline {section}{\numberline {2}Background on Rankings}{1}{section.2}}
\@writefile{toc}{\contentsline {subsection}{\numberline {2.1}Why ranking data?}{1}{subsection.2.1}}
\@writefile{toc}{\contentsline {subsection}{\numberline {2.2}Rankings - Definition}{1}{subsection.2.2}}
\newlabel{definition}{{2.2}{1}{Rankings - Definition}{subsection.2.2}{}}
\@writefile{toc}{\contentsline {subsection}{\numberline {2.3}Distances on rankings}{2}{subsection.2.3}}
\newlabel{distances}{{2.3}{2}{Distances on rankings}{subsection.2.3}{}}
\citation{deza2009encyclopedia}
\@writefile{toc}{\contentsline {subsection}{\numberline {2.4}Related work}{3}{subsection.2.4}}
\@writefile{toc}{\contentsline {subsection}{\numberline {2.5}Probabilistic modeling on rankings}{3}{subsection.2.5}}
\@writefile{toc}{\contentsline {subsubsection}{\numberline {2.5.1}Mallows model}{4}{subsubsection.2.5.1}}
\newlabel{sec:mallows}{{2.5.1}{4}{Mallows model}{subsubsection.2.5.1}{}}
\@writefile{toc}{\contentsline {subsubsection}{\numberline {2.5.2}Thurstone model}{4}{subsubsection.2.5.2}}
\@writefile{toc}{\contentsline {subsubsection}{\numberline {2.5.3}Bradley-Terry and Plackett-Luce models}{4}{subsubsection.2.5.3}}
\citation{Hunter04}
\citation{marden1995analyzing}
\citation{yellott1977relationship}
\citation{Hunter04}
\newlabel{eq:eq_plackett}{{1}{5}{Bradley-Terry and Plackett-Luce models}{equation.2.1}{}}
\@writefile{toc}{\contentsline {subsubsection}{\numberline {2.5.4}"Non-parametric" approaches}{5}{subsubsection.2.5.4}}
\newlabel{sec:other_models}{{2.5.4}{5}{"Non-parametric" approaches}{subsubsection.2.5.4}{}}
\citation{huang2009fourier}
\citation{kondor2010ranking}
\citation{lebanon2007non}
\citation{sun2012estimating}
\@writefile{toc}{\contentsline {section}{\numberline {3}Analysis of full rankings}{7}{section.3}}
\newlabel{sec:full_rankings}{{3}{7}{Analysis of full rankings}{section.3}{}}
\@writefile{toc}{\contentsline {subsection}{\numberline {3.1}Notations and challenges}{7}{subsection.3.1}}
\citation{diaconis1988group}
\citation{huang2009fourier}
\citation{kondor2010ranking}
\citation{kakarala2011signal}
\@writefile{toc}{\contentsline {subsection}{\numberline {3.2}Harmonic analysis on $L(\mathfrak  {S}_n)$}{8}{subsection.3.2}}
\newlabel{sec:harmonic_analysis}{{3.2}{8}{Harmonic analysis on $L(\mathfrak {S}_n)$}{subsection.3.2}{}}
\citation{kondor2010ranking}
\citation{lebanon2007non}
\@writefile{toc}{\contentsline {section}{\numberline {4}Incomplete rankings}{9}{section.4}}
\@writefile{toc}{\contentsline {subsection}{\numberline {4.1}The consistency assumption}{9}{subsection.4.1}}
\newlabel{ranking_assumption}{{4}{10}{The consistency assumption}{equation.4.4}{}}
\@writefile{toc}{\contentsline {subsection}{\numberline {4.2}Statistical setting}{10}{subsection.4.2}}
\citation{clemenccon2014multiresolution}
\@writefile{toc}{\contentsline {section}{\numberline {5}General MRA-based approach}{11}{section.5}}
\newlabel{sec:mra_framework}{{5}{11}{General MRA-based approach}{section.5}{}}
\@writefile{toc}{\contentsline {section}{\numberline {6}Link between Fourier and MRA - Information Levels}{12}{section.6}}
\citation{herbrich2007trueskill}
\citation{dwork2001rank}
\citation{negahban2012iterative}
\citation{bradley1952rank}
\citation{luce2005individual}
\citation{herbrich2007trueskill}
\citation{sarkar2014robust}
\@writefile{toc}{\contentsline {section}{\numberline {7}Pairwise comparisons}{13}{section.7}}
\@writefile{toc}{\contentsline {section}{\numberline {8}Ranking aggregation}{13}{section.8}}
\newlabel{sec:ranking_aggregation}{{8}{13}{Ranking aggregation}{section.8}{}}
\citation{kenyon2007rank}
\citation{young1978consistent}
\@writefile{toc}{\contentsline {subsection}{\numberline {8.1}Kemeny's consensus}{14}{subsection.8.1}}
\@writefile{toc}{\contentsline {subsubsection}{\numberline {8.1.1}Positional Scoring rules}{14}{subsubsection.8.1.1}}
\citation{coppersmith2006ordering}
\citation{page1999pagerank}
\citation{dwork2001rank}
\citation{negahban2012iterative}
\providecommand*\caption@xref[2]{\@setref\relax\@undefined{#1}}
\newlabel{fig:borda_condorcet}{{\caption@xref {fig:borda_condorcet}{ on input line 659}}{15}{Positional Scoring rules}{figure.caption.1}{}}
\@writefile{toc}{\contentsline {subsection}{\numberline {8.2}Spectral methods}{15}{subsection.8.2}}
\citation{dwork2001rank}
\citation{dwork2001rank}
\citation{dwork2001rank}
\citation{herbrich2007trueskill}
\citation{luce2005individual}
\citation{bradley1952rank}
\citation{fagin2003efficient}
\@writefile{toc}{\contentsline {subsection}{\numberline {8.3}Maximum likelihood estimation}{16}{subsection.8.3}}
\citation{negahban2012iterative}
\citation{jamieson2011active}
\citation{ailon2012active}
\bibstyle{apalike}
\bibdata{ref}
\bibcite{ailon2012active}{{1}{2012}{{Ailon}}{{}}}
\bibcite{arrow1950difficulty}{{2}{1950}{{Arrow}}{{}}}
\bibcite{borda1781memoire}{{3}{1781}{{Borda}}{{}}}
\bibcite{bradley1952rank}{{4}{1952}{{Bradley and Terry}}{{}}}
\bibcite{clemenccon2014multiresolution}{{5}{2014}{{Cl{\'e}men{\c {c}}on et~al.}}{{}}}
\bibcite{condorcet1785marie}{{6}{1785}{{Condorcet}}{{}}}
\bibcite{coppersmith2006ordering}{{7}{2006}{{Coppersmith et~al.}}{{}}}
\bibcite{desarkar2016preference}{{8}{2016}{{Desarkar et~al.}}{{}}}
\@writefile{toc}{\contentsline {subsection}{\numberline {8.4}Median Rank Aggregation}{17}{subsection.8.4}}
\@writefile{toc}{\contentsline {subsection}{\numberline {8.5}Current tradeoffs}{17}{subsection.8.5}}
\@writefile{toc}{\contentsline {section}{\numberline {9}Other frameworks}{17}{section.9}}
\bibcite{deza2009encyclopedia}{{9}{2009}{{Deza and Deza}}{{}}}
\bibcite{diaconis1988group}{{10}{1988}{{Diaconis}}{{}}}
\bibcite{dwork2001rank}{{11}{2001}{{Dwork et~al.}}{{}}}
\bibcite{herbrich2007trueskill}{{12}{2007}{{Herbrich et~al.}}{{}}}
\bibcite{huang2009fourier}{{13}{2009}{{Huang et~al.}}{{}}}
\bibcite{Hunter04}{{14}{2004}{{Hunter}}{{}}}
\bibcite{jamieson2011active}{{15}{2011}{{Jamieson and Nowak}}{{}}}
\bibcite{kakarala2011signal}{{16}{2011}{{Kakarala}}{{}}}
\bibcite{kenyon2007rank}{{17}{2007}{{Kenyon-Mathieu and Schudy}}{{}}}
\bibcite{kondor2010ranking}{{18}{2010}{{Kondor and Barbosa}}{{}}}
\bibcite{lebanon2007non}{{19}{2007}{{Lebanon and Mao}}{{}}}
\bibcite{luce2005individual}{{20}{2005}{{Luce}}{{}}}
\bibcite{marden1995analyzing}{{21}{1995}{{Marden}}{{}}}
\bibcite{negahban2012iterative}{{22}{2012}{{Negahban et~al.}}{{}}}
\bibcite{page1999pagerank}{{23}{1999}{{Page et~al.}}{{}}}
\bibcite{renda2003web}{{24}{2003}{{Renda and Straccia}}{{}}}
\bibcite{sarkar2014robust}{{25}{2014}{{Sarkar et~al.}}{{}}}
\bibcite{sun2012estimating}{{26}{2012}{{Sun et~al.}}{{}}}
\bibcite{yellott1977relationship}{{27}{1977}{{Yellott}}{{}}}
\bibcite{young1978consistent}{{28}{1978}{{Young and Levenglick}}{{}}}
