\relax 
\bibstyle{ieee}
\bibcite{Audibert1}{1}
\bibcite{KB05}{2}
\pgfsyspdfmark {pgfid1}{1780200}{797160}
\newlabel{eq:ERM1}{{1}{2}}
\newlabel{eq:cond_opt}{{2}{2}}
\newlabel{remark:borda}{{1}{2}}
\newlabel{prop:ERM}{{2}{2}}
\newlabel{eq:minimax}{{3}{2}}
\newlabel{prop:minimax_bound}{{3}{2}}
\newlabel{prop:low_noise}{{4}{2}}
\newlabel{prop:lower_bound_low_noise}{{5}{2}}
\newlabel{eq:minimax_lownoise}{{4}{2}}
