\beamer@sectionintoc {1}{Ranking Regression}{3}{0}{1}
\beamer@sectionintoc {2}{Background and Results on Ranking Aggregation}{14}{0}{2}
\beamer@sectionintoc {3}{Risk Minimization for Ranking (Median) Regression}{27}{0}{3}
\beamer@sectionintoc {4}{Algorithms - Local Median Methods}{36}{0}{4}
