\relax 
\providecommand\hyper@newdestlabel[2]{}
\providecommand\HyperFirstAtBeginDocument{\AtBeginDocument}
\HyperFirstAtBeginDocument{\ifx\hyper@anchor\@undefined
\global\let\oldcontentsline\contentsline
\gdef\contentsline#1#2#3#4{\oldcontentsline{#1}{#2}{#3}}
\global\let\oldnewlabel\newlabel
\gdef\newlabel#1#2{\newlabelxx{#1}#2}
\gdef\newlabelxx#1#2#3#4#5#6{\oldnewlabel{#1}{{#2}{#3}}}
\AtEndDocument{\ifx\hyper@anchor\@undefined
\let\contentsline\oldcontentsline
\let\newlabel\oldnewlabel
\fi}
\fi}
\global\let\hyper@last\relax 
\gdef\HyperFirstAtBeginDocument#1{#1}
\providecommand*\HyPL@Entry[1]{}
\HyPL@Entry{0<</P(1)>>}
\@writefile{nav}{\headcommand {\slideentry {0}{0}{1}{1/1}{}{0}}}
\@writefile{nav}{\headcommand {\beamer@framepages {1}{1}}}
\HyPL@Entry{1<</P(2)>>}
\@writefile{nav}{\headcommand {\slideentry {0}{0}{2}{2/2}{}{0}}}
\@writefile{nav}{\headcommand {\beamer@framepages {2}{2}}}
\HyPL@Entry{2<</P(3)>>}
\@writefile{toc}{\beamer@sectionintoc {1}{Ranking Regression}{3}{0}{1}}
\@writefile{nav}{\headcommand {\beamer@sectionpages {1}{2}}}
\@writefile{nav}{\headcommand {\beamer@subsectionpages {1}{2}}}
\@writefile{nav}{\headcommand {\sectionentry {1}{Ranking Regression}{3}{Ranking Regression}{0}}}
\@writefile{nav}{\headcommand {\slideentry {1}{0}{1}{3/3}{}{0}}}
\@writefile{nav}{\headcommand {\beamer@framepages {3}{3}}}
\HyPL@Entry{3<</P(4)>>}
\@writefile{nav}{\headcommand {\slideentry {1}{0}{2}{4/6}{}{0}}}
\@writefile{nav}{\headcommand {\beamer@framepages {4}{6}}}
\citation{tsoumakas2009mining}
\citation{vembu2010label}
\citation{cheng2009new}
\citation{CHH09}
\citation{CDH10}
\citation{CKS17}
\HyPL@Entry{6<</P(5)>>}
\citation{tsoumakas2009mining}
\citation{vembu2010label}
\citation{cheng2009new}
\citation{CHH09}
\citation{CDH10}
\citation{CKS17}
\@writefile{nav}{\headcommand {\slideentry {1}{0}{3}{7/8}{}{0}}}
\@writefile{nav}{\headcommand {\beamer@framepages {7}{8}}}
\HyPL@Entry{8<</P(6)>>}
\@writefile{nav}{\headcommand {\slideentry {1}{0}{4}{9/9}{}{0}}}
\@writefile{nav}{\headcommand {\beamer@framepages {9}{9}}}
\HyPL@Entry{9<</P(7)>>}
\@writefile{nav}{\headcommand {\slideentry {1}{0}{5}{10/11}{}{0}}}
\@writefile{nav}{\headcommand {\beamer@framepages {10}{11}}}
\HyPL@Entry{11<</P(8)>>}
\@writefile{nav}{\headcommand {\slideentry {1}{0}{6}{12/13}{}{0}}}
\@writefile{nav}{\headcommand {\beamer@framepages {12}{13}}}
\HyPL@Entry{13<</P(9)>>}
\@writefile{toc}{\beamer@sectionintoc {2}{Background and Results on Ranking Aggregation}{14}{0}{2}}
\@writefile{nav}{\headcommand {\beamer@sectionpages {3}{13}}}
\@writefile{nav}{\headcommand {\beamer@subsectionpages {3}{13}}}
\@writefile{nav}{\headcommand {\sectionentry {2}{Background and Results on Ranking Aggregation}{14}{Background and Results on Ranking Aggregation}{0}}}
\@writefile{nav}{\headcommand {\slideentry {2}{0}{1}{14/14}{}{0}}}
\@writefile{nav}{\headcommand {\beamer@framepages {14}{14}}}
\HyPL@Entry{14<</P(10)>>}
\@writefile{nav}{\headcommand {\slideentry {2}{0}{2}{15/17}{}{0}}}
\@writefile{nav}{\headcommand {\beamer@framepages {15}{17}}}
\citation{CKS17}
\HyPL@Entry{17<</P(11)>>}
\@writefile{snm}{\beamer@slide {eq:Kemeny_median}{18}}
\newlabel{eq:Kemeny_median}{{1}{18}{Background and Results on Ranking Aggregation}{Doc-Start}{}}
\citation{CKS17}
\@writefile{nav}{\headcommand {\slideentry {2}{0}{3}{18/19}{}{0}}}
\@writefile{nav}{\headcommand {\beamer@framepages {18}{19}}}
\citation{CKS17}
\HyPL@Entry{19<</P(12)>>}
\citation{CKS17}
\citation{CKS17}
\citation{CKS17}
\citation{CKS17}
\citation{CKS17}
\@writefile{nav}{\headcommand {\slideentry {2}{0}{4}{20/25}{}{0}}}
\@writefile{nav}{\headcommand {\beamer@framepages {20}{25}}}
\HyPL@Entry{25<</P(13)>>}
\@writefile{nav}{\headcommand {\slideentry {2}{0}{5}{26/26}{}{0}}}
\@writefile{nav}{\headcommand {\beamer@framepages {26}{26}}}
\HyPL@Entry{26<</P(14)>>}
\@writefile{toc}{\beamer@sectionintoc {3}{Risk Minimization for Ranking (Median) Regression}{27}{0}{3}}
\@writefile{nav}{\headcommand {\beamer@sectionpages {14}{26}}}
\@writefile{nav}{\headcommand {\beamer@subsectionpages {14}{26}}}
\@writefile{nav}{\headcommand {\sectionentry {3}{Risk Minimization for Ranking (Median) Regression}{27}{Risk Minimization for Ranking (Median) Regression}{0}}}
\@writefile{nav}{\headcommand {\slideentry {3}{0}{1}{27/27}{}{0}}}
\@writefile{nav}{\headcommand {\beamer@framepages {27}{27}}}
\HyPL@Entry{27<</P(15)>>}
\@writefile{nav}{\headcommand {\slideentry {3}{0}{2}{28/28}{}{0}}}
\@writefile{nav}{\headcommand {\beamer@framepages {28}{28}}}
\HyPL@Entry{28<</P(16)>>}
\@writefile{snm}{\beamer@slide {eq:risk_theo}{29}}
\newlabel{eq:risk_theo}{{2}{29}{Risk Minimization for Ranking (Median) Regression}{Doc-Start}{}}
\@writefile{nav}{\headcommand {\slideentry {3}{0}{3}{29/31}{}{0}}}
\@writefile{nav}{\headcommand {\beamer@framepages {29}{31}}}
\HyPL@Entry{31<</P(17)>>}
\@writefile{nav}{\headcommand {\slideentry {3}{0}{4}{32/33}{}{0}}}
\@writefile{nav}{\headcommand {\beamer@framepages {32}{33}}}
\HyPL@Entry{33<</P(18)>>}
\@writefile{nav}{\headcommand {\slideentry {3}{0}{5}{34/35}{}{0}}}
\@writefile{nav}{\headcommand {\beamer@framepages {34}{35}}}
\HyPL@Entry{35<</P(19)>>}
\@writefile{toc}{\beamer@sectionintoc {4}{Algorithms - Local Median Methods}{36}{0}{4}}
\@writefile{nav}{\headcommand {\beamer@sectionpages {27}{35}}}
\@writefile{nav}{\headcommand {\beamer@subsectionpages {27}{35}}}
\@writefile{nav}{\headcommand {\sectionentry {4}{Algorithms - Local Median Methods}{36}{Algorithms - Local Median Methods}{0}}}
\@writefile{nav}{\headcommand {\slideentry {4}{0}{1}{36/36}{}{0}}}
\@writefile{nav}{\headcommand {\beamer@framepages {36}{36}}}
\HyPL@Entry{36<</P(20)>>}
\@writefile{nav}{\headcommand {\slideentry {4}{0}{2}{37/38}{}{0}}}
\@writefile{nav}{\headcommand {\beamer@framepages {37}{38}}}
\HyPL@Entry{38<</P(21)>>}
\@writefile{nav}{\headcommand {\slideentry {4}{0}{3}{39/39}{}{0}}}
\@writefile{nav}{\headcommand {\beamer@framepages {39}{39}}}
\citation{alvo2014decision}
\HyPL@Entry{39<</P(22)>>}
\citation{alvo2014decision}
\@writefile{nav}{\headcommand {\slideentry {4}{0}{4}{40/41}{}{0}}}
\@writefile{nav}{\headcommand {\beamer@framepages {40}{41}}}
\HyPL@Entry{41<</P(23)>>}
\@writefile{nav}{\headcommand {\slideentry {4}{0}{5}{42/42}{}{0}}}
\@writefile{nav}{\headcommand {\beamer@framepages {42}{42}}}
\bibstyle{apalike}
\bibdata{biblio}
\bibcite{alvo2014decision}{\hyperlink {beamerbibalvo2014decision}{Alvo and Philip, 2014}}
\bibcite{CDH10}{\hyperlink {beamerbibCDH10}{Cheng et\nobreakspace  {}al., 2010}}
\bibcite{CHH09}{\hyperlink {beamerbibCHH09}{Cheng et\nobreakspace  {}al., 2009}}
\bibcite{cheng2009new}{\hyperlink {beamerbibcheng2009new}{Cheng and H{\"u}llermeier, 2009}}
\bibcite{jiang2011statistical}{\hyperlink {beamerbibjiang2011statistical}{Jiang et\nobreakspace  {}al., 2011}}
\HyPL@Entry{42<</S/D /St 43>>}
\bibcite{CKS17}{\hyperlink {beamerbibCKS17}{Korba et\nobreakspace  {}al., 2017}}
\bibcite{tsoumakas2009mining}{\hyperlink {beamerbibtsoumakas2009mining}{Tsoumakas et\nobreakspace  {}al., 2009}}
\bibcite{vembu2010label}{\hyperlink {beamerbibvembu2010label}{Vembu and G{\"a}rtner, 2010}}
\citation{jiang2011statistical}
\HyPL@Entry{43<</P(24)>>}
\HyPL@Entry{44<</S/D /St 45>>}
\citation{jiang2011statistical}
\HyPL@Entry{45<</P(24)>>}
\@writefile{nav}{\headcommand {\slideentry {4}{0}{6}{44/46}{}{0}}}
\@writefile{nav}{\headcommand {\beamer@framepages {44}{46}}}
\@writefile{nav}{\headcommand {\beamer@partpages {1}{46}}}
\@writefile{nav}{\headcommand {\beamer@subsectionpages {36}{46}}}
\@writefile{nav}{\headcommand {\beamer@sectionpages {36}{46}}}
\@writefile{nav}{\headcommand {\beamer@documentpages {46}}}
\@writefile{nav}{\headcommand {\gdef \inserttotalframenumber {24}}}
