\headcommand {\slideentry {0}{0}{1}{1/1}{}{0}}
\headcommand {\beamer@framepages {1}{1}}
\headcommand {\slideentry {0}{0}{2}{2/2}{}{0}}
\headcommand {\beamer@framepages {2}{2}}
\headcommand {\beamer@sectionpages {1}{2}}
\headcommand {\beamer@subsectionpages {1}{2}}
\headcommand {\sectionentry {1}{Ranking Regression}{3}{Ranking Regression}{0}}
\headcommand {\slideentry {1}{0}{1}{3/3}{}{0}}
\headcommand {\beamer@framepages {3}{3}}
\headcommand {\slideentry {1}{0}{2}{4/6}{}{0}}
\headcommand {\beamer@framepages {4}{6}}
\headcommand {\slideentry {1}{0}{3}{7/8}{}{0}}
\headcommand {\beamer@framepages {7}{8}}
\headcommand {\slideentry {1}{0}{4}{9/9}{}{0}}
\headcommand {\beamer@framepages {9}{9}}
\headcommand {\slideentry {1}{0}{5}{10/11}{}{0}}
\headcommand {\beamer@framepages {10}{11}}
\headcommand {\slideentry {1}{0}{6}{12/13}{}{0}}
\headcommand {\beamer@framepages {12}{13}}
\headcommand {\beamer@sectionpages {3}{13}}
\headcommand {\beamer@subsectionpages {3}{13}}
\headcommand {\sectionentry {2}{Background and Results on Ranking Aggregation}{14}{Background and Results on Ranking Aggregation}{0}}
\headcommand {\slideentry {2}{0}{1}{14/14}{}{0}}
\headcommand {\beamer@framepages {14}{14}}
\headcommand {\slideentry {2}{0}{2}{15/17}{}{0}}
\headcommand {\beamer@framepages {15}{17}}
\headcommand {\slideentry {2}{0}{3}{18/19}{}{0}}
\headcommand {\beamer@framepages {18}{19}}
\headcommand {\slideentry {2}{0}{4}{20/25}{}{0}}
\headcommand {\beamer@framepages {20}{25}}
\headcommand {\slideentry {2}{0}{5}{26/26}{}{0}}
\headcommand {\beamer@framepages {26}{26}}
\headcommand {\beamer@sectionpages {14}{26}}
\headcommand {\beamer@subsectionpages {14}{26}}
\headcommand {\sectionentry {3}{Risk Minimization for Ranking (Median) Regression}{27}{Risk Minimization for Ranking (Median) Regression}{0}}
\headcommand {\slideentry {3}{0}{1}{27/27}{}{0}}
\headcommand {\beamer@framepages {27}{27}}
\headcommand {\slideentry {3}{0}{2}{28/28}{}{0}}
\headcommand {\beamer@framepages {28}{28}}
\headcommand {\slideentry {3}{0}{3}{29/31}{}{0}}
\headcommand {\beamer@framepages {29}{31}}
\headcommand {\slideentry {3}{0}{4}{32/33}{}{0}}
\headcommand {\beamer@framepages {32}{33}}
\headcommand {\slideentry {3}{0}{5}{34/35}{}{0}}
\headcommand {\beamer@framepages {34}{35}}
\headcommand {\beamer@sectionpages {27}{35}}
\headcommand {\beamer@subsectionpages {27}{35}}
\headcommand {\sectionentry {4}{Algorithms - Local Median Methods}{36}{Algorithms - Local Median Methods}{0}}
\headcommand {\slideentry {4}{0}{1}{36/36}{}{0}}
\headcommand {\beamer@framepages {36}{36}}
\headcommand {\slideentry {4}{0}{2}{37/38}{}{0}}
\headcommand {\beamer@framepages {37}{38}}
\headcommand {\slideentry {4}{0}{3}{39/39}{}{0}}
\headcommand {\beamer@framepages {39}{39}}
\headcommand {\slideentry {4}{0}{4}{40/41}{}{0}}
\headcommand {\beamer@framepages {40}{41}}
\headcommand {\slideentry {4}{0}{5}{42/42}{}{0}}
\headcommand {\beamer@framepages {42}{42}}
\headcommand {\slideentry {4}{0}{6}{44/46}{}{0}}
\headcommand {\beamer@framepages {44}{46}}
\headcommand {\beamer@partpages {1}{46}}
\headcommand {\beamer@subsectionpages {36}{46}}
\headcommand {\beamer@sectionpages {36}{46}}
\headcommand {\beamer@documentpages {46}}
\headcommand {\gdef \inserttotalframenumber {24}}
