\beamer@sectionintoc {1}{Background and Results on Ranking Aggregation}{8}{0}{1}
\beamer@sectionintoc {2}{Ranking Median Regression}{23}{0}{2}
\beamer@sectionintoc {3}{Local Consensus Methods for Ranking Median Regression}{30}{0}{3}
