\relax 
\providecommand\hyper@newdestlabel[2]{}
\providecommand\HyperFirstAtBeginDocument{\AtBeginDocument}
\HyperFirstAtBeginDocument{\ifx\hyper@anchor\@undefined
\global\let\oldcontentsline\contentsline
\gdef\contentsline#1#2#3#4{\oldcontentsline{#1}{#2}{#3}}
\global\let\oldnewlabel\newlabel
\gdef\newlabel#1#2{\newlabelxx{#1}#2}
\gdef\newlabelxx#1#2#3#4#5#6{\oldnewlabel{#1}{{#2}{#3}}}
\AtEndDocument{\ifx\hyper@anchor\@undefined
\let\contentsline\oldcontentsline
\let\newlabel\oldnewlabel
\fi}
\fi}
\global\let\hyper@last\relax 
\gdef\HyperFirstAtBeginDocument#1{#1}
\providecommand*\HyPL@Entry[1]{}
\HyPL@Entry{0<</P(1)>>}
\@writefile{nav}{\headcommand {\slideentry {0}{0}{1}{1/1}{}{0}}}
\@writefile{nav}{\headcommand {\beamer@framepages {1}{1}}}
\HyPL@Entry{1<</P(2)>>}
\@writefile{nav}{\headcommand {\slideentry {0}{0}{2}{2/4}{}{0}}}
\@writefile{nav}{\headcommand {\beamer@framepages {2}{4}}}
\citation{tsoumakas2009mining}
\citation{vembu2010label}
\citation{cheng2009new}
\citation{CHH09}
\citation{CDH10}
\citation{CKS17}
\HyPL@Entry{4<</P(3)>>}
\citation{tsoumakas2009mining}
\citation{vembu2010label}
\citation{cheng2009new}
\citation{CHH09}
\citation{CDH10}
\citation{CKS17}
\@writefile{nav}{\headcommand {\slideentry {0}{0}{3}{5/6}{}{0}}}
\@writefile{nav}{\headcommand {\beamer@framepages {5}{6}}}
\HyPL@Entry{6<</P(4)>>}
\@writefile{nav}{\headcommand {\slideentry {0}{0}{4}{7/7}{}{0}}}
\@writefile{nav}{\headcommand {\beamer@framepages {7}{7}}}
\HyPL@Entry{7<</P(5)>>}
\@writefile{toc}{\beamer@sectionintoc {1}{Background and Results on Ranking Aggregation}{8}{0}{1}}
\@writefile{nav}{\headcommand {\beamer@sectionpages {1}{7}}}
\@writefile{nav}{\headcommand {\beamer@subsectionpages {1}{7}}}
\@writefile{nav}{\headcommand {\sectionentry {1}{Background and Results on Ranking Aggregation}{8}{Background and Results on Ranking Aggregation}{0}}}
\@writefile{nav}{\headcommand {\slideentry {1}{0}{1}{8/8}{}{0}}}
\@writefile{nav}{\headcommand {\beamer@framepages {8}{8}}}
\HyPL@Entry{8<</P(6)>>}
\@writefile{nav}{\headcommand {\slideentry {1}{0}{2}{9/10}{}{0}}}
\@writefile{nav}{\headcommand {\beamer@framepages {9}{10}}}
\citation{CKS17}
\HyPL@Entry{10<</P(7)>>}
\@writefile{snm}{\beamer@slide {eq:Kemeny_median}{11}}
\newlabel{eq:Kemeny_median}{{1}{11}{Background and Results on Ranking Aggregation}{Doc-Start}{}}
\citation{CKS17}
\@writefile{nav}{\headcommand {\slideentry {1}{0}{3}{11/12}{}{0}}}
\@writefile{nav}{\headcommand {\beamer@framepages {11}{12}}}
\citation{CKS17}
\HyPL@Entry{12<</P(8)>>}
\citation{CKS17}
\citation{CKS17}
\citation{CKS17}
\@writefile{nav}{\headcommand {\slideentry {1}{0}{4}{13/16}{}{0}}}
\@writefile{nav}{\headcommand {\beamer@framepages {13}{16}}}
\HyPL@Entry{16<</P(9)>>}
\@writefile{nav}{\headcommand {\slideentry {1}{0}{5}{17/17}{}{0}}}
\@writefile{nav}{\headcommand {\beamer@framepages {17}{17}}}
\citation{CKS17}
\HyPL@Entry{17<</P(10)>>}
\citation{CKS17}
\citation{CKS17}
\@writefile{nav}{\headcommand {\slideentry {1}{0}{6}{18/20}{}{0}}}
\@writefile{nav}{\headcommand {\beamer@framepages {18}{20}}}
\citation{jiang2011statistical}
\HyPL@Entry{20<</P(11)>>}
\citation{jiang2011statistical}
\@writefile{nav}{\headcommand {\slideentry {1}{0}{7}{21/22}{}{0}}}
\@writefile{nav}{\headcommand {\beamer@framepages {21}{22}}}
\HyPL@Entry{22<</P(12)>>}
\@writefile{toc}{\beamer@sectionintoc {2}{Ranking Median Regression}{23}{0}{2}}
\@writefile{nav}{\headcommand {\beamer@sectionpages {8}{22}}}
\@writefile{nav}{\headcommand {\beamer@subsectionpages {8}{22}}}
\@writefile{nav}{\headcommand {\sectionentry {2}{Ranking Median Regression}{23}{Ranking Median Regression}{0}}}
\@writefile{nav}{\headcommand {\slideentry {2}{0}{1}{23/23}{}{0}}}
\@writefile{nav}{\headcommand {\beamer@framepages {23}{23}}}
\HyPL@Entry{23<</P(13)>>}
\@writefile{nav}{\headcommand {\slideentry {2}{0}{2}{24/24}{}{0}}}
\@writefile{nav}{\headcommand {\beamer@framepages {24}{24}}}
\HyPL@Entry{24<</P(14)>>}
\@writefile{snm}{\beamer@slide {eq:risk_theo}{25}}
\newlabel{eq:risk_theo}{{2}{25}{Ranking Median Regression}{Doc-Start}{}}
\@writefile{nav}{\headcommand {\slideentry {2}{0}{3}{25/27}{}{0}}}
\@writefile{nav}{\headcommand {\beamer@framepages {25}{27}}}
\HyPL@Entry{27<</P(15)>>}
\@writefile{nav}{\headcommand {\slideentry {2}{0}{4}{28/29}{}{0}}}
\@writefile{nav}{\headcommand {\beamer@framepages {28}{29}}}
\HyPL@Entry{29<</P(16)>>}
\@writefile{toc}{\beamer@sectionintoc {3}{Local Consensus Methods for Ranking Median Regression}{30}{0}{3}}
\@writefile{nav}{\headcommand {\beamer@sectionpages {23}{29}}}
\@writefile{nav}{\headcommand {\beamer@subsectionpages {23}{29}}}
\@writefile{nav}{\headcommand {\sectionentry {3}{Local Consensus Methods for Ranking Median Regression}{30}{Local Consensus Methods for Ranking Median Regression}{0}}}
\@writefile{nav}{\headcommand {\slideentry {3}{0}{1}{30/30}{}{0}}}
\@writefile{nav}{\headcommand {\beamer@framepages {30}{30}}}
\HyPL@Entry{30<</P(17)>>}
\@writefile{nav}{\headcommand {\slideentry {3}{0}{2}{31/33}{}{0}}}
\@writefile{nav}{\headcommand {\beamer@framepages {31}{33}}}
\HyPL@Entry{33<</P(18)>>}
\@writefile{nav}{\headcommand {\slideentry {3}{0}{3}{34/35}{}{0}}}
\@writefile{nav}{\headcommand {\beamer@framepages {34}{35}}}
\HyPL@Entry{35<</P(19)>>}
\@writefile{nav}{\headcommand {\slideentry {3}{0}{4}{36/37}{}{0}}}
\@writefile{nav}{\headcommand {\beamer@framepages {36}{37}}}
\HyPL@Entry{37<</P(20)>>}
\@writefile{nav}{\headcommand {\slideentry {3}{0}{5}{38/38}{}{0}}}
\@writefile{nav}{\headcommand {\beamer@framepages {38}{38}}}
\citation{alvo2014decision}
\HyPL@Entry{38<</P(21)>>}
\@writefile{nav}{\headcommand {\slideentry {3}{0}{6}{39/39}{}{0}}}
\@writefile{nav}{\headcommand {\beamer@framepages {39}{39}}}
\HyPL@Entry{39<</P(22)>>}
\@writefile{nav}{\headcommand {\slideentry {3}{0}{7}{40/40}{}{0}}}
\@writefile{nav}{\headcommand {\beamer@framepages {40}{40}}}
\bibstyle{apalike}
\bibdata{biblio}
\bibcite{alvo2014decision}{\hyperlink {beamerbibalvo2014decision}{Alvo and Philip, 2014}}
\bibcite{CDH10}{\hyperlink {beamerbibCDH10}{Cheng et\nobreakspace  {}al., 2010}}
\bibcite{CHH09}{\hyperlink {beamerbibCHH09}{Cheng et\nobreakspace  {}al., 2009}}
\bibcite{cheng2009new}{\hyperlink {beamerbibcheng2009new}{Cheng and H{\"u}llermeier, 2009}}
\bibcite{jiang2011statistical}{\hyperlink {beamerbibjiang2011statistical}{Jiang et\nobreakspace  {}al., 2011}}
\HyPL@Entry{40<</S/D /St 41>>}
\bibcite{CKS17}{\hyperlink {beamerbibCKS17}{Korba et\nobreakspace  {}al., 2017}}
\bibcite{tsoumakas2009mining}{\hyperlink {beamerbibtsoumakas2009mining}{Tsoumakas et\nobreakspace  {}al., 2009}}
\bibcite{vembu2010label}{\hyperlink {beamerbibvembu2010label}{Vembu and G{\"a}rtner, 2010}}
\@writefile{nav}{\headcommand {\beamer@partpages {1}{42}}}
\@writefile{nav}{\headcommand {\beamer@subsectionpages {30}{42}}}
\@writefile{nav}{\headcommand {\beamer@sectionpages {30}{42}}}
\@writefile{nav}{\headcommand {\beamer@documentpages {42}}}
\@writefile{nav}{\headcommand {\gdef \inserttotalframenumber {22}}}
