\relax 
\providecommand\hyper@newdestlabel[2]{}
\providecommand\HyperFirstAtBeginDocument{\AtBeginDocument}
\HyperFirstAtBeginDocument{\ifx\hyper@anchor\@undefined
\global\let\oldcontentsline\contentsline
\gdef\contentsline#1#2#3#4{\oldcontentsline{#1}{#2}{#3}}
\global\let\oldnewlabel\newlabel
\gdef\newlabel#1#2{\newlabelxx{#1}#2}
\gdef\newlabelxx#1#2#3#4#5#6{\oldnewlabel{#1}{{#2}{#3}}}
\AtEndDocument{\ifx\hyper@anchor\@undefined
\let\contentsline\oldcontentsline
\let\newlabel\oldnewlabel
\fi}
\fi}
\global\let\hyper@last\relax 
\gdef\HyperFirstAtBeginDocument#1{#1}
\providecommand\HyField@AuxAddToFields[1]{}
\providecommand\HyField@AuxAddToCoFields[2]{}
\citation{ukkonen2009randomized}
\citation{ailon2008aggregating}
\select@language{english}
\@writefile{toc}{\select@language{english}}
\@writefile{lof}{\select@language{english}}
\@writefile{lot}{\select@language{english}}
\@writefile{toc}{\contentsline {section}{\numberline {1}Questions}{1}{section.1}}
\@writefile{toc}{\contentsline {section}{\numberline {2}Bibliography}{1}{section.2}}
\@writefile{toc}{\contentsline {subsection}{\numberline {2.1}Definitions}{1}{subsection.2.1}}
\newlabel{eq:triangle}{{1}{1}{Definitions}{equation.2.1}{}}
\newlabel{eq:bod}{{2}{1}{Definitions}{equation.2.2}{}}
\@writefile{toc}{\contentsline {subsection}{\numberline {2.2}Pivot \cite  {ukkonen2009randomized}}{1}{subsection.2.2}}
\citation{van2009deterministic}
\citation{fagin2004comparing}
\citation{fagin2003efficient}
\citation{fagin2003efficient}
\citation{feng2008discovering}
\@writefile{toc}{\contentsline {subsection}{\numberline {2.3}Dynamic Programming algorithm \cite  {fagin2004comparing}}{2}{subsection.2.3}}
\citation{fagin2003efficient}
\citation{bellman1961approximation}
\citation{himberg2001time}
\citation{terzi2006efficient}
\citation{ukkonen2009randomized}
\citation{feng2008discovering}
\citation{fagin2004comparing}
\citation{*}
\@writefile{toc}{\contentsline {subsection}{\numberline {2.4}Feng 2008 \cite  {feng2008discovering}}{3}{subsection.2.4}}
\@writefile{toc}{\contentsline {section}{\numberline {3}Summary table}{3}{section.3}}
\bibstyle{unsrt}
\bibdata{ref}
\bibcite{ukkonen2009randomized}{{1}{}{{}}{{}}}
\bibcite{ailon2008aggregating}{{2}{}{{}}{{}}}
\bibcite{van2009deterministic}{{3}{}{{}}{{}}}
\bibcite{fagin2004comparing}{{4}{}{{}}{{}}}
\bibcite{fagin2003efficient}{{5}{}{{}}{{}}}
\bibcite{feng2008discovering}{{6}{}{{}}{{}}}
\bibcite{bellman1961approximation}{{7}{}{{}}{{}}}
\bibcite{himberg2001time}{{8}{}{{}}{{}}}
\bibcite{terzi2006efficient}{{9}{}{{}}{{}}}
\bibcite{ailon2010aggregation}{{10}{}{{}}{{}}}
\bibcite{fagin2006comparing}{{11}{}{{}}{{}}}
\bibcite{fagin2003comparing}{{12}{}{{}}{{}}}
\bibcite{gionis2006algorithms}{{13}{}{{}}{{}}}
\bibcite{koivisto2010space}{{14}{}{{}}{{}}}
\bibcite{kenkre2011discovering}{{15}{}{{}}{{}}}
\bibcite{lebanon2007non}{{16}{}{{}}{{}}}
\bibcite{xia2011maximum}{{17}{}{{}}{{}}}
\providecommand\NAT@force@numbers{}\NAT@force@numbers
