This is BibTeX, Version 0.99d (TeX Live 2015)
Capacity: max_strings=35307, hash_size=35307, hash_prime=30011
The top-level auxiliary file: bucket_orders.aux
The style file: unsrt.bst
Database file #1: ref.bib
Repeated entry---line 136 of file ref.bib
 : @inproceedings{gionis2006algorithms
 :                                    ,
I'm skipping whatever remains of this entry
Warning--can't use both volume and number fields in xia2011maximum
You've used 17 entries,
            1791 wiz_defined-function locations,
            554 strings with 6648 characters,
and the built_in function-call counts, 5227 in all, are:
= -- 512
> -- 182
< -- 11
+ -- 67
- -- 50
* -- 330
:= -- 736
add.period$ -- 59
call.type$ -- 17
change.case$ -- 17
chr.to.int$ -- 0
cite$ -- 18
duplicate$ -- 265
empty$ -- 516
format.name$ -- 50
if$ -- 1247
int.to.chr$ -- 0
int.to.str$ -- 17
missing$ -- 17
newline$ -- 88
num.names$ -- 17
pop$ -- 67
preamble$ -- 1
purify$ -- 0
quote$ -- 0
skip$ -- 156
stack$ -- 0
substring$ -- 392
swap$ -- 111
text.length$ -- 11
text.prefix$ -- 0
top$ -- 0
type$ -- 0
warning$ -- 1
while$ -- 55
width$ -- 19
write$ -- 198
(There was 1 error message)
