\BOOKMARK [2][]{Outline0.1}{Introduction\040to\040Ranking\040Data}{}% 1
\BOOKMARK [2][]{Outline0.2}{Ranking\040Regression}{}% 2
\BOOKMARK [2][]{Outline0.3}{Background\040on\040Ranking\040Aggregation/Medians}{}% 3
\BOOKMARK [2][]{Outline0.4}{Risk\040Minimization\040for\040Ranking\040\(Median\)\040Regression}{}% 4
\BOOKMARK [2][]{Outline0.5}{Algorithms\040-\040Local\040Median\040Methods}{}% 5
\BOOKMARK [2][]{Outline0.6}{Ongoing\040work\040-\040Structured\040prediction\040methods}{}% 6
\BOOKMARK [2][]{Outline0.7}{Conclusion}{}% 7
