\relax 
\providecommand\hyper@newdestlabel[2]{}
\providecommand\HyperFirstAtBeginDocument{\AtBeginDocument}
\HyperFirstAtBeginDocument{\ifx\hyper@anchor\@undefined
\global\let\oldcontentsline\contentsline
\gdef\contentsline#1#2#3#4{\oldcontentsline{#1}{#2}{#3}}
\global\let\oldnewlabel\newlabel
\gdef\newlabel#1#2{\newlabelxx{#1}#2}
\gdef\newlabelxx#1#2#3#4#5#6{\oldnewlabel{#1}{{#2}{#3}}}
\AtEndDocument{\ifx\hyper@anchor\@undefined
\let\contentsline\oldcontentsline
\let\newlabel\oldnewlabel
\fi}
\fi}
\global\let\hyper@last\relax 
\gdef\HyperFirstAtBeginDocument#1{#1}
\providecommand*\HyPL@Entry[1]{}
\HyPL@Entry{0<</P(1)>>}
\@writefile{nav}{\headcommand {\slideentry {0}{0}{1}{1/1}{}{0}}}
\@writefile{nav}{\headcommand {\beamer@framepages {1}{1}}}
\HyPL@Entry{1<</P(2)>>}
\@writefile{nav}{\headcommand {\slideentry {0}{0}{2}{2/2}{}{0}}}
\@writefile{nav}{\headcommand {\beamer@framepages {2}{2}}}
\HyPL@Entry{2<</P(3)>>}
\@writefile{toc}{\beamer@sectionintoc {1}{Introduction to Ranking Data}{3}{0}{1}}
\@writefile{nav}{\headcommand {\beamer@sectionpages {1}{2}}}
\@writefile{nav}{\headcommand {\beamer@subsectionpages {1}{2}}}
\@writefile{nav}{\headcommand {\sectionentry {1}{Introduction to Ranking Data}{3}{Introduction to Ranking Data}{0}}}
\@writefile{nav}{\headcommand {\slideentry {1}{0}{1}{3/3}{}{0}}}
\@writefile{nav}{\headcommand {\beamer@framepages {3}{3}}}
\HyPL@Entry{3<</P(4)>>}
\@writefile{nav}{\headcommand {\slideentry {1}{0}{2}{4/4}{}{0}}}
\@writefile{nav}{\headcommand {\beamer@framepages {4}{4}}}
\HyPL@Entry{4<</P(5)>>}
\@writefile{nav}{\headcommand {\slideentry {1}{0}{3}{5/5}{}{0}}}
\@writefile{nav}{\headcommand {\beamer@framepages {5}{5}}}
\HyPL@Entry{5<</P(6)>>}
\@writefile{nav}{\headcommand {\slideentry {1}{0}{4}{6/6}{}{0}}}
\@writefile{nav}{\headcommand {\beamer@framepages {6}{6}}}
\HyPL@Entry{6<</P(7)>>}
\@writefile{nav}{\headcommand {\slideentry {1}{0}{5}{7/7}{}{0}}}
\@writefile{nav}{\headcommand {\beamer@framepages {7}{7}}}
\HyPL@Entry{7<</P(8)>>}
\@writefile{nav}{\headcommand {\slideentry {1}{0}{6}{8/14}{}{0}}}
\@writefile{nav}{\headcommand {\beamer@framepages {8}{14}}}
\HyPL@Entry{14<</P(9)>>}
\@writefile{nav}{\headcommand {\slideentry {1}{0}{7}{15/15}{}{0}}}
\@writefile{nav}{\headcommand {\beamer@framepages {15}{15}}}
\citation{Mallows57}
\citation{Luce59}
\citation{Plackett75}
\HyPL@Entry{15<</P(10)>>}
\citation{Mallows57}
\citation{Luce59}
\citation{Plackett75}
\@writefile{nav}{\headcommand {\slideentry {1}{0}{8}{16/17}{}{0}}}
\@writefile{nav}{\headcommand {\beamer@framepages {16}{17}}}
\citation{CGJ11}
\citation{Kondor2010}
\citation{SCK15}
\citation{plis2011directional}
\citation{JKS16}
\HyPL@Entry{17<</P(11)>>}
\citation{CGJ11}
\citation{Kondor2010}
\citation{SCK15}
\citation{plis2011directional}
\citation{JKS16}
\@writefile{nav}{\headcommand {\slideentry {1}{0}{9}{18/19}{}{0}}}
\@writefile{nav}{\headcommand {\beamer@framepages {18}{19}}}
\citation{jiang2011statistical}
\citation{shah2015simple}
\HyPL@Entry{19<</P(12)>>}
\@writefile{nav}{\headcommand {\slideentry {1}{0}{10}{20/20}{}{0}}}
\@writefile{nav}{\headcommand {\beamer@framepages {20}{20}}}
\HyPL@Entry{20<</P(13)>>}
\@writefile{nav}{\headcommand {\slideentry {1}{0}{11}{21/21}{}{0}}}
\@writefile{nav}{\headcommand {\beamer@framepages {21}{21}}}
\HyPL@Entry{21<</P(14)>>}
\@writefile{toc}{\beamer@sectionintoc {2}{Ranking Regression}{22}{0}{2}}
\@writefile{nav}{\headcommand {\beamer@sectionpages {3}{21}}}
\@writefile{nav}{\headcommand {\beamer@subsectionpages {3}{21}}}
\@writefile{nav}{\headcommand {\sectionentry {2}{Ranking Regression}{22}{Ranking Regression}{0}}}
\@writefile{nav}{\headcommand {\slideentry {2}{0}{1}{22/22}{}{0}}}
\@writefile{nav}{\headcommand {\beamer@framepages {22}{22}}}
\HyPL@Entry{22<</P(15)>>}
\@writefile{nav}{\headcommand {\slideentry {2}{0}{2}{23/24}{}{0}}}
\@writefile{nav}{\headcommand {\beamer@framepages {23}{24}}}
\citation{tsoumakas2009mining}
\citation{vembu2010label}
\citation{cheng2009new}
\citation{CHH09}
\citation{CDH10}
\citation{CKS17}
\HyPL@Entry{24<</P(16)>>}
\citation{tsoumakas2009mining}
\citation{vembu2010label}
\citation{cheng2009new}
\citation{CHH09}
\citation{CDH10}
\citation{CKS17}
\@writefile{nav}{\headcommand {\slideentry {2}{0}{3}{25/26}{}{0}}}
\@writefile{nav}{\headcommand {\beamer@framepages {25}{26}}}
\HyPL@Entry{26<</P(17)>>}
\@writefile{nav}{\headcommand {\slideentry {2}{0}{4}{27/27}{}{0}}}
\@writefile{nav}{\headcommand {\beamer@framepages {27}{27}}}
\HyPL@Entry{27<</P(18)>>}
\@writefile{nav}{\headcommand {\slideentry {2}{0}{5}{28/29}{}{0}}}
\@writefile{nav}{\headcommand {\beamer@framepages {28}{29}}}
\HyPL@Entry{29<</P(19)>>}
\@writefile{nav}{\headcommand {\slideentry {2}{0}{6}{30/31}{}{0}}}
\@writefile{nav}{\headcommand {\beamer@framepages {30}{31}}}
\HyPL@Entry{31<</P(20)>>}
\@writefile{nav}{\headcommand {\slideentry {2}{0}{7}{32/33}{}{0}}}
\@writefile{nav}{\headcommand {\beamer@framepages {32}{33}}}
\HyPL@Entry{33<</P(21)>>}
\@writefile{toc}{\beamer@sectionintoc {3}{Background on Ranking Aggregation/Medians}{34}{0}{3}}
\@writefile{nav}{\headcommand {\beamer@sectionpages {22}{33}}}
\@writefile{nav}{\headcommand {\beamer@subsectionpages {22}{33}}}
\@writefile{nav}{\headcommand {\sectionentry {3}{Background on Ranking Aggregation/Medians}{34}{Background on Ranking Aggregation/Medians}{0}}}
\@writefile{nav}{\headcommand {\slideentry {3}{0}{1}{34/34}{}{0}}}
\@writefile{nav}{\headcommand {\beamer@framepages {34}{34}}}
\HyPL@Entry{34<</P(22)>>}
\@writefile{nav}{\headcommand {\slideentry {3}{0}{2}{35/38}{}{0}}}
\@writefile{nav}{\headcommand {\beamer@framepages {35}{38}}}
\citation{CKS17}
\HyPL@Entry{38<</P(23)>>}
\@writefile{snm}{\beamer@slide {eq:Kemeny_median}{39}}
\newlabel{eq:Kemeny_median}{{1}{39}{Background on Ranking Aggregation/Medians}{Doc-Start}{}}
\citation{CKS17}
\@writefile{nav}{\headcommand {\slideentry {3}{0}{3}{39/40}{}{0}}}
\@writefile{nav}{\headcommand {\beamer@framepages {39}{40}}}
\citation{AudTsy07}
\citation{CKS17}
\HyPL@Entry{40<</P(24)>>}
\citation{AudTsy07}
\citation{CKS17}
\citation{AudTsy07}
\citation{CKS17}
\citation{AudTsy07}
\citation{CKS17}
\citation{AudTsy07}
\citation{CKS17}
\citation{AudTsy07}
\citation{CKS17}
\@writefile{nav}{\headcommand {\slideentry {3}{0}{4}{41/46}{}{0}}}
\@writefile{nav}{\headcommand {\beamer@framepages {41}{46}}}
\HyPL@Entry{46<</P(25)>>}
\@writefile{nav}{\headcommand {\slideentry {3}{0}{5}{47/47}{}{0}}}
\@writefile{nav}{\headcommand {\beamer@framepages {47}{47}}}
\HyPL@Entry{47<</P(26)>>}
\@writefile{toc}{\beamer@sectionintoc {4}{Risk Minimization for Ranking (Median) Regression}{48}{0}{4}}
\@writefile{nav}{\headcommand {\beamer@sectionpages {34}{47}}}
\@writefile{nav}{\headcommand {\beamer@subsectionpages {34}{47}}}
\@writefile{nav}{\headcommand {\sectionentry {4}{Risk Minimization for Ranking (Median) Regression}{48}{Risk Minimization for Ranking (Median) Regression}{0}}}
\@writefile{nav}{\headcommand {\slideentry {4}{0}{1}{48/48}{}{0}}}
\@writefile{nav}{\headcommand {\beamer@framepages {48}{48}}}
\HyPL@Entry{48<</P(27)>>}
\@writefile{nav}{\headcommand {\slideentry {4}{0}{2}{49/50}{}{0}}}
\@writefile{nav}{\headcommand {\beamer@framepages {49}{50}}}
\HyPL@Entry{50<</P(28)>>}
\@writefile{nav}{\headcommand {\slideentry {4}{0}{3}{51/53}{}{0}}}
\@writefile{nav}{\headcommand {\beamer@framepages {51}{53}}}
\HyPL@Entry{53<</P(29)>>}
\@writefile{nav}{\headcommand {\slideentry {4}{0}{4}{54/55}{}{0}}}
\@writefile{nav}{\headcommand {\beamer@framepages {54}{55}}}
\HyPL@Entry{55<</P(30)>>}
\@writefile{nav}{\headcommand {\slideentry {4}{0}{5}{56/56}{}{0}}}
\@writefile{nav}{\headcommand {\beamer@framepages {56}{56}}}
\HyPL@Entry{56<</P(31)>>}
\@writefile{toc}{\beamer@sectionintoc {5}{Algorithms - Local Median Methods}{57}{0}{5}}
\@writefile{nav}{\headcommand {\beamer@sectionpages {48}{56}}}
\@writefile{nav}{\headcommand {\beamer@subsectionpages {48}{56}}}
\@writefile{nav}{\headcommand {\sectionentry {5}{Algorithms - Local Median Methods}{57}{Algorithms - Local Median Methods}{0}}}
\@writefile{nav}{\headcommand {\slideentry {5}{0}{1}{57/57}{}{0}}}
\@writefile{nav}{\headcommand {\beamer@framepages {57}{57}}}
\HyPL@Entry{57<</P(32)>>}
\@writefile{nav}{\headcommand {\slideentry {5}{0}{2}{58/59}{}{0}}}
\@writefile{nav}{\headcommand {\beamer@framepages {58}{59}}}
\citation{jiang2011statistical}
\HyPL@Entry{59<</P(33)>>}
\citation{jiang2011statistical}
\@writefile{nav}{\headcommand {\slideentry {5}{0}{3}{60/61}{}{0}}}
\@writefile{nav}{\headcommand {\beamer@framepages {60}{61}}}
\HyPL@Entry{61<</P(34)>>}
\@writefile{nav}{\headcommand {\slideentry {5}{0}{4}{62/62}{}{0}}}
\@writefile{nav}{\headcommand {\beamer@framepages {62}{62}}}
\citation{alvo2014decision}
\HyPL@Entry{62<</P(35)>>}
\citation{alvo2014decision}
\@writefile{nav}{\headcommand {\slideentry {5}{0}{5}{63/64}{}{0}}}
\@writefile{nav}{\headcommand {\beamer@framepages {63}{64}}}
\HyPL@Entry{64<</P(36)>>}
\newlabel{table:simulated_data}{{1}{65}{Algorithms - Local Median Methods}{Doc-Start}{}}
\@writefile{snm}{\beamer@slide {table:simulated_data}{65}}
\@writefile{nav}{\headcommand {\slideentry {5}{0}{6}{65/65}{}{0}}}
\@writefile{nav}{\headcommand {\beamer@framepages {65}{65}}}
\HyPL@Entry{65<</P(37)>>}
\@writefile{toc}{\beamer@sectionintoc {6}{Ongoing work - Structured prediction methods}{66}{0}{6}}
\@writefile{nav}{\headcommand {\beamer@sectionpages {57}{65}}}
\@writefile{nav}{\headcommand {\beamer@subsectionpages {57}{65}}}
\@writefile{nav}{\headcommand {\sectionentry {6}{Ongoing work - Structured prediction methods}{66}{Ongoing work - Structured prediction methods}{0}}}
\@writefile{nav}{\headcommand {\slideentry {6}{0}{1}{66/66}{}{0}}}
\@writefile{nav}{\headcommand {\beamer@framepages {66}{66}}}
\HyPL@Entry{66<</P(38)>>}
\@writefile{nav}{\headcommand {\slideentry {6}{0}{2}{67/68}{}{0}}}
\@writefile{nav}{\headcommand {\beamer@framepages {67}{68}}}
\citation{ciliberto2016consistent}
\citation{brouard2016input}
\HyPL@Entry{68<</P(39)>>}
\@writefile{snm}{\beamer@slide {eq:risk_theo_struc}{69}}
\newlabel{eq:risk_theo_struc}{{2}{69}{Ongoing work - Structured prediction methods}{Doc-Start}{}}
\@writefile{nav}{\headcommand {\slideentry {6}{0}{3}{69/69}{}{0}}}
\@writefile{nav}{\headcommand {\beamer@framepages {69}{69}}}
\citation{ciliberto2016consistent}
\HyPL@Entry{69<</P(40)>>}
\@writefile{nav}{\headcommand {\slideentry {6}{0}{4}{70/70}{}{0}}}
\@writefile{nav}{\headcommand {\beamer@framepages {70}{70}}}
\HyPL@Entry{70<</P(41)>>}
\@writefile{nav}{\headcommand {\slideentry {6}{0}{5}{71/71}{}{0}}}
\@writefile{nav}{\headcommand {\beamer@framepages {71}{71}}}
\HyPL@Entry{71<</P(42)>>}
\@writefile{toc}{\beamer@sectionintoc {7}{Conclusion}{72}{0}{7}}
\@writefile{nav}{\headcommand {\beamer@sectionpages {66}{71}}}
\@writefile{nav}{\headcommand {\beamer@subsectionpages {66}{71}}}
\@writefile{nav}{\headcommand {\sectionentry {7}{Conclusion}{72}{Conclusion}{0}}}
\@writefile{nav}{\headcommand {\slideentry {7}{0}{1}{72/72}{}{0}}}
\@writefile{nav}{\headcommand {\beamer@framepages {72}{72}}}
\HyPL@Entry{72<</P(43)>>}
\@writefile{nav}{\headcommand {\slideentry {7}{0}{2}{73/73}{}{0}}}
\@writefile{nav}{\headcommand {\beamer@framepages {73}{73}}}
\bibstyle{apalike}
\bibdata{biblio}
\bibcite{alvo2014decision}{\hyperlink {beamerbibalvo2014decision}{Alvo and Philip, 2014}}
\bibcite{AudTsy07}{\hyperlink {beamerbibAudTsy07}{Audibert and Tsybakov, 2007}}
\bibcite{brouard2016input}{\hyperlink {beamerbibbrouard2016input}{Brouard et\nobreakspace  {}al., 2016}}
\bibcite{CDH10}{\hyperlink {beamerbibCDH10}{Cheng et\nobreakspace  {}al., 2010}}
\bibcite{CHH09}{\hyperlink {beamerbibCHH09}{Cheng et\nobreakspace  {}al., 2009}}
\HyPL@Entry{73<</S/D /St 74>>}
\bibcite{cheng2009new}{\hyperlink {beamerbibcheng2009new}{Cheng and H{\"u}llermeier, 2009}}
\bibcite{ciliberto2016consistent}{\hyperlink {beamerbibciliberto2016consistent}{Ciliberto et\nobreakspace  {}al., 2016}}
\bibcite{CGJ11}{\hyperlink {beamerbibCGJ11}{Cl\'emen\c {c}on et\nobreakspace  {}al., 2011}}
\bibcite{jiang2011statistical}{\hyperlink {beamerbibjiang2011statistical}{Jiang et\nobreakspace  {}al., 2011}}
\bibcite{JKS16}{\hyperlink {beamerbibJKS16}{Jiao et\nobreakspace  {}al., 2016}}
\bibcite{Kondor2010}{\hyperlink {beamerbibKondor2010}{Kondor and Barbosa, 2010}}
\bibcite{CKS17}{\hyperlink {beamerbibCKS17}{Korba et\nobreakspace  {}al., 2017}}
\bibcite{Luce59}{\hyperlink {beamerbibLuce59}{Luce, 1959}}
\bibcite{Mallows57}{\hyperlink {beamerbibMallows57}{Mallows, 1957}}
\bibcite{Plackett75}{\hyperlink {beamerbibPlackett75}{Plackett, 1975}}
\bibcite{plis2011directional}{\hyperlink {beamerbibplis2011directional}{Plis et\nobreakspace  {}al., 2011}}
\bibcite{shah2015simple}{\hyperlink {beamerbibshah2015simple}{Shah and Wainwright, 2015}}
\bibcite{SCK15}{\hyperlink {beamerbibSCK15}{Sibony et\nobreakspace  {}al., 2015}}
\bibcite{tsoumakas2009mining}{\hyperlink {beamerbibtsoumakas2009mining}{Tsoumakas et\nobreakspace  {}al., 2009}}
\bibcite{vembu2010label}{\hyperlink {beamerbibvembu2010label}{Vembu and G{\"a}rtner, 2010}}
\HyPL@Entry{77<</P(44)>>}
\HyPL@Entry{78<</S/D /St 79>>}
\@writefile{nav}{\headcommand {\slideentry {7}{0}{3}{78/78}{}{0}}}
\@writefile{nav}{\headcommand {\beamer@framepages {78}{78}}}
\@writefile{nav}{\headcommand {\beamer@partpages {1}{79}}}
\@writefile{nav}{\headcommand {\beamer@subsectionpages {72}{79}}}
\@writefile{nav}{\headcommand {\beamer@sectionpages {72}{79}}}
\@writefile{nav}{\headcommand {\beamer@documentpages {79}}}
\@writefile{nav}{\headcommand {\gdef \inserttotalframenumber {44}}}
