\relax 
\providecommand\hyper@newdestlabel[2]{}
\providecommand\HyperFirstAtBeginDocument{\AtBeginDocument}
\HyperFirstAtBeginDocument{\ifx\hyper@anchor\@undefined
\global\let\oldcontentsline\contentsline
\gdef\contentsline#1#2#3#4{\oldcontentsline{#1}{#2}{#3}}
\global\let\oldnewlabel\newlabel
\gdef\newlabel#1#2{\newlabelxx{#1}#2}
\gdef\newlabelxx#1#2#3#4#5#6{\oldnewlabel{#1}{{#2}{#3}}}
\AtEndDocument{\ifx\hyper@anchor\@undefined
\let\contentsline\oldcontentsline
\let\newlabel\oldnewlabel
\fi}
\fi}
\global\let\hyper@last\relax 
\gdef\HyperFirstAtBeginDocument#1{#1}
\providecommand\HyField@AuxAddToFields[1]{}
\providecommand\HyField@AuxAddToCoFields[2]{}
\bibstyle{plainnat}
\citation{CKS17}
\citation{YWL10}
\citation{cart84}
\citation{CKS17}
\citation{YWL10}
\newlabel{jmlrstart}{{}{1}{}{Doc-Start}{}}
\@writefile{toc}{\contentsline {section}{\numberline {1}Introduction}{1}{section.0.1}}
\newlabel{sec:intro}{{1}{1}{Introduction}{section.0.1}{}}
\citation{CKS17}
\@writefile{toc}{\contentsline {section}{\numberline {2}Background and Preliminaries}{2}{section.0.2}}
\newlabel{sec:background}{{2}{2}{Background and Preliminaries}{section.0.2}{}}
\citation{Kemeny59}
\citation{Mallows57}
\citation{Vapnik}
\citation{CKS17}
\citation{Hudry08}
\@writefile{toc}{\contentsline {subsection}{\numberline {2.1}Consensus Ranking: Probabilistic Framework and Statistical Setup}{3}{subsection.0.2.1}}
\newlabel{subsec:consensus}{{2.1}{3}{Consensus Ranking: Probabilistic Framework and Statistical Setup}{subsection.0.2.1}{}}
\newlabel{eq:ranking_aggregation}{{1}{3}{Consensus Ranking: Probabilistic Framework and Statistical Setup}{equation.0.2.1}{}}
\newlabel{eq:Kendall_tau}{{2}{3}{Consensus Ranking: Probabilistic Framework and Statistical Setup}{equation.0.2.2}{}}
\newlabel{eq:median_pb}{{3}{3}{Consensus Ranking: Probabilistic Framework and Statistical Setup}{equation.0.2.3}{}}
\newlabel{eq:emp_risk}{{4}{3}{Consensus Ranking: Probabilistic Framework and Statistical Setup}{equation.0.2.4}{}}
\citation{CKS17}
\citation{CKS17}
\citation{CKS17}
\citation{JLYY10}
\newlabel{def:stoch_trans}{{1}{4}{Consensus Ranking: Probabilistic Framework and Statistical Setup}{theorem.1}{}}
\newlabel{eq:opt_sol}{{5}{4}{Consensus Ranking: Probabilistic Framework and Statistical Setup}{equation.0.2.5}{}}
\newlabel{eq:inf}{{6}{4}{Consensus Ranking: Probabilistic Framework and Statistical Setup}{equation.0.2.6}{}}
\newlabel{eq:sol_SST}{{7}{4}{Consensus Ranking: Probabilistic Framework and Statistical Setup}{equation.0.2.7}{}}
\newlabel{rk:dispersion}{{2}{4}{Consensus Ranking: Probabilistic Framework and Statistical Setup}{theorem.2}{}}
\citation{DETT99}
\citation{JLYY10}
\newlabel{lem:bounds}{{3}{5}{Consensus Ranking: Probabilistic Framework and Statistical Setup}{theorem.3}{}}
\newlabel{eq:DAG}{{10}{5}{Consensus Ranking: Probabilistic Framework and Statistical Setup}{equation.0.2.10}{}}
\newlabel{eq:bound_DAG}{{11}{6}{Consensus Ranking: Probabilistic Framework and Statistical Setup}{equation.0.2.11}{}}
\newlabel{thm:approx_med}{{4}{6}{Consensus Ranking: Probabilistic Framework and Statistical Setup}{theorem.4}{}}
\@writefile{toc}{\contentsline {subsection}{\numberline {2.2}Ranking Median Regression}{6}{subsection.0.2.2}}
\newlabel{subsec:rmr}{{2.2}{6}{Ranking Median Regression}{subsection.0.2.2}{}}
\newlabel{eq:reg_risk}{{13}{6}{Ranking Median Regression}{equation.0.2.13}{}}
\citation{CKS17}
\newlabel{eq:excess_risk}{{14}{7}{Ranking Median Regression}{equation.0.2.14}{}}
\newlabel{eq:ERM}{{15}{7}{Ranking Median Regression}{equation.0.2.15}{}}
\newlabel{eq:emp_reg_risk}{{16}{7}{Ranking Median Regression}{equation.0.2.16}{}}
\newlabel{hyp:complex}{{1}{7}{Ranking Median Regression}{assumption.1}{}}
\citation{YWL10}
\citation{AY14}
\citation{cart84}
\citation{Mallows57}
\citation{fligner1986distance}
\citation{rendle2009bpr}
\citation{lu2015individualized}
\newlabel{prop:upper_bound}{{6}{8}{Ranking Median Regression}{theorem.6}{}}
\newlabel{eq:ERM_bound_gen}{{17}{8}{Ranking Median Regression}{equation.0.2.17}{}}
\@writefile{toc}{\contentsline {section}{\numberline {3}Ranking Median Regression Trees}{8}{section.0.3}}
\newlabel{sec:main}{{3}{8}{Ranking Median Regression Trees}{section.0.3}{}}
\@writefile{toc}{\contentsline {subsection}{\numberline {3.1}Piecewise Constant Predictive Ranking Rules and Local Consensus}{9}{subsection.0.3.1}}
\newlabel{subsec:piece}{{3.1}{9}{Piecewise Constant Predictive Ranking Rules and Local Consensus}{subsection.0.3.1}{}}
\newlabel{eq:piecewise_cst}{{18}{9}{Piecewise Constant Predictive Ranking Rules and Local Consensus}{equation.0.3.18}{}}
\newlabel{prop:opt_subclass}{{8}{9}{Piecewise Constant Predictive Ranking Rules and Local Consensus}{theorem.8}{}}
\newlabel{eq:piecewise_cst_opt}{{19}{9}{Piecewise Constant Predictive Ranking Rules and Local Consensus}{equation.0.3.19}{}}
\newlabel{eq:bias1}{{20}{9}{Piecewise Constant Predictive Ranking Rules and Local Consensus}{equation.0.3.20}{}}
\citation{CKS17}
\citation{YWL10}
\citation{Binev}
\newlabel{hyp:margin}{{2}{10}{Piecewise Constant Predictive Ranking Rules and Local Consensus}{assumption.2}{}}
\newlabel{hyp:smooth}{{3}{10}{Piecewise Constant Predictive Ranking Rules and Local Consensus}{assumption.3}{}}
\newlabel{thm:approx}{{10}{10}{Piecewise Constant Predictive Ranking Rules and Local Consensus}{theorem.10}{}}
\citation{friedman}
\citation{YWL10}
\@writefile{toc}{\contentsline {subsection}{\numberline {3.2}Recursive Partitioning - The {\sc  CRIT} algorithm}{11}{subsection.0.3.2}}
\newlabel{subsec:algo}{{3.2}{11}{Recursive Partitioning - The {\sc CRIT} algorithm}{subsection.0.3.2}{}}
\newlabel{eq:train1}{{23}{11}{Recursive Partitioning - The {\sc CRIT} algorithm}{equation.0.3.23}{}}
\newlabel{eq:crit_exp1}{{24}{11}{Recursive Partitioning - The {\sc CRIT} algorithm}{equation.0.3.24}{}}
\newlabel{eq:crit_exp2}{{25}{11}{Recursive Partitioning - The {\sc CRIT} algorithm}{equation.0.3.25}{}}
\newlabel{eq:double}{{26}{11}{Recursive Partitioning - The {\sc CRIT} algorithm}{equation.0.3.26}{}}
\citation{JLYY10}
\citation{YWL10}
\newlabel{eq:crit_exp2}{{27}{12}{Recursive Partitioning - The {\sc CRIT} algorithm}{equation.0.3.27}{}}
\newlabel{eq:min_pb}{{29}{12}{Recursive Partitioning - The {\sc CRIT} algorithm}{equation.0.3.29}{}}
\newlabel{rk:related}{{13}{12}{Recursive Partitioning - The {\sc CRIT} algorithm}{theorem.13}{}}
\citation{cart84}
\citation{cart84}
\newlabel{rk:perp_split}{{15}{13}{Recursive Partitioning - The {\sc CRIT} algorithm}{theorem.15}{}}
\citation{Br96}
\citation{Br01}
\citation{Mallows57}
\@writefile{toc}{\contentsline {section}{\numberline {4}Numerical Experiments}{14}{section.0.4}}
\newlabel{sec:num}{{4}{14}{Numerical Experiments}{section.0.4}{}}
\@writefile{toc}{\contentsline {subsection}{\numberline {4.1}Simulated Data}{14}{subsection.0.4.1}}
\@writefile{lot}{\contentsline {table}{\numberline {1}{\ignorespaces Empirical risk averaged on 10 trials.\relax }}{14}{table.caption.1}}
\providecommand*\caption@xref[2]{\@setref\relax\@undefined{#1}}
\newlabel{table:simulated_data}{{1}{14}{Empirical risk averaged on 10 trials.\relax }{table.caption.1}{}}
\citation{AY14}
\citation{AY14}
\citation{AY14}
\citation{CKS17}
\citation{YWL10}
\bibstyle{apa}
\bibdata{biblio-thesis}
\bibcite{AY14}{{1}{2014}{{Alvo and Yu}}{{}}}
\@writefile{toc}{\contentsline {subsection}{\numberline {4.2}Analysis of GSS data on job value preferences}{15}{subsection.0.4.2}}
\@writefile{toc}{\contentsline {section}{\numberline {5}Conclusion}{15}{section.0.5}}
\newlabel{sec:conclusion}{{5}{15}{Conclusion}{section.0.5}{}}
\bibcite{Binev}{{2}{2005}{{Binev et~al.}}{{Binev, Cohen, Dahmen, DeVore, and Temlyakov}}}
\bibcite{Br96}{{3}{1996}{{Breiman}}{{}}}
\bibcite{Br01}{{4}{2001}{{Breiman}}{{}}}
\bibcite{cart84}{{5}{1984}{{Breiman et~al.}}{{Breiman, Friedman, Olshen, and Stone}}}
\bibcite{DETT99}{{6}{1999}{{Di~Battista et~al.}}{{Di~Battista, Eades, Tamasia, and Tollis}}}
\bibcite{fligner1986distance}{{7}{1986}{{Fligner and Verducci}}{{}}}
\bibcite{friedman}{{8}{1997}{{Friedman}}{{}}}
\bibcite{Hudry08}{{9}{2008}{{Hudry}}{{}}}
\bibcite{JLYY10}{{10}{2010}{{Jiang et~al.}}{{Jiang, Lim, Yao, and Ye}}}
\bibcite{Kemeny59}{{11}{1959}{{Kemeny}}{{}}}
\bibcite{CKS17}{{12}{2017}{{Korba et~al.}}{{Korba, Cl\'emen\c {c}on, and Sibony}}}
\bibcite{lu2015individualized}{{13}{2015}{{Lu and Negahban}}{{}}}
\bibcite{Mallows57}{{14}{1957}{{Mallows}}{{}}}
\bibcite{rendle2009bpr}{{15}{2009}{{Rendle et~al.}}{{Rendle, Freudenthaler, Gantner, and Schmidt-Thieme}}}
\bibcite{Vapnik}{{16}{2000}{{Vapnik}}{{}}}
\bibcite{YWL10}{{17}{2010}{{Yu et~al.}}{{Yu, Wan, and Lee}}}
\newlabel{jmlrend}{{5}{16}{end of Ranking Median Regression}{section*.3}{}}
