\relax 
\providecommand\hyper@newdestlabel[2]{}
\providecommand\HyperFirstAtBeginDocument{\AtBeginDocument}
\HyperFirstAtBeginDocument{\ifx\hyper@anchor\@undefined
\global\let\oldcontentsline\contentsline
\gdef\contentsline#1#2#3#4{\oldcontentsline{#1}{#2}{#3}}
\global\let\oldnewlabel\newlabel
\gdef\newlabel#1#2{\newlabelxx{#1}#2}
\gdef\newlabelxx#1#2#3#4#5#6{\oldnewlabel{#1}{{#2}{#3}}}
\AtEndDocument{\ifx\hyper@anchor\@undefined
\let\contentsline\oldcontentsline
\let\newlabel\oldnewlabel
\fi}
\fi}
\global\let\hyper@last\relax 
\gdef\HyperFirstAtBeginDocument#1{#1}
\providecommand\HyField@AuxAddToFields[1]{}
\providecommand\HyField@AuxAddToCoFields[2]{}
\@writefile{toc}{\beamer@endinputifotherversion {3.36pt}}
\@writefile{nav}{\beamer@endinputifotherversion {3.36pt}}
\@writefile{nav}{\headcommand {\slideentry {0}{0}{1}{1/1}{}{0}}}
\@writefile{nav}{\headcommand {\beamer@framepages {1}{1}}}
\@writefile{nav}{\headcommand {\slideentry {0}{0}{2}{2/2}{}{0}}}
\@writefile{nav}{\headcommand {\beamer@framepages {2}{2}}}
\@writefile{toc}{\beamer@sectionintoc {1}{The Ranking Aggregation Problem}{3}{0}{1}}
\@writefile{nav}{\headcommand {\sectionentry {1}{The Ranking Aggregation Problem}{3}{The Ranking Aggregation Problem}{0}}}
\@writefile{nav}{\headcommand {\beamer@sectionpages {1}{2}}}
\@writefile{nav}{\headcommand {\beamer@subsectionpages {1}{2}}}
\@writefile{nav}{\headcommand {\slideentry {1}{0}{1}{3/5}{}{0}}}
\@writefile{nav}{\headcommand {\beamer@framepages {3}{5}}}
\@writefile{nav}{\headcommand {\slideentry {1}{0}{2}{6/6}{}{0}}}
\@writefile{nav}{\headcommand {\beamer@framepages {6}{6}}}
\@writefile{nav}{\headcommand {\slideentry {1}{0}{3}{7/9}{}{0}}}
\@writefile{nav}{\headcommand {\beamer@framepages {7}{9}}}
\@writefile{nav}{\headcommand {\slideentry {1}{0}{4}{10/10}{}{0}}}
\@writefile{nav}{\headcommand {\beamer@framepages {10}{10}}}
\@writefile{nav}{\headcommand {\slideentry {1}{0}{5}{11/12}{}{0}}}
\@writefile{nav}{\headcommand {\beamer@framepages {11}{12}}}
\@writefile{toc}{\beamer@sectionintoc {2}{Etude du risque th\IeC {\'e}orique}{13}{0}{2}}
\@writefile{nav}{\headcommand {\sectionentry {2}{Etude du risque th\IeC {\'e}orique}{13}{Etude du risque th\IeC {\'e}orique}{0}}}
\@writefile{nav}{\headcommand {\beamer@sectionpages {3}{12}}}
\@writefile{nav}{\headcommand {\beamer@subsectionpages {3}{12}}}
\@writefile{nav}{\headcommand {\slideentry {2}{0}{1}{13/14}{}{0}}}
\@writefile{nav}{\headcommand {\beamer@framepages {13}{14}}}
\@writefile{nav}{\headcommand {\slideentry {2}{0}{2}{15/16}{}{0}}}
\@writefile{nav}{\headcommand {\beamer@framepages {15}{16}}}
\@writefile{snm}{\beamer@slide {eq:cond_opt}{17}}
\newlabel{eq:cond_opt}{{2}{17}{Etude du risque théorique}{Doc-Start}{}}
\@writefile{nav}{\headcommand {\slideentry {2}{0}{3}{17/19}{}{0}}}
\@writefile{nav}{\headcommand {\beamer@framepages {17}{19}}}
\@writefile{nav}{\headcommand {\slideentry {2}{0}{4}{20/22}{}{0}}}
\@writefile{nav}{\headcommand {\beamer@framepages {20}{22}}}
\@writefile{nav}{\headcommand {\slideentry {2}{0}{5}{23/24}{}{0}}}
\@writefile{nav}{\headcommand {\beamer@framepages {23}{24}}}
\@writefile{toc}{\beamer@sectionintoc {3}{Vitesses de convergence}{25}{0}{3}}
\@writefile{nav}{\headcommand {\sectionentry {3}{Vitesses de convergence}{25}{Vitesses de convergence}{0}}}
\@writefile{nav}{\headcommand {\beamer@sectionpages {13}{24}}}
\@writefile{nav}{\headcommand {\beamer@subsectionpages {13}{24}}}
\@writefile{nav}{\headcommand {\slideentry {3}{0}{1}{25/26}{}{0}}}
\@writefile{nav}{\headcommand {\beamer@framepages {25}{26}}}
\@writefile{nav}{\headcommand {\slideentry {3}{0}{2}{27/29}{}{0}}}
\@writefile{nav}{\headcommand {\beamer@framepages {27}{29}}}
\@writefile{toc}{\beamer@sectionintoc {4}{Conclusion}{30}{0}{4}}
\@writefile{nav}{\headcommand {\sectionentry {4}{Conclusion}{30}{Conclusion}{0}}}
\@writefile{nav}{\headcommand {\beamer@sectionpages {25}{29}}}
\@writefile{nav}{\headcommand {\beamer@subsectionpages {25}{29}}}
\@writefile{nav}{\headcommand {\slideentry {4}{0}{1}{30/33}{}{0}}}
\@writefile{nav}{\headcommand {\beamer@framepages {30}{33}}}
\@writefile{nav}{\headcommand {\beamer@partpages {1}{33}}}
\@writefile{nav}{\headcommand {\beamer@subsectionpages {30}{33}}}
\@writefile{nav}{\headcommand {\beamer@sectionpages {30}{33}}}
\@writefile{nav}{\headcommand {\beamer@documentpages {33}}}
\@writefile{nav}{\headcommand {\def \inserttotalframenumber {15}}}
