\beamer@endinputifotherversion {3.36pt}
\beamer@sectionintoc {1}{The Ranking Aggregation Problem}{3}{0}{1}
\beamer@sectionintoc {2}{Etude du risque th\IeC {\'e}orique}{13}{0}{2}
\beamer@sectionintoc {3}{Vitesses de convergence}{25}{0}{3}
\beamer@sectionintoc {4}{Conclusion}{30}{0}{4}
