\relax 
\citation{CKS17}
\citation{CKS17}
\bibstyle{ieee}
\bibcite{CKS17}{1}
\bibcite{CKS17bis}{2}
\providecommand \oddpage@label [2]{}
\pgfsyspdfmark {pgfid1}{1780200}{797160}
\newlabel{eq:risk_theo}{{1}{2}}
\newlabel{eq:Kemeny_median}{{2}{2}}
